[
    {
        "user": "U0PU8BVJQ",
        "type": "message",
        "subtype": "channel_join",
        "text": "<@U0PU8BVJQ|linda.guijt> has joined the channel",
        "ts": "1458058993.000002"
    },
    {
        "user": "U0PU8BVJQ",
        "purpose": "Organizing",
        "type": "message",
        "subtype": "channel_purpose",
        "text": "<@U0PU8BVJQ|linda.guijt> set the channel purpose: Organizing",
        "ts": "1458058994.000003"
    },
    {
        "type": "message",
        "user": "U0PU8BVJQ",
        "text": "I see more and more people saying in facebook that they are coming/moving to portugal. Even in april or may. Are they coming for the project or just going to portugal in general. Has anyone had any contact with these people? It's very important for all of us to know what's going on and what to expect. We should make a document to list the people that want to come and when. And what they want to do. Otherwise it's going to get very messy. We need to organize this. I'll make such a file, but then I need to get updates on it.",
        "edited": {
            "user": "U0PU8BVJQ",
            "ts": "1458061370.000000"
        },
        "ts": "1458059851.000004",
        "reactions": [
            {
                "name": "+1",
                "users": [
                    "U0NS3HEGL",
                    "U0PUFAPAN",
                    "U0PHF0UAZ",
                    "U0NRZC42H",
                    "U0QKF88EQ"
                ],
                "count": 5
            }
        ]
    },
    {
        "user": "U0NS3HEGL",
        "inviter": "U0PU8BVJQ",
        "type": "message",
        "subtype": "channel_join",
        "text": "<@U0NS3HEGL|canercandan> has joined the channel",
        "ts": "1458059913.000005"
    },
    {
        "user": "U0RLUAGQM",
        "inviter": "U0PU8BVJQ",
        "type": "message",
        "subtype": "channel_join",
        "text": "<@U0RLUAGQM|catycat> has joined the channel",
        "ts": "1458059913.000006"
    },
    {
        "user": "U0PHF0UAZ",
        "inviter": "U0PU8BVJQ",
        "type": "message",
        "subtype": "channel_join",
        "text": "<@U0PHF0UAZ|erwan.lr> has joined the channel",
        "ts": "1458059913.000007"
    },
    {
        "user": "U0NRZC42H",
        "inviter": "U0PU8BVJQ",
        "type": "message",
        "subtype": "channel_join",
        "text": "<@U0NRZC42H|geraldinestarke> has joined the channel",
        "ts": "1458059913.000008"
    },
    {
        "user": "U0QATCU4Q",
        "inviter": "U0PU8BVJQ",
        "type": "message",
        "subtype": "channel_join",
        "text": "<@U0QATCU4Q|jamesleipert> has joined the channel",
        "ts": "1458059913.000009"
    },
    {
        "user": "U0RCKAPAT",
        "inviter": "U0PU8BVJQ",
        "type": "message",
        "subtype": "channel_join",
        "text": "<@U0RCKAPAT|kati> has joined the channel",
        "ts": "1458059913.000010"
    },
    {
        "user": "U0Q5PBY3A",
        "inviter": "U0PU8BVJQ",
        "type": "message",
        "subtype": "channel_join",
        "text": "<@U0Q5PBY3A|marco> has joined the channel",
        "ts": "1458059913.000011"
    },
    {
        "user": "U0PHHAK7Z",
        "inviter": "U0PU8BVJQ",
        "type": "message",
        "subtype": "channel_join",
        "text": "<@U0PHHAK7Z|mark> has joined the channel",
        "ts": "1458059913.000012"
    },
    {
        "user": "U0PUFAPAN",
        "inviter": "U0PU8BVJQ",
        "type": "message",
        "subtype": "channel_join",
        "text": "<@U0PUFAPAN|matt> has joined the channel",
        "ts": "1458059913.000013"
    },
    {
        "user": "U0LQP85B3",
        "inviter": "U0PU8BVJQ",
        "type": "message",
        "subtype": "channel_join",
        "text": "<@U0LQP85B3|melissa> has joined the channel",
        "ts": "1458059913.000014"
    },
    {
        "user": "U0NS0B5EG",
        "inviter": "U0PU8BVJQ",
        "type": "message",
        "subtype": "channel_join",
        "text": "<@U0NS0B5EG|mike.peach> has joined the channel",
        "ts": "1458059913.000015"
    },
    {
        "user": "U0QJ6TY92",
        "inviter": "U0PU8BVJQ",
        "type": "message",
        "subtype": "channel_join",
        "text": "<@U0QJ6TY92|simonavinati> has joined the channel",
        "ts": "1458059913.000016"
    },
    {
        "user": "U0LQDTH7V",
        "inviter": "U0PU8BVJQ",
        "type": "message",
        "subtype": "channel_join",
        "text": "<@U0LQDTH7V|tiagopita> has joined the channel",
        "ts": "1458059913.000017"
    },
    {
        "user": "U0QKF88EQ",
        "inviter": "U0PU8BVJQ",
        "type": "message",
        "subtype": "channel_join",
        "text": "<@U0QKF88EQ|yanay_phenix> has joined the channel",
        "ts": "1458059913.000018"
    },
    {
        "type": "message",
        "user": "U0LQDTH7V",
        "text": "Yes, for now we should tell everyone to wait for the website, people can come and visit the people that are already here",
        "ts": "1458074280.000020"
    },
    {
        "type": "message",
        "user": "U0LQDTH7V",
        "text": "We need to have the website as soon as possible",
        "ts": "1458074290.000021",
        "reactions": [
            {
                "name": "+1",
                "users": [
                    "U0NS3HEGL"
                ],
                "count": 1
            }
        ]
    },
    {
        "type": "message",
        "user": "U0LQDTH7V",
        "text": "Just shared this document about the first steps",
        "ts": "1458080417.000022"
    },
    {
        "type": "message",
        "user": "U0LQDTH7V",
        "text": "<https://docs.google.com/document/d/15s5bEfL1DvZLpmXB-x2iHB8v8Ap4mRiaE2UC-3YUoog/edit#>",
        "ts": "1458080419.000023"
    },
    {
        "type": "message",
        "user": "U0LQDTH7V",
        "text": "I believe we should have a fee to join vegoa that is accessible to everyone",
        "ts": "1458080440.000024"
    },
    {
        "type": "message",
        "user": "U0LQDTH7V",
        "text": "I suggest 2000 euros",
        "ts": "1458080458.000025"
    },
    {
        "type": "message",
        "user": "U0LQDTH7V",
        "text": "After this fee each Vegoan should join a housing Organisation",
        "edited": {
            "user": "U0LQDTH7V",
            "ts": "1458080611.000000"
        },
        "ts": "1458080490.000026"
    },
    {
        "type": "message",
        "user": "U0LQDTH7V",
        "text": "Urban areas seem the cheapest and easier to get an house, I found solutions like buying a old Bed and breakfeast with 6 rooms (6 people could share), to a old hotel with 40 rooms, to a land costing only 60k where 10 houses could be build",
        "ts": "1458080582.000027",
        "reactions": [
            {
                "name": "+1",
                "users": [
                    "U0NS3HEGL",
                    "U0NRZC42H"
                ],
                "count": 2
            }
        ]
    }
]