[
    {
        "user": "U0NRZC42H",
        "type": "message",
        "subtype": "channel_join",
        "text": "<@U0NRZC42H|geraldinestarke> has joined the channel",
        "ts": "1460707646.000002"
    },
    {
        "user": "U0NRZC42H",
        "purpose": "A channel to share the links of all events, workshops and courses that could be interesting to attend",
        "type": "message",
        "subtype": "channel_purpose",
        "text": "<@U0NRZC42H|geraldinestarke> set the channel purpose: A channel to share the links of all events, workshops and courses that could be interesting to attend",
        "ts": "1460707646.000003"
    },
    {
        "user": "U0QJ6TY92",
        "inviter": "U0NRZC42H",
        "type": "message",
        "subtype": "channel_join",
        "text": "<@U0QJ6TY92|simonavinati> has joined the channel",
        "ts": "1460707646.000004"
    },
    {
        "user": "U0NS3HEGL",
        "inviter": "U0NRZC42H",
        "type": "message",
        "subtype": "channel_join",
        "text": "<@U0NS3HEGL|canercandan> has joined the channel",
        "ts": "1460707646.000005"
    },
    {
        "user": "U0LQP85B3",
        "inviter": "U0NRZC42H",
        "type": "message",
        "subtype": "channel_join",
        "text": "<@U0LQP85B3|melissa> has joined the channel",
        "ts": "1460707646.000006"
    },
    {
        "user": "U0LQDTH7V",
        "inviter": "U0NRZC42H",
        "type": "message",
        "subtype": "channel_join",
        "text": "<@U0LQDTH7V|tiagopita> has joined the channel",
        "ts": "1460707646.000007"
    },
    {
        "user": "U0SCLA45C",
        "inviter": "U0NRZC42H",
        "type": "message",
        "subtype": "channel_join",
        "text": "<@U0SCLA45C|elsa_correia> has joined the channel",
        "ts": "1460707647.000008"
    },
    {
        "user": "U0Q5PBY3A",
        "inviter": "U0NRZC42H",
        "type": "message",
        "subtype": "channel_join",
        "text": "<@U0Q5PBY3A|marco> has joined the channel",
        "ts": "1460707647.000009"
    },
    {
        "user": "U0PHHAK7Z",
        "inviter": "U0NRZC42H",
        "type": "message",
        "subtype": "channel_join",
        "text": "<@U0PHHAK7Z|mark> has joined the channel",
        "ts": "1460707647.000010"
    },
    {
        "user": "U0PHF0UAZ",
        "inviter": "U0NRZC42H",
        "type": "message",
        "subtype": "channel_join",
        "text": "<@U0PHF0UAZ|erwan.lr> has joined the channel",
        "ts": "1460707647.000011"
    },
    {
        "user": "U0SUACQEM",
        "inviter": "U0NRZC42H",
        "type": "message",
        "subtype": "channel_join",
        "text": "<@U0SUACQEM|susie> has joined the channel",
        "ts": "1460707647.000012"
    },
    {
        "user": "U0RCKAPAT",
        "inviter": "U0NRZC42H",
        "type": "message",
        "subtype": "channel_join",
        "text": "<@U0RCKAPAT|kati> has joined the channel",
        "ts": "1460707647.000013"
    },
    {
        "user": "U0RLUAGQM",
        "inviter": "U0NRZC42H",
        "type": "message",
        "subtype": "channel_join",
        "text": "<@U0RLUAGQM|catycat> has joined the channel",
        "ts": "1460707647.000014"
    },
    {
        "user": "U0TETPQBZ",
        "inviter": "U0NRZC42H",
        "type": "message",
        "subtype": "channel_join",
        "text": "<@U0TETPQBZ|irmine-pema> has joined the channel",
        "ts": "1460707647.000015"
    },
    {
        "user": "U0S1XJ5UH",
        "inviter": "U0NRZC42H",
        "type": "message",
        "subtype": "channel_join",
        "text": "<@U0S1XJ5UH|d.e.n.i.s.> has joined the channel",
        "ts": "1460707647.000016"
    },
    {
        "user": "U0TKS555J",
        "inviter": "U0NRZC42H",
        "type": "message",
        "subtype": "channel_join",
        "text": "<@U0TKS555J|daniel-roux> has joined the channel",
        "ts": "1460707647.000017"
    },
    {
        "type": "message",
        "user": "U0NRZC42H",
        "text": "<http://terralta.org/internship-2016/>",
        "attachments": [
            {
                "service_name": "Terra Alta",
                "title": "Internship Program - Summer Permaculture / Natural Building - Terra Alta",
                "title_link": "http://terralta.org/internship-2016/",
                "text": "Be the Change - Internship Program - Summer 2016 Welcome to our six week Summer 2016 Permaculture\u00a0Internship\u00a0program. We have created a path were you will be immersed in our community and learning intensively through a series of courses, classes, \"hands on\" sessions, walk and talk, interactive exercises, and more. Our vision aims",
                "fallback": "Terra Alta: Internship Program - Summer Permaculture / Natural Building - Terra Alta",
                "image_url": "http://terralta.org/wp-content/uploads/2014/08/slide2.jpg",
                "from_url": "http://terralta.org/internship-2016/",
                "image_width": 1000,
                "image_height": 250,
                "image_bytes": 146455,
                "id": 1
            }
        ],
        "ts": "1460707653.000018",
        "reactions": [
            {
                "name": "+1",
                "users": [
                    "U0QJ6TY92",
                    "U0LQDTH7V",
                    "U0TETPQBZ"
                ],
                "count": 3
            }
        ]
    }
]