[
    {
        "user": "U18E43ZA7",
        "type": "message",
        "subtype": "channel_join",
        "text": "<@U18E43ZA7|sector> has joined the channel",
        "ts": "1463082311.000002"
    }
]