[
    {
        "type": "message",
        "user": "U0SUACQEM",
        "text": "Hello all I am finally here in the land of Slack. I will have a good read of all the posts over the next few days and catch up. Hope you are well.  :-)",
        "ts": "1458593076.000036"
    },
    {
        "type": "message",
        "user": "U0LQDTH7V",
        "text": "I though you left, I saw you left facebook group",
        "ts": "1458593110.000037"
    },
    {
        "type": "message",
        "user": "U0LQDTH7V",
        "text": "You should not read all the posts :simple_smile:",
        "ts": "1458593123.000038"
    },
    {
        "type": "message",
        "user": "U0LQDTH7V",
        "text": "There was loads of emotional discussions",
        "ts": "1458593156.000039"
    },
    {
        "type": "message",
        "user": "U0LQDTH7V",
        "text": "summary here",
        "ts": "1458593242.000040"
    },
    {
        "type": "message",
        "user": "U0LQDTH7V",
        "text": "<https://docs.google.com/document/u/2/d/1XNLqH9zFT5cjLb8gBcSjP8VJyVh9d0sjTFzZxlWizsY/edit?usp=drive_web>",
        "ts": "1458593244.000041",
        "reactions": [
            {
                "name": "nerd_face",
                "users": [
                    "U0QKF88EQ",
                    "U0NS3HEGL"
                ],
                "count": 2
            }
        ]
    },
    {
        "type": "message",
        "user": "U0SUACQEM",
        "text": "Oh I have another fb account today so I will friends request you :grinning: ok great I will take your advice and follow this link. Thanks Tiago hope you are well ",
        "ts": "1458593369.000042"
    },
    {
        "type": "message",
        "user": "U0NRZC42H",
        "text": "Hey Susie! Happy to read you again :grinning: !",
        "ts": "1458595087.000043",
        "reactions": [
            {
                "name": "+1",
                "users": [
                    "U0NS3HEGL",
                    "U0SUACQEM"
                ],
                "count": 2
            },
            {
                "name": "grinning",
                "users": [
                    "U0SUACQEM"
                ],
                "count": 1
            }
        ]
    }
]