[
    {
        "user": "U0Q4CU0KB",
        "type": "message",
        "subtype": "channel_join",
        "text": "<@U0Q4CU0KB|theus> has joined the channel",
        "ts": "1457020421.000002"
    },
    {
        "user": "U0Q5PBY3A",
        "type": "message",
        "subtype": "channel_join",
        "text": "<@U0Q5PBY3A|marco> has joined the channel",
        "ts": "1457033504.000002"
    }
]