[
    {
        "type": "message",
        "user": "U0LQDTH7V",
        "text": "I plan to start a website for the vegan tours and try to get a few places to sell tickets. I was thinking in buying a van with some extra places as well. Someone want to be part of it?",
        "ts": "1459163929.000002"
    },
    {
        "type": "message",
        "user": "U0QJ6TY92",
        "text": "not this summer but eventually later, i can offer different languages: italian, german, english (did that in Berlin for a while ;) )",
        "ts": "1459182969.000002"
    }
]