[
    {
        "type": "message",
        "user": "U0QJ6TY92",
        "text": "I m glad to be back at sunshine house because it is a very successfull retreat center but not too posh and has a community approach...i ll take pix of the structure, shala, kitchen etc and prepare a doc to inspire us...well,their buldings are not sustainable so...we can do much better there :wink: hugs from Greece!",
        "ts": "1459876779.000002",
        "reactions": [
            {
                "name": "+1",
                "users": [
                    "U0LQDTH7V",
                    "U0NS3HEGL",
                    "U0NRZC42H",
                    "U0RCKAPAT"
                ],
                "count": 4
            }
        ]
    },
    {
        "type": "message",
        "user": "U0RCKAPAT",
        "text": "Hugs back.",
        "ts": "1459886701.000003"
    }
]