[
    {
        "user": "U0TETPQBZ",
        "inviter": "U0LQDTH7V",
        "type": "message",
        "subtype": "channel_join",
        "text": "<@U0TETPQBZ|irmine-pema> has joined the channel",
        "ts": "1458686055.000002"
    },
    {
        "user": "U0TKS555J",
        "inviter": "U0LQDTH7V",
        "type": "message",
        "subtype": "channel_join",
        "text": "<@U0TKS555J|daniel-roux> has joined the channel",
        "ts": "1458686055.000003"
    },
    {
        "user": "U0SCLA45C",
        "inviter": "U0LQDTH7V",
        "type": "message",
        "subtype": "channel_join",
        "text": "<@U0SCLA45C|elsa_correia> has joined the channel",
        "ts": "1458686055.000004"
    },
    {
        "user": "U0SUACQEM",
        "inviter": "U0LQDTH7V",
        "type": "message",
        "subtype": "channel_join",
        "text": "<@U0SUACQEM|susie> has joined the channel",
        "ts": "1458686055.000005"
    },
    {
        "type": "message",
        "user": "U0LQDTH7V",
        "text": "So this Thursday we are going to Lisbon to meet PAN. I think I am buying a crappy VW van, shame we can\u2019t take it yet, I am seeing the owner tomorrow :simple_smile:",
        "ts": "1458686182.000009"
    },
    {
        "type": "message",
        "user": "U0LQDTH7V",
        "text": "I wanted to ask you, if you have any questions or anything you want us to say to Pan.",
        "ts": "1458686258.000010",
        "reactions": [
            {
                "name": "+1",
                "users": [
                    "U0TETPQBZ"
                ],
                "count": 1
            }
        ]
    }
]