[
    {
        "user": "U0NS3HEGL",
        "type": "message",
        "subtype": "channel_join",
        "text": "<@U0NS3HEGL|canercandan> has joined the channel",
        "ts": "1458392904.000002"
    },
    {
        "user": "U0NS3HEGL",
        "purpose": "Talk about permaculture techniques and gardening",
        "type": "message",
        "subtype": "channel_purpose",
        "text": "<@U0NS3HEGL|canercandan> set the channel purpose: Talk about permaculture techniques and gardening",
        "ts": "1458392904.000003"
    },
    {
        "user": "U0RLUAGQM",
        "inviter": "U0NS3HEGL",
        "type": "message",
        "subtype": "channel_join",
        "text": "<@U0RLUAGQM|catycat> has joined the channel",
        "ts": "1458392944.000004"
    },
    {
        "user": "U0TKS555J",
        "inviter": "U0NS3HEGL",
        "type": "message",
        "subtype": "channel_join",
        "text": "<@U0TKS555J|daniel-roux> has joined the channel",
        "ts": "1458392944.000005"
    },
    {
        "user": "U0SCLA45C",
        "inviter": "U0NS3HEGL",
        "type": "message",
        "subtype": "channel_join",
        "text": "<@U0SCLA45C|elsa_correia> has joined the channel",
        "ts": "1458392944.000006"
    },
    {
        "user": "U0S1XJ5UH",
        "inviter": "U0NS3HEGL",
        "type": "message",
        "subtype": "channel_join",
        "text": "<@U0S1XJ5UH|d.e.n.i.s.> has joined the channel",
        "ts": "1458392944.000007"
    },
    {
        "user": "U0PHF0UAZ",
        "inviter": "U0NS3HEGL",
        "type": "message",
        "subtype": "channel_join",
        "text": "<@U0PHF0UAZ|erwan.lr> has joined the channel",
        "ts": "1458392944.000008"
    },
    {
        "user": "U0TETPQBZ",
        "inviter": "U0NS3HEGL",
        "type": "message",
        "subtype": "channel_join",
        "text": "<@U0TETPQBZ|irmine-pema> has joined the channel",
        "ts": "1458392945.000009"
    },
    {
        "user": "U0NRZC42H",
        "inviter": "U0NS3HEGL",
        "type": "message",
        "subtype": "channel_join",
        "text": "<@U0NRZC42H|geraldinestarke> has joined the channel",
        "ts": "1458392945.000010"
    },
    {
        "user": "U0QATCU4Q",
        "inviter": "U0NS3HEGL",
        "type": "message",
        "subtype": "channel_join",
        "text": "<@U0QATCU4Q|jamesleipert> has joined the channel",
        "ts": "1458392945.000011"
    },
    {
        "user": "U0RCKAPAT",
        "inviter": "U0NS3HEGL",
        "type": "message",
        "subtype": "channel_join",
        "text": "<@U0RCKAPAT|kati> has joined the channel",
        "ts": "1458392945.000012"
    },
    {
        "user": "U0PU8BVJQ",
        "inviter": "U0NS3HEGL",
        "type": "message",
        "subtype": "channel_join",
        "text": "<@U0PU8BVJQ|linda.guijt> has joined the channel",
        "ts": "1458392945.000013"
    },
    {
        "user": "U0PHHAK7Z",
        "inviter": "U0NS3HEGL",
        "type": "message",
        "subtype": "channel_join",
        "text": "<@U0PHHAK7Z|mark> has joined the channel",
        "ts": "1458392946.000014"
    },
    {
        "user": "U0Q5PBY3A",
        "inviter": "U0NS3HEGL",
        "type": "message",
        "subtype": "channel_join",
        "text": "<@U0Q5PBY3A|marco> has joined the channel",
        "ts": "1458392946.000015"
    },
    {
        "user": "U0PUFAPAN",
        "inviter": "U0NS3HEGL",
        "type": "message",
        "subtype": "channel_join",
        "text": "<@U0PUFAPAN|matt> has joined the channel",
        "ts": "1458392946.000016"
    },
    {
        "user": "U0LQP85B3",
        "inviter": "U0NS3HEGL",
        "type": "message",
        "subtype": "channel_join",
        "text": "<@U0LQP85B3|melissa> has joined the channel",
        "ts": "1458392946.000017"
    },
    {
        "user": "U0NS0B5EG",
        "inviter": "U0NS3HEGL",
        "type": "message",
        "subtype": "channel_join",
        "text": "<@U0NS0B5EG|mike.peach> has joined the channel",
        "ts": "1458392946.000018"
    },
    {
        "user": "U0SUACQEM",
        "inviter": "U0NS3HEGL",
        "type": "message",
        "subtype": "channel_join",
        "text": "<@U0SUACQEM|susie> has joined the channel",
        "ts": "1458392946.000019"
    },
    {
        "user": "U0Q4CU0KB",
        "inviter": "U0NS3HEGL",
        "type": "message",
        "subtype": "channel_join",
        "text": "<@U0Q4CU0KB|theus> has joined the channel",
        "ts": "1458392946.000020"
    },
    {
        "user": "U0QJ6TY92",
        "inviter": "U0NS3HEGL",
        "type": "message",
        "subtype": "channel_join",
        "text": "<@U0QJ6TY92|simonavinati> has joined the channel",
        "ts": "1458392946.000021"
    },
    {
        "user": "U0QKF88EQ",
        "inviter": "U0NS3HEGL",
        "type": "message",
        "subtype": "channel_join",
        "text": "<@U0QKF88EQ|yanay_phenix> has joined the channel",
        "ts": "1458392947.000022"
    },
    {
        "user": "U0LQDTH7V",
        "inviter": "U0NS3HEGL",
        "type": "message",
        "subtype": "channel_join",
        "text": "<@U0LQDTH7V|tiagopita> has joined the channel",
        "ts": "1458392947.000023"
    },
    {
        "type": "message",
        "user": "U0NS3HEGL",
        "text": "geraldinestarke and I\u00a0started to prepare our small garden following these videos:",
        "ts": "1458392985.000024"
    },
    {
        "type": "message",
        "user": "U0NS3HEGL",
        "text": "<https://www.youtube.com/watch?v=SFBRt3Wtuiw#t=0.128971>\n<https://www.youtube.com/watch?v=ehhXNk3u-N4&amp;feature=iv&amp;src_vid=SFBRt3Wtuiw&amp;annotation_id=annotation_3797174463>",
        "attachments": [
            {
                "service_name": "YouTube",
                "service_url": "https://www.youtube.com/",
                "title": "Permaculture : cr\u00e9ation et \u00e9volution d'une butte autofertile",
                "title_link": "https://www.youtube.com/watch?v=SFBRt3Wtuiw#t=0.128971",
                "author_name": "Baraka Permaculture",
                "author_link": "https://www.youtube.com/channel/UCPO_tQoxnd_i7QWh5UcTOGA",
                "thumb_url": "https://i.ytimg.com/vi/SFBRt3Wtuiw/hqdefault.jpg",
                "thumb_width": 480,
                "thumb_height": 360,
                "fallback": "YouTube Video: Permaculture : cr\u00e9ation et \u00e9volution d'une butte autofertile",
                "video_html": "<iframe width=\"400\" height=\"225\" src=\"https://www.youtube.com/embed/SFBRt3Wtuiw?feature=oembed&autoplay=1&iv_load_policy=3\" frameborder=\"0\" allowfullscreen></iframe>",
                "video_html_width": 400,
                "video_html_height": 225,
                "from_url": "https://www.youtube.com/watch?v=SFBRt3Wtuiw#t=0.128971",
                "id": 1
            },
            {
                "service_name": "YouTube",
                "service_url": "https://www.youtube.com/",
                "title": "R\u00e9sultat de ma culture sur butte de l'\u00c9T\u00c9 !!!",
                "title_link": "https://www.youtube.com/watch?v=ehhXNk3u-N4&amp;feature=iv&amp;src_vid=SFBRt3Wtuiw&amp;annotation_id=annotation_3797174463",
                "author_name": "Baraka Permaculture",
                "author_link": "https://www.youtube.com/channel/UCPO_tQoxnd_i7QWh5UcTOGA",
                "thumb_url": "https://i.ytimg.com/vi/ehhXNk3u-N4/hqdefault.jpg",
                "thumb_width": 480,
                "thumb_height": 360,
                "fallback": "YouTube Video: R\u00e9sultat de ma culture sur butte de l'\u00c9T\u00c9 !!!",
                "video_html": "<iframe width=\"400\" height=\"225\" src=\"https://www.youtube.com/embed/ehhXNk3u-N4?feature=oembed&autoplay=1&iv_load_policy=3\" frameborder=\"0\" allowfullscreen></iframe>",
                "video_html_width": 400,
                "video_html_height": 225,
                "from_url": "https://www.youtube.com/watch?v=ehhXNk3u-N4&amp;feature=iv&amp;src_vid=SFBRt3Wtuiw&amp;annotation_id=annotation_3797174463",
                "id": 2
            }
        ],
        "ts": "1458393007.000025"
    },
    {
        "type": "message",
        "user": "U0NS3HEGL",
        "text": "sorry it's in french until I\u00a0found something better in english",
        "ts": "1458393020.000027"
    },
    {
        "type": "message",
        "user": "U0NS3HEGL",
        "text": "the idea is to build mounds with a width of 1.20m and 50cm height with small lanes of (30 to 50cm)",
        "ts": "1458393192.000028"
    },
    {
        "type": "message",
        "user": "U0NS3HEGL",
        "text": "with the size of our garden we can build 4 mounds",
        "ts": "1458393212.000029"
    },
    {
        "type": "message",
        "user": "U0NS3HEGL",
        "text": "our garden design <https://docs.google.com/drawings/d/1RaDHPzx0FaQzuNn44eO22_acsRh6ca5IoUSX1qEyhnM/edit>",
        "ts": "1458406906.000030"
    },
    {
        "type": "message",
        "subtype": "file_share",
        "text": "<@U0NS3HEGL|canercandan> shared a file: <https://vegoa.slack.com/files/canercandan/F0TV5QDGC/geryandcanergarden|Gery and Caner garden>",
        "file": {
            "id": "F0TV5QDGC",
            "created": 1458406908,
            "timestamp": 1458406908,
            "name": "GeryandCanergarden",
            "title": "Gery and Caner garden",
            "mimetype": "application/vnd.google-apps.drawing",
            "filetype": "gdraw",
            "pretty_type": "GDocs Drawing",
            "user": "U0NS3HEGL",
            "editable": false,
            "size": 27125,
            "mode": "external",
            "is_external": true,
            "external_type": "gdrive",
            "is_public": true,
            "public_url_shared": false,
            "display_as_bot": false,
            "username": "",
            "url_private": "https://docs.google.com/a/candan.fr/drawings/d/1RaDHPzx0FaQzuNn44eO22_acsRh6ca5IoUSX1qEyhnM/edit?usp=drivesdk",
            "thumb_64": "https://a.slack-edge.com/66f9/img/files/gdraw_64.png",
            "thumb_360": "https://a.slack-edge.com/272a/img/files/gdoc_360.png",
            "thumb_360_w": 360,
            "thumb_360_h": 167,
            "permalink": "https://vegoa.slack.com/files/canercandan/F0TV5QDGC/geryandcanergarden",
            "channels": [
                "C0TTF6735"
            ],
            "groups": [
    
            ],
            "ims": [
    
            ],
            "comments_count": 0
        },
        "user": "U0NS3HEGL",
        "upload": false,
        "display_as_bot": false,
        "username": "<@U0NS3HEGL|canercandan>",
        "bot_id": null,
        "ts": "1458406908.000031"
    },
    {
        "type": "message",
        "user": "U0NS3HEGL",
        "text": "with 4 mounds",
        "ts": "1458406921.000032"
    },
    {
        "type": "message",
        "user": "U0NS3HEGL",
        "text": "one of them will be green house as well",
        "ts": "1458406933.000033"
    }
]