[
    {
        "type": "message",
        "user": "U0LQDTH7V",
        "text": "Farming 1.5 hectares with permaculture allows a family to have food and a business selling food. ",
        "ts": "1459076050.000002",
        "reactions": [
            {
                "name": "+1",
                "users": [
                    "U0NRZC42H",
                    "U0NS3HEGL"
                ],
                "count": 2
            }
        ]
    }
]