[
    {
        "type": "message",
        "user": "U0NRZC42H",
        "text": "We started our garden 3 days ago. Really not easy, had to find (and carry) wood logs from the forest (thanks Tiago and Erwan for the well needed help, and Saki :) ), get compost and earth (both organic), get plants, get strow, sawdust... Find and collect branches, leaves and so on... \n\nStill looking for sawdust to complete our mound but we have already well progressed :).",
        "ts": "1458731846.000034",
        "reactions": [
            {
                "name": "+1",
                "users": [
                    "U0NS3HEGL"
                ],
                "count": 1
            }
        ]
    },
    {
        "type": "message",
        "subtype": "file_share",
        "text": "<@U0NRZC42H|geraldinestarke> uploaded a file: <https://vegoa.slack.com/files/geraldinestarke/F0URM7HHC/img_20160321_112308.jpg|Our garden ready to garden>",
        "file": {
            "id": "F0URM7HHC",
            "created": 1458731947,
            "timestamp": 1458731947,
            "name": "IMG_20160321_112308.jpg",
            "title": "Our garden ready to garden",
            "mimetype": "image/jpeg",
            "filetype": "jpg",
            "pretty_type": "JPEG",
            "user": "U0NRZC42H",
            "editable": false,
            "size": 12048764,
            "mode": "hosted",
            "is_external": false,
            "external_type": "",
            "is_public": true,
            "public_url_shared": false,
            "display_as_bot": false,
            "username": "",
            "url_private": "https://files.slack.com/files-pri/T0LQG2RMF-F0URM7HHC/img_20160321_112308.jpg?t=xoxe-20832093729-50596563477-50548041731-f5b777b683",
            "url_private_download": "https://files.slack.com/files-pri/T0LQG2RMF-F0URM7HHC/download/img_20160321_112308.jpg?t=xoxe-20832093729-50596563477-50548041731-f5b777b683",
            "thumb_64": "https://files.slack.com/files-tmb/T0LQG2RMF-F0URM7HHC-5f020b2c1f/img_20160321_112308_64.jpg?t=xoxe-20832093729-50596563477-50548041731-f5b777b683",
            "thumb_80": "https://files.slack.com/files-tmb/T0LQG2RMF-F0URM7HHC-5f020b2c1f/img_20160321_112308_80.jpg?t=xoxe-20832093729-50596563477-50548041731-f5b777b683",
            "thumb_360": "https://files.slack.com/files-tmb/T0LQG2RMF-F0URM7HHC-5f020b2c1f/img_20160321_112308_360.jpg?t=xoxe-20832093729-50596563477-50548041731-f5b777b683",
            "thumb_360_w": 270,
            "thumb_360_h": 360,
            "thumb_480": "https://files.slack.com/files-tmb/T0LQG2RMF-F0URM7HHC-5f020b2c1f/img_20160321_112308_480.jpg?t=xoxe-20832093729-50596563477-50548041731-f5b777b683",
            "thumb_480_w": 360,
            "thumb_480_h": 480,
            "thumb_160": "https://files.slack.com/files-tmb/T0LQG2RMF-F0URM7HHC-5f020b2c1f/img_20160321_112308_160.jpg?t=xoxe-20832093729-50596563477-50548041731-f5b777b683",
            "thumb_720": "https://files.slack.com/files-tmb/T0LQG2RMF-F0URM7HHC-5f020b2c1f/img_20160321_112308_720.jpg?t=xoxe-20832093729-50596563477-50548041731-f5b777b683",
            "thumb_720_w": 540,
            "thumb_720_h": 720,
            "thumb_960": "https://files.slack.com/files-tmb/T0LQG2RMF-F0URM7HHC-5f020b2c1f/img_20160321_112308_960.jpg?t=xoxe-20832093729-50596563477-50548041731-f5b777b683",
            "thumb_960_w": 720,
            "thumb_960_h": 960,
            "thumb_1024": "https://files.slack.com/files-tmb/T0LQG2RMF-F0URM7HHC-5f020b2c1f/img_20160321_112308_1024.jpg?t=xoxe-20832093729-50596563477-50548041731-f5b777b683",
            "thumb_1024_w": 768,
            "thumb_1024_h": 1024,
            "image_exif_rotation": 1,
            "original_w": 3456,
            "original_h": 4608,
            "permalink": "https://vegoa.slack.com/files/geraldinestarke/F0URM7HHC/img_20160321_112308.jpg",
            "permalink_public": "https://slack-files.com/T0LQG2RMF-F0URM7HHC-64c2bed4ea",
            "channels": [
                "C0TTF6735"
            ],
            "groups": [
    
            ],
            "ims": [
    
            ],
            "comments_count": 0
        },
        "user": "U0NRZC42H",
        "upload": true,
        "display_as_bot": false,
        "username": "<@U0NRZC42H|geraldinestarke>",
        "bot_id": null,
        "ts": "1458731957.000035"
    },
    {
        "type": "message",
        "subtype": "file_share",
        "text": "<@U0NRZC42H|geraldinestarke> uploaded a file: <https://vegoa.slack.com/files/geraldinestarke/F0URV1H9B/img_20160321_112316.jpg|Slack for Android Upload>",
        "file": {
            "id": "F0URV1H9B",
            "created": 1458732014,
            "timestamp": 1458732014,
            "name": "IMG_20160321_112316.jpg",
            "title": "Slack for Android Upload",
            "mimetype": "image/jpeg",
            "filetype": "jpg",
            "pretty_type": "JPEG",
            "user": "U0NRZC42H",
            "editable": false,
            "size": 13971430,
            "mode": "hosted",
            "is_external": false,
            "external_type": "",
            "is_public": true,
            "public_url_shared": false,
            "display_as_bot": false,
            "username": "",
            "url_private": "https://files.slack.com/files-pri/T0LQG2RMF-F0URV1H9B/img_20160321_112316.jpg?t=xoxe-20832093729-50596563477-50548041731-f5b777b683",
            "url_private_download": "https://files.slack.com/files-pri/T0LQG2RMF-F0URV1H9B/download/img_20160321_112316.jpg?t=xoxe-20832093729-50596563477-50548041731-f5b777b683",
            "thumb_64": "https://files.slack.com/files-tmb/T0LQG2RMF-F0URV1H9B-bce77398b1/img_20160321_112316_64.jpg?t=xoxe-20832093729-50596563477-50548041731-f5b777b683",
            "thumb_80": "https://files.slack.com/files-tmb/T0LQG2RMF-F0URV1H9B-bce77398b1/img_20160321_112316_80.jpg?t=xoxe-20832093729-50596563477-50548041731-f5b777b683",
            "thumb_360": "https://files.slack.com/files-tmb/T0LQG2RMF-F0URV1H9B-bce77398b1/img_20160321_112316_360.jpg?t=xoxe-20832093729-50596563477-50548041731-f5b777b683",
            "thumb_360_w": 270,
            "thumb_360_h": 360,
            "thumb_480": "https://files.slack.com/files-tmb/T0LQG2RMF-F0URV1H9B-bce77398b1/img_20160321_112316_480.jpg?t=xoxe-20832093729-50596563477-50548041731-f5b777b683",
            "thumb_480_w": 360,
            "thumb_480_h": 480,
            "thumb_160": "https://files.slack.com/files-tmb/T0LQG2RMF-F0URV1H9B-bce77398b1/img_20160321_112316_160.jpg?t=xoxe-20832093729-50596563477-50548041731-f5b777b683",
            "thumb_720": "https://files.slack.com/files-tmb/T0LQG2RMF-F0URV1H9B-bce77398b1/img_20160321_112316_720.jpg?t=xoxe-20832093729-50596563477-50548041731-f5b777b683",
            "thumb_720_w": 540,
            "thumb_720_h": 720,
            "thumb_960": "https://files.slack.com/files-tmb/T0LQG2RMF-F0URV1H9B-bce77398b1/img_20160321_112316_960.jpg?t=xoxe-20832093729-50596563477-50548041731-f5b777b683",
            "thumb_960_w": 720,
            "thumb_960_h": 960,
            "thumb_1024": "https://files.slack.com/files-tmb/T0LQG2RMF-F0URV1H9B-bce77398b1/img_20160321_112316_1024.jpg?t=xoxe-20832093729-50596563477-50548041731-f5b777b683",
            "thumb_1024_w": 768,
            "thumb_1024_h": 1024,
            "image_exif_rotation": 1,
            "original_w": 3456,
            "original_h": 4608,
            "permalink": "https://vegoa.slack.com/files/geraldinestarke/F0URV1H9B/img_20160321_112316.jpg",
            "permalink_public": "https://slack-files.com/T0LQG2RMF-F0URV1H9B-7b11ec2c41",
            "channels": [
                "C0TTF6735"
            ],
            "groups": [
    
            ],
            "ims": [
    
            ],
            "comments_count": 0
        },
        "user": "U0NRZC42H",
        "upload": true,
        "display_as_bot": false,
        "username": "<@U0NRZC42H|geraldinestarke>",
        "bot_id": null,
        "ts": "1458732022.000036"
    },
    {
        "type": "message",
        "subtype": "file_share",
        "text": "<@U0NRZC42H|geraldinestarke> uploaded a file: <https://vegoa.slack.com/files/geraldinestarke/F0URYUZHN/img_20160321_120135.jpg|Slack for Android Upload> and commented: After humidifying the ground, we put cardboard on the surface and water again",
        "file": {
            "id": "F0URYUZHN",
            "created": 1458732092,
            "timestamp": 1458732092,
            "name": "IMG_20160321_120135.jpg",
            "title": "Slack for Android Upload",
            "mimetype": "image/jpeg",
            "filetype": "jpg",
            "pretty_type": "JPEG",
            "user": "U0NRZC42H",
            "editable": false,
            "size": 9658509,
            "mode": "hosted",
            "is_external": false,
            "external_type": "",
            "is_public": true,
            "public_url_shared": false,
            "display_as_bot": false,
            "username": "",
            "url_private": "https://files.slack.com/files-pri/T0LQG2RMF-F0URYUZHN/img_20160321_120135.jpg?t=xoxe-20832093729-50596563477-50548041731-f5b777b683",
            "url_private_download": "https://files.slack.com/files-pri/T0LQG2RMF-F0URYUZHN/download/img_20160321_120135.jpg?t=xoxe-20832093729-50596563477-50548041731-f5b777b683",
            "thumb_64": "https://files.slack.com/files-tmb/T0LQG2RMF-F0URYUZHN-1ed60d5959/img_20160321_120135_64.jpg?t=xoxe-20832093729-50596563477-50548041731-f5b777b683",
            "thumb_80": "https://files.slack.com/files-tmb/T0LQG2RMF-F0URYUZHN-1ed60d5959/img_20160321_120135_80.jpg?t=xoxe-20832093729-50596563477-50548041731-f5b777b683",
            "thumb_360": "https://files.slack.com/files-tmb/T0LQG2RMF-F0URYUZHN-1ed60d5959/img_20160321_120135_360.jpg?t=xoxe-20832093729-50596563477-50548041731-f5b777b683",
            "thumb_360_w": 270,
            "thumb_360_h": 360,
            "thumb_480": "https://files.slack.com/files-tmb/T0LQG2RMF-F0URYUZHN-1ed60d5959/img_20160321_120135_480.jpg?t=xoxe-20832093729-50596563477-50548041731-f5b777b683",
            "thumb_480_w": 360,
            "thumb_480_h": 480,
            "thumb_160": "https://files.slack.com/files-tmb/T0LQG2RMF-F0URYUZHN-1ed60d5959/img_20160321_120135_160.jpg?t=xoxe-20832093729-50596563477-50548041731-f5b777b683",
            "thumb_720": "https://files.slack.com/files-tmb/T0LQG2RMF-F0URYUZHN-1ed60d5959/img_20160321_120135_720.jpg?t=xoxe-20832093729-50596563477-50548041731-f5b777b683",
            "thumb_720_w": 540,
            "thumb_720_h": 720,
            "thumb_960": "https://files.slack.com/files-tmb/T0LQG2RMF-F0URYUZHN-1ed60d5959/img_20160321_120135_960.jpg?t=xoxe-20832093729-50596563477-50548041731-f5b777b683",
            "thumb_960_w": 720,
            "thumb_960_h": 960,
            "thumb_1024": "https://files.slack.com/files-tmb/T0LQG2RMF-F0URYUZHN-1ed60d5959/img_20160321_120135_1024.jpg?t=xoxe-20832093729-50596563477-50548041731-f5b777b683",
            "thumb_1024_w": 768,
            "thumb_1024_h": 1024,
            "image_exif_rotation": 1,
            "original_w": 3456,
            "original_h": 4608,
            "permalink": "https://vegoa.slack.com/files/geraldinestarke/F0URYUZHN/img_20160321_120135.jpg",
            "permalink_public": "https://slack-files.com/T0LQG2RMF-F0URYUZHN-526a2c688c",
            "channels": [
                "C0TTF6735"
            ],
            "groups": [
    
            ],
            "ims": [
    
            ],
            "comments_count": 1,
            "initial_comment": {
                "id": "Fc0URV2X9V",
                "created": 1458732092,
                "timestamp": 1458732092,
                "user": "U0NRZC42H",
                "is_intro": true,
                "comment": "After humidifying the ground, we put cardboard on the surface and water again",
                "channel": ""
            }
        },
        "user": "U0NRZC42H",
        "upload": true,
        "display_as_bot": false,
        "username": "<@U0NRZC42H|geraldinestarke>",
        "bot_id": null,
        "ts": "1458732102.000037"
    },
    {
        "type": "message",
        "subtype": "file_share",
        "text": "<@U0NRZC42H|geraldinestarke> uploaded a file: <https://vegoa.slack.com/files/geraldinestarke/F0URZ4TDW/img_20160321_121118.jpg|Slack for Android Upload> and commented: Then we added the wood logs",
        "file": {
            "id": "F0URZ4TDW",
            "created": 1458732150,
            "timestamp": 1458732150,
            "name": "IMG_20160321_121118.jpg",
            "title": "Slack for Android Upload",
            "mimetype": "image/jpeg",
            "filetype": "jpg",
            "pretty_type": "JPEG",
            "user": "U0NRZC42H",
            "editable": false,
            "size": 11577732,
            "mode": "hosted",
            "is_external": false,
            "external_type": "",
            "is_public": true,
            "public_url_shared": false,
            "display_as_bot": false,
            "username": "",
            "url_private": "https://files.slack.com/files-pri/T0LQG2RMF-F0URZ4TDW/img_20160321_121118.jpg?t=xoxe-20832093729-50596563477-50548041731-f5b777b683",
            "url_private_download": "https://files.slack.com/files-pri/T0LQG2RMF-F0URZ4TDW/download/img_20160321_121118.jpg?t=xoxe-20832093729-50596563477-50548041731-f5b777b683",
            "thumb_64": "https://files.slack.com/files-tmb/T0LQG2RMF-F0URZ4TDW-e26f58316d/img_20160321_121118_64.jpg?t=xoxe-20832093729-50596563477-50548041731-f5b777b683",
            "thumb_80": "https://files.slack.com/files-tmb/T0LQG2RMF-F0URZ4TDW-e26f58316d/img_20160321_121118_80.jpg?t=xoxe-20832093729-50596563477-50548041731-f5b777b683",
            "thumb_360": "https://files.slack.com/files-tmb/T0LQG2RMF-F0URZ4TDW-e26f58316d/img_20160321_121118_360.jpg?t=xoxe-20832093729-50596563477-50548041731-f5b777b683",
            "thumb_360_w": 270,
            "thumb_360_h": 360,
            "thumb_480": "https://files.slack.com/files-tmb/T0LQG2RMF-F0URZ4TDW-e26f58316d/img_20160321_121118_480.jpg?t=xoxe-20832093729-50596563477-50548041731-f5b777b683",
            "thumb_480_w": 360,
            "thumb_480_h": 480,
            "thumb_160": "https://files.slack.com/files-tmb/T0LQG2RMF-F0URZ4TDW-e26f58316d/img_20160321_121118_160.jpg?t=xoxe-20832093729-50596563477-50548041731-f5b777b683",
            "thumb_720": "https://files.slack.com/files-tmb/T0LQG2RMF-F0URZ4TDW-e26f58316d/img_20160321_121118_720.jpg?t=xoxe-20832093729-50596563477-50548041731-f5b777b683",
            "thumb_720_w": 540,
            "thumb_720_h": 720,
            "thumb_960": "https://files.slack.com/files-tmb/T0LQG2RMF-F0URZ4TDW-e26f58316d/img_20160321_121118_960.jpg?t=xoxe-20832093729-50596563477-50548041731-f5b777b683",
            "thumb_960_w": 720,
            "thumb_960_h": 960,
            "thumb_1024": "https://files.slack.com/files-tmb/T0LQG2RMF-F0URZ4TDW-e26f58316d/img_20160321_121118_1024.jpg?t=xoxe-20832093729-50596563477-50548041731-f5b777b683",
            "thumb_1024_w": 768,
            "thumb_1024_h": 1024,
            "image_exif_rotation": 1,
            "original_w": 3456,
            "original_h": 4608,
            "permalink": "https://vegoa.slack.com/files/geraldinestarke/F0URZ4TDW/img_20160321_121118.jpg",
            "permalink_public": "https://slack-files.com/T0LQG2RMF-F0URZ4TDW-0e67a213a5",
            "channels": [
                "C0TTF6735"
            ],
            "groups": [
    
            ],
            "ims": [
    
            ],
            "comments_count": 1,
            "initial_comment": {
                "id": "Fc0URMTA4E",
                "created": 1458732150,
                "timestamp": 1458732150,
                "user": "U0NRZC42H",
                "is_intro": true,
                "comment": "Then we added the wood logs",
                "channel": ""
            }
        },
        "user": "U0NRZC42H",
        "upload": true,
        "display_as_bot": false,
        "username": "<@U0NRZC42H|geraldinestarke>",
        "bot_id": null,
        "ts": "1458732158.000038"
    },
    {
        "type": "message",
        "subtype": "file_share",
        "text": "<@U0NRZC42H|geraldinestarke> uploaded a file: <https://vegoa.slack.com/files/geraldinestarke/F0US07AUR/img_20160321_121104.jpg|Slack for Android Upload>",
        "file": {
            "id": "F0US07AUR",
            "created": 1458732204,
            "timestamp": 1458732204,
            "name": "IMG_20160321_121104.jpg",
            "title": "Slack for Android Upload",
            "mimetype": "image/jpeg",
            "filetype": "jpg",
            "pretty_type": "JPEG",
            "user": "U0NRZC42H",
            "editable": false,
            "size": 11741553,
            "mode": "hosted",
            "is_external": false,
            "external_type": "",
            "is_public": true,
            "public_url_shared": false,
            "display_as_bot": false,
            "username": "",
            "url_private": "https://files.slack.com/files-pri/T0LQG2RMF-F0US07AUR/img_20160321_121104.jpg?t=xoxe-20832093729-50596563477-50548041731-f5b777b683",
            "url_private_download": "https://files.slack.com/files-pri/T0LQG2RMF-F0US07AUR/download/img_20160321_121104.jpg?t=xoxe-20832093729-50596563477-50548041731-f5b777b683",
            "thumb_64": "https://files.slack.com/files-tmb/T0LQG2RMF-F0US07AUR-c26bce3054/img_20160321_121104_64.jpg?t=xoxe-20832093729-50596563477-50548041731-f5b777b683",
            "thumb_80": "https://files.slack.com/files-tmb/T0LQG2RMF-F0US07AUR-c26bce3054/img_20160321_121104_80.jpg?t=xoxe-20832093729-50596563477-50548041731-f5b777b683",
            "thumb_360": "https://files.slack.com/files-tmb/T0LQG2RMF-F0US07AUR-c26bce3054/img_20160321_121104_360.jpg?t=xoxe-20832093729-50596563477-50548041731-f5b777b683",
            "thumb_360_w": 270,
            "thumb_360_h": 360,
            "thumb_480": "https://files.slack.com/files-tmb/T0LQG2RMF-F0US07AUR-c26bce3054/img_20160321_121104_480.jpg?t=xoxe-20832093729-50596563477-50548041731-f5b777b683",
            "thumb_480_w": 360,
            "thumb_480_h": 480,
            "thumb_160": "https://files.slack.com/files-tmb/T0LQG2RMF-F0US07AUR-c26bce3054/img_20160321_121104_160.jpg?t=xoxe-20832093729-50596563477-50548041731-f5b777b683",
            "thumb_720": "https://files.slack.com/files-tmb/T0LQG2RMF-F0US07AUR-c26bce3054/img_20160321_121104_720.jpg?t=xoxe-20832093729-50596563477-50548041731-f5b777b683",
            "thumb_720_w": 540,
            "thumb_720_h": 720,
            "thumb_960": "https://files.slack.com/files-tmb/T0LQG2RMF-F0US07AUR-c26bce3054/img_20160321_121104_960.jpg?t=xoxe-20832093729-50596563477-50548041731-f5b777b683",
            "thumb_960_w": 720,
            "thumb_960_h": 960,
            "thumb_1024": "https://files.slack.com/files-tmb/T0LQG2RMF-F0US07AUR-c26bce3054/img_20160321_121104_1024.jpg?t=xoxe-20832093729-50596563477-50548041731-f5b777b683",
            "thumb_1024_w": 768,
            "thumb_1024_h": 1024,
            "image_exif_rotation": 1,
            "original_w": 3456,
            "original_h": 4608,
            "permalink": "https://vegoa.slack.com/files/geraldinestarke/F0US07AUR/img_20160321_121104.jpg",
            "permalink_public": "https://slack-files.com/T0LQG2RMF-F0US07AUR-6f342ddf2a",
            "channels": [
                "C0TTF6735"
            ],
            "groups": [
    
            ],
            "ims": [
    
            ],
            "comments_count": 0
        },
        "user": "U0NRZC42H",
        "upload": true,
        "display_as_bot": false,
        "username": "<@U0NRZC42H|geraldinestarke>",
        "bot_id": null,
        "ts": "1458732222.000039"
    },
    {
        "type": "message",
        "subtype": "file_share",
        "text": "<@U0NRZC42H|geraldinestarke> uploaded a file: <https://vegoa.slack.com/files/geraldinestarke/F0URVJF71/img_20160322_185509.jpg|Then we added branches and little woods>",
        "file": {
            "id": "F0URVJF71",
            "created": 1458732268,
            "timestamp": 1458732268,
            "name": "IMG_20160322_185509.jpg",
            "title": "Then we added branches and little woods",
            "mimetype": "image/jpeg",
            "filetype": "jpg",
            "pretty_type": "JPEG",
            "user": "U0NRZC42H",
            "editable": false,
            "size": 11233131,
            "mode": "hosted",
            "is_external": false,
            "external_type": "",
            "is_public": true,
            "public_url_shared": false,
            "display_as_bot": false,
            "username": "",
            "url_private": "https://files.slack.com/files-pri/T0LQG2RMF-F0URVJF71/img_20160322_185509.jpg?t=xoxe-20832093729-50596563477-50548041731-f5b777b683",
            "url_private_download": "https://files.slack.com/files-pri/T0LQG2RMF-F0URVJF71/download/img_20160322_185509.jpg?t=xoxe-20832093729-50596563477-50548041731-f5b777b683",
            "thumb_64": "https://files.slack.com/files-tmb/T0LQG2RMF-F0URVJF71-431fe90f00/img_20160322_185509_64.jpg?t=xoxe-20832093729-50596563477-50548041731-f5b777b683",
            "thumb_80": "https://files.slack.com/files-tmb/T0LQG2RMF-F0URVJF71-431fe90f00/img_20160322_185509_80.jpg?t=xoxe-20832093729-50596563477-50548041731-f5b777b683",
            "thumb_360": "https://files.slack.com/files-tmb/T0LQG2RMF-F0URVJF71-431fe90f00/img_20160322_185509_360.jpg?t=xoxe-20832093729-50596563477-50548041731-f5b777b683",
            "thumb_360_w": 270,
            "thumb_360_h": 360,
            "thumb_480": "https://files.slack.com/files-tmb/T0LQG2RMF-F0URVJF71-431fe90f00/img_20160322_185509_480.jpg?t=xoxe-20832093729-50596563477-50548041731-f5b777b683",
            "thumb_480_w": 360,
            "thumb_480_h": 480,
            "thumb_160": "https://files.slack.com/files-tmb/T0LQG2RMF-F0URVJF71-431fe90f00/img_20160322_185509_160.jpg?t=xoxe-20832093729-50596563477-50548041731-f5b777b683",
            "thumb_720": "https://files.slack.com/files-tmb/T0LQG2RMF-F0URVJF71-431fe90f00/img_20160322_185509_720.jpg?t=xoxe-20832093729-50596563477-50548041731-f5b777b683",
            "thumb_720_w": 540,
            "thumb_720_h": 720,
            "thumb_960": "https://files.slack.com/files-tmb/T0LQG2RMF-F0URVJF71-431fe90f00/img_20160322_185509_960.jpg?t=xoxe-20832093729-50596563477-50548041731-f5b777b683",
            "thumb_960_w": 720,
            "thumb_960_h": 960,
            "thumb_1024": "https://files.slack.com/files-tmb/T0LQG2RMF-F0URVJF71-431fe90f00/img_20160322_185509_1024.jpg?t=xoxe-20832093729-50596563477-50548041731-f5b777b683",
            "thumb_1024_w": 768,
            "thumb_1024_h": 1024,
            "image_exif_rotation": 1,
            "original_w": 3456,
            "original_h": 4608,
            "permalink": "https://vegoa.slack.com/files/geraldinestarke/F0URVJF71/img_20160322_185509.jpg",
            "permalink_public": "https://slack-files.com/T0LQG2RMF-F0URVJF71-dfb2bf9812",
            "channels": [
                "C0TTF6735"
            ],
            "groups": [
    
            ],
            "ims": [
    
            ],
            "comments_count": 0
        },
        "user": "U0NRZC42H",
        "upload": true,
        "display_as_bot": false,
        "username": "<@U0NRZC42H|geraldinestarke>",
        "bot_id": null,
        "ts": "1458732278.000040"
    },
    {
        "type": "message",
        "subtype": "file_share",
        "text": "<@U0NRZC42H|geraldinestarke> uploaded a file: <https://vegoa.slack.com/files/geraldinestarke/F0URLC8MS/img_20160322_185601.jpg|Crushing all that :)>",
        "file": {
            "id": "F0URLC8MS",
            "created": 1458732323,
            "timestamp": 1458732323,
            "name": "IMG_20160322_185601.jpg",
            "title": "Crushing all that :)",
            "mimetype": "image/jpeg",
            "filetype": "jpg",
            "pretty_type": "JPEG",
            "user": "U0NRZC42H",
            "editable": false,
            "size": 9252512,
            "mode": "hosted",
            "is_external": false,
            "external_type": "",
            "is_public": true,
            "public_url_shared": false,
            "display_as_bot": false,
            "username": "",
            "url_private": "https://files.slack.com/files-pri/T0LQG2RMF-F0URLC8MS/img_20160322_185601.jpg?t=xoxe-20832093729-50596563477-50548041731-f5b777b683",
            "url_private_download": "https://files.slack.com/files-pri/T0LQG2RMF-F0URLC8MS/download/img_20160322_185601.jpg?t=xoxe-20832093729-50596563477-50548041731-f5b777b683",
            "thumb_64": "https://files.slack.com/files-tmb/T0LQG2RMF-F0URLC8MS-f0e77129d5/img_20160322_185601_64.jpg?t=xoxe-20832093729-50596563477-50548041731-f5b777b683",
            "thumb_80": "https://files.slack.com/files-tmb/T0LQG2RMF-F0URLC8MS-f0e77129d5/img_20160322_185601_80.jpg?t=xoxe-20832093729-50596563477-50548041731-f5b777b683",
            "thumb_360": "https://files.slack.com/files-tmb/T0LQG2RMF-F0URLC8MS-f0e77129d5/img_20160322_185601_360.jpg?t=xoxe-20832093729-50596563477-50548041731-f5b777b683",
            "thumb_360_w": 360,
            "thumb_360_h": 270,
            "thumb_480": "https://files.slack.com/files-tmb/T0LQG2RMF-F0URLC8MS-f0e77129d5/img_20160322_185601_480.jpg?t=xoxe-20832093729-50596563477-50548041731-f5b777b683",
            "thumb_480_w": 480,
            "thumb_480_h": 360,
            "thumb_160": "https://files.slack.com/files-tmb/T0LQG2RMF-F0URLC8MS-f0e77129d5/img_20160322_185601_160.jpg?t=xoxe-20832093729-50596563477-50548041731-f5b777b683",
            "thumb_720": "https://files.slack.com/files-tmb/T0LQG2RMF-F0URLC8MS-f0e77129d5/img_20160322_185601_720.jpg?t=xoxe-20832093729-50596563477-50548041731-f5b777b683",
            "thumb_720_w": 720,
            "thumb_720_h": 540,
            "thumb_960": "https://files.slack.com/files-tmb/T0LQG2RMF-F0URLC8MS-f0e77129d5/img_20160322_185601_960.jpg?t=xoxe-20832093729-50596563477-50548041731-f5b777b683",
            "thumb_960_w": 960,
            "thumb_960_h": 720,
            "thumb_1024": "https://files.slack.com/files-tmb/T0LQG2RMF-F0URLC8MS-f0e77129d5/img_20160322_185601_1024.jpg?t=xoxe-20832093729-50596563477-50548041731-f5b777b683",
            "thumb_1024_w": 1024,
            "thumb_1024_h": 768,
            "image_exif_rotation": 1,
            "original_w": 4608,
            "original_h": 3456,
            "permalink": "https://vegoa.slack.com/files/geraldinestarke/F0URLC8MS/img_20160322_185601.jpg",
            "permalink_public": "https://slack-files.com/T0LQG2RMF-F0URLC8MS-61ea332dbb",
            "channels": [
                "C0TTF6735"
            ],
            "groups": [
    
            ],
            "ims": [
    
            ],
            "comments_count": 0
        },
        "user": "U0NRZC42H",
        "upload": true,
        "display_as_bot": false,
        "username": "<@U0NRZC42H|geraldinestarke>",
        "bot_id": null,
        "ts": "1458732333.000041"
    },
    {
        "type": "message",
        "subtype": "file_share",
        "text": "<@U0NRZC42H|geraldinestarke> uploaded a file: <https://vegoa.slack.com/files/geraldinestarke/F0URVT8HM/img_20160322_190824.jpg|Afterthat we added green branches, leaves, pines branches, grass..>",
        "file": {
            "id": "F0URVT8HM",
            "created": 1458732368,
            "timestamp": 1458732368,
            "name": "IMG_20160322_190824.jpg",
            "title": "Afterthat we added green branches, leaves, pines branches, grass..",
            "mimetype": "image/jpeg",
            "filetype": "jpg",
            "pretty_type": "JPEG",
            "user": "U0NRZC42H",
            "editable": false,
            "size": 7563878,
            "mode": "hosted",
            "is_external": false,
            "external_type": "",
            "is_public": true,
            "public_url_shared": false,
            "display_as_bot": false,
            "username": "",
            "url_private": "https://files.slack.com/files-pri/T0LQG2RMF-F0URVT8HM/img_20160322_190824.jpg?t=xoxe-20832093729-50596563477-50548041731-f5b777b683",
            "url_private_download": "https://files.slack.com/files-pri/T0LQG2RMF-F0URVT8HM/download/img_20160322_190824.jpg?t=xoxe-20832093729-50596563477-50548041731-f5b777b683",
            "thumb_64": "https://files.slack.com/files-tmb/T0LQG2RMF-F0URVT8HM-f78f928b02/img_20160322_190824_64.jpg?t=xoxe-20832093729-50596563477-50548041731-f5b777b683",
            "thumb_80": "https://files.slack.com/files-tmb/T0LQG2RMF-F0URVT8HM-f78f928b02/img_20160322_190824_80.jpg?t=xoxe-20832093729-50596563477-50548041731-f5b777b683",
            "thumb_360": "https://files.slack.com/files-tmb/T0LQG2RMF-F0URVT8HM-f78f928b02/img_20160322_190824_360.jpg?t=xoxe-20832093729-50596563477-50548041731-f5b777b683",
            "thumb_360_w": 270,
            "thumb_360_h": 360,
            "thumb_480": "https://files.slack.com/files-tmb/T0LQG2RMF-F0URVT8HM-f78f928b02/img_20160322_190824_480.jpg?t=xoxe-20832093729-50596563477-50548041731-f5b777b683",
            "thumb_480_w": 360,
            "thumb_480_h": 480,
            "thumb_160": "https://files.slack.com/files-tmb/T0LQG2RMF-F0URVT8HM-f78f928b02/img_20160322_190824_160.jpg?t=xoxe-20832093729-50596563477-50548041731-f5b777b683",
            "thumb_720": "https://files.slack.com/files-tmb/T0LQG2RMF-F0URVT8HM-f78f928b02/img_20160322_190824_720.jpg?t=xoxe-20832093729-50596563477-50548041731-f5b777b683",
            "thumb_720_w": 540,
            "thumb_720_h": 720,
            "thumb_960": "https://files.slack.com/files-tmb/T0LQG2RMF-F0URVT8HM-f78f928b02/img_20160322_190824_960.jpg?t=xoxe-20832093729-50596563477-50548041731-f5b777b683",
            "thumb_960_w": 720,
            "thumb_960_h": 960,
            "thumb_1024": "https://files.slack.com/files-tmb/T0LQG2RMF-F0URVT8HM-f78f928b02/img_20160322_190824_1024.jpg?t=xoxe-20832093729-50596563477-50548041731-f5b777b683",
            "thumb_1024_w": 768,
            "thumb_1024_h": 1024,
            "image_exif_rotation": 1,
            "original_w": 3456,
            "original_h": 4608,
            "permalink": "https://vegoa.slack.com/files/geraldinestarke/F0URVT8HM/img_20160322_190824.jpg",
            "permalink_public": "https://slack-files.com/T0LQG2RMF-F0URVT8HM-1c42c539c2",
            "channels": [
                "C0TTF6735"
            ],
            "groups": [
    
            ],
            "ims": [
    
            ],
            "comments_count": 0,
            "reactions": [
                {
                    "name": "sweat_smile",
                    "users": [
                        "U0NS3HEGL",
                        "U0LQDTH7V"
                    ],
                    "count": 2
                }
            ]
        },
        "user": "U0NRZC42H",
        "upload": true,
        "display_as_bot": false,
        "username": "<@U0NRZC42H|geraldinestarke>",
        "bot_id": null,
        "ts": "1458732382.000042"
    },
    {
        "type": "message",
        "subtype": "file_share",
        "text": "<@U0NRZC42H|geraldinestarke> uploaded a file: <https://vegoa.slack.com/files/geraldinestarke/F0UQE7JE7/img_20160322_190833.jpg|Slack for Android Upload>",
        "file": {
            "id": "F0UQE7JE7",
            "created": 1458732414,
            "timestamp": 1458732414,
            "name": "IMG_20160322_190833.jpg",
            "title": "Slack for Android Upload",
            "mimetype": "image/jpeg",
            "filetype": "jpg",
            "pretty_type": "JPEG",
            "user": "U0NRZC42H",
            "editable": false,
            "size": 7277935,
            "mode": "hosted",
            "is_external": false,
            "external_type": "",
            "is_public": true,
            "public_url_shared": false,
            "display_as_bot": false,
            "username": "",
            "url_private": "https://files.slack.com/files-pri/T0LQG2RMF-F0UQE7JE7/img_20160322_190833.jpg?t=xoxe-20832093729-50596563477-50548041731-f5b777b683",
            "url_private_download": "https://files.slack.com/files-pri/T0LQG2RMF-F0UQE7JE7/download/img_20160322_190833.jpg?t=xoxe-20832093729-50596563477-50548041731-f5b777b683",
            "thumb_64": "https://files.slack.com/files-tmb/T0LQG2RMF-F0UQE7JE7-68ca0cb6a9/img_20160322_190833_64.jpg?t=xoxe-20832093729-50596563477-50548041731-f5b777b683",
            "thumb_80": "https://files.slack.com/files-tmb/T0LQG2RMF-F0UQE7JE7-68ca0cb6a9/img_20160322_190833_80.jpg?t=xoxe-20832093729-50596563477-50548041731-f5b777b683",
            "thumb_360": "https://files.slack.com/files-tmb/T0LQG2RMF-F0UQE7JE7-68ca0cb6a9/img_20160322_190833_360.jpg?t=xoxe-20832093729-50596563477-50548041731-f5b777b683",
            "thumb_360_w": 270,
            "thumb_360_h": 360,
            "thumb_480": "https://files.slack.com/files-tmb/T0LQG2RMF-F0UQE7JE7-68ca0cb6a9/img_20160322_190833_480.jpg?t=xoxe-20832093729-50596563477-50548041731-f5b777b683",
            "thumb_480_w": 360,
            "thumb_480_h": 480,
            "thumb_160": "https://files.slack.com/files-tmb/T0LQG2RMF-F0UQE7JE7-68ca0cb6a9/img_20160322_190833_160.jpg?t=xoxe-20832093729-50596563477-50548041731-f5b777b683",
            "thumb_720": "https://files.slack.com/files-tmb/T0LQG2RMF-F0UQE7JE7-68ca0cb6a9/img_20160322_190833_720.jpg?t=xoxe-20832093729-50596563477-50548041731-f5b777b683",
            "thumb_720_w": 540,
            "thumb_720_h": 720,
            "thumb_960": "https://files.slack.com/files-tmb/T0LQG2RMF-F0UQE7JE7-68ca0cb6a9/img_20160322_190833_960.jpg?t=xoxe-20832093729-50596563477-50548041731-f5b777b683",
            "thumb_960_w": 720,
            "thumb_960_h": 960,
            "thumb_1024": "https://files.slack.com/files-tmb/T0LQG2RMF-F0UQE7JE7-68ca0cb6a9/img_20160322_190833_1024.jpg?t=xoxe-20832093729-50596563477-50548041731-f5b777b683",
            "thumb_1024_w": 768,
            "thumb_1024_h": 1024,
            "image_exif_rotation": 1,
            "original_w": 3456,
            "original_h": 4608,
            "permalink": "https://vegoa.slack.com/files/geraldinestarke/F0UQE7JE7/img_20160322_190833.jpg",
            "permalink_public": "https://slack-files.com/T0LQG2RMF-F0UQE7JE7-af8ddffa6f",
            "channels": [
                "C0TTF6735"
            ],
            "groups": [
    
            ],
            "ims": [
    
            ],
            "comments_count": 0
        },
        "user": "U0NRZC42H",
        "upload": true,
        "display_as_bot": false,
        "username": "<@U0NRZC42H|geraldinestarke>",
        "bot_id": null,
        "ts": "1458732430.000043"
    },
    {
        "type": "message",
        "subtype": "file_share",
        "text": "<@U0NRZC42H|geraldinestarke> uploaded a file: <https://vegoa.slack.com/files/geraldinestarke/F0US6TZS6/img_20160322_191236.jpg|Slack for Android Upload> and commented: Crushed again",
        "file": {
            "id": "F0US6TZS6",
            "created": 1458732462,
            "timestamp": 1458732462,
            "name": "IMG_20160322_191236.jpg",
            "title": "Slack for Android Upload",
            "mimetype": "image/jpeg",
            "filetype": "jpg",
            "pretty_type": "JPEG",
            "user": "U0NRZC42H",
            "editable": false,
            "size": 7135313,
            "mode": "hosted",
            "is_external": false,
            "external_type": "",
            "is_public": true,
            "public_url_shared": false,
            "display_as_bot": false,
            "username": "",
            "url_private": "https://files.slack.com/files-pri/T0LQG2RMF-F0US6TZS6/img_20160322_191236.jpg?t=xoxe-20832093729-50596563477-50548041731-f5b777b683",
            "url_private_download": "https://files.slack.com/files-pri/T0LQG2RMF-F0US6TZS6/download/img_20160322_191236.jpg?t=xoxe-20832093729-50596563477-50548041731-f5b777b683",
            "thumb_64": "https://files.slack.com/files-tmb/T0LQG2RMF-F0US6TZS6-ee98fc5f65/img_20160322_191236_64.jpg?t=xoxe-20832093729-50596563477-50548041731-f5b777b683",
            "thumb_80": "https://files.slack.com/files-tmb/T0LQG2RMF-F0US6TZS6-ee98fc5f65/img_20160322_191236_80.jpg?t=xoxe-20832093729-50596563477-50548041731-f5b777b683",
            "thumb_360": "https://files.slack.com/files-tmb/T0LQG2RMF-F0US6TZS6-ee98fc5f65/img_20160322_191236_360.jpg?t=xoxe-20832093729-50596563477-50548041731-f5b777b683",
            "thumb_360_w": 270,
            "thumb_360_h": 360,
            "thumb_480": "https://files.slack.com/files-tmb/T0LQG2RMF-F0US6TZS6-ee98fc5f65/img_20160322_191236_480.jpg?t=xoxe-20832093729-50596563477-50548041731-f5b777b683",
            "thumb_480_w": 360,
            "thumb_480_h": 480,
            "thumb_160": "https://files.slack.com/files-tmb/T0LQG2RMF-F0US6TZS6-ee98fc5f65/img_20160322_191236_160.jpg?t=xoxe-20832093729-50596563477-50548041731-f5b777b683",
            "thumb_720": "https://files.slack.com/files-tmb/T0LQG2RMF-F0US6TZS6-ee98fc5f65/img_20160322_191236_720.jpg?t=xoxe-20832093729-50596563477-50548041731-f5b777b683",
            "thumb_720_w": 540,
            "thumb_720_h": 720,
            "thumb_960": "https://files.slack.com/files-tmb/T0LQG2RMF-F0US6TZS6-ee98fc5f65/img_20160322_191236_960.jpg?t=xoxe-20832093729-50596563477-50548041731-f5b777b683",
            "thumb_960_w": 720,
            "thumb_960_h": 960,
            "thumb_1024": "https://files.slack.com/files-tmb/T0LQG2RMF-F0US6TZS6-ee98fc5f65/img_20160322_191236_1024.jpg?t=xoxe-20832093729-50596563477-50548041731-f5b777b683",
            "thumb_1024_w": 768,
            "thumb_1024_h": 1024,
            "image_exif_rotation": 1,
            "original_w": 3456,
            "original_h": 4608,
            "permalink": "https://vegoa.slack.com/files/geraldinestarke/F0US6TZS6/img_20160322_191236.jpg",
            "permalink_public": "https://slack-files.com/T0LQG2RMF-F0US6TZS6-b42f3f04bc",
            "channels": [
                "C0TTF6735"
            ],
            "groups": [
    
            ],
            "ims": [
    
            ],
            "comments_count": 1,
            "initial_comment": {
                "id": "Fc0US6UL74",
                "created": 1458732462,
                "timestamp": 1458732462,
                "user": "U0NRZC42H",
                "is_intro": true,
                "comment": "Crushed again",
                "channel": ""
            },
            "reactions": [
                {
                    "name": "sunglasses",
                    "users": [
                        "U0NS3HEGL"
                    ],
                    "count": 1
                }
            ]
        },
        "user": "U0NRZC42H",
        "upload": true,
        "display_as_bot": false,
        "username": "<@U0NRZC42H|geraldinestarke>",
        "bot_id": null,
        "ts": "1458732471.000045"
    },
    {
        "type": "message",
        "subtype": "file_share",
        "text": "<@U0NRZC42H|geraldinestarke> uploaded a file: <https://vegoa.slack.com/files/geraldinestarke/F0URLU90C/img_20160322_192026.jpg|Slack for Android Upload> and commented: Mixing soil and compost",
        "file": {
            "id": "F0URLU90C",
            "created": 1458732494,
            "timestamp": 1458732494,
            "name": "IMG_20160322_192026.jpg",
            "title": "Slack for Android Upload",
            "mimetype": "image/jpeg",
            "filetype": "jpg",
            "pretty_type": "JPEG",
            "user": "U0NRZC42H",
            "editable": false,
            "size": 5428279,
            "mode": "hosted",
            "is_external": false,
            "external_type": "",
            "is_public": true,
            "public_url_shared": false,
            "display_as_bot": false,
            "username": "",
            "url_private": "https://files.slack.com/files-pri/T0LQG2RMF-F0URLU90C/img_20160322_192026.jpg?t=xoxe-20832093729-50596563477-50548041731-f5b777b683",
            "url_private_download": "https://files.slack.com/files-pri/T0LQG2RMF-F0URLU90C/download/img_20160322_192026.jpg?t=xoxe-20832093729-50596563477-50548041731-f5b777b683",
            "thumb_64": "https://files.slack.com/files-tmb/T0LQG2RMF-F0URLU90C-a09fa47ec0/img_20160322_192026_64.jpg?t=xoxe-20832093729-50596563477-50548041731-f5b777b683",
            "thumb_80": "https://files.slack.com/files-tmb/T0LQG2RMF-F0URLU90C-a09fa47ec0/img_20160322_192026_80.jpg?t=xoxe-20832093729-50596563477-50548041731-f5b777b683",
            "thumb_360": "https://files.slack.com/files-tmb/T0LQG2RMF-F0URLU90C-a09fa47ec0/img_20160322_192026_360.jpg?t=xoxe-20832093729-50596563477-50548041731-f5b777b683",
            "thumb_360_w": 270,
            "thumb_360_h": 360,
            "thumb_480": "https://files.slack.com/files-tmb/T0LQG2RMF-F0URLU90C-a09fa47ec0/img_20160322_192026_480.jpg?t=xoxe-20832093729-50596563477-50548041731-f5b777b683",
            "thumb_480_w": 360,
            "thumb_480_h": 480,
            "thumb_160": "https://files.slack.com/files-tmb/T0LQG2RMF-F0URLU90C-a09fa47ec0/img_20160322_192026_160.jpg?t=xoxe-20832093729-50596563477-50548041731-f5b777b683",
            "thumb_720": "https://files.slack.com/files-tmb/T0LQG2RMF-F0URLU90C-a09fa47ec0/img_20160322_192026_720.jpg?t=xoxe-20832093729-50596563477-50548041731-f5b777b683",
            "thumb_720_w": 540,
            "thumb_720_h": 720,
            "thumb_960": "https://files.slack.com/files-tmb/T0LQG2RMF-F0URLU90C-a09fa47ec0/img_20160322_192026_960.jpg?t=xoxe-20832093729-50596563477-50548041731-f5b777b683",
            "thumb_960_w": 720,
            "thumb_960_h": 960,
            "thumb_1024": "https://files.slack.com/files-tmb/T0LQG2RMF-F0URLU90C-a09fa47ec0/img_20160322_192026_1024.jpg?t=xoxe-20832093729-50596563477-50548041731-f5b777b683",
            "thumb_1024_w": 768,
            "thumb_1024_h": 1024,
            "image_exif_rotation": 1,
            "original_w": 3456,
            "original_h": 4608,
            "permalink": "https://vegoa.slack.com/files/geraldinestarke/F0URLU90C/img_20160322_192026.jpg",
            "permalink_public": "https://slack-files.com/T0LQG2RMF-F0URLU90C-e633fad2fe",
            "channels": [
                "C0TTF6735"
            ],
            "groups": [
    
            ],
            "ims": [
    
            ],
            "comments_count": 1,
            "initial_comment": {
                "id": "Fc0US08CGY",
                "created": 1458732494,
                "timestamp": 1458732494,
                "user": "U0NRZC42H",
                "is_intro": true,
                "comment": "Mixing soil and compost",
                "channel": ""
            }
        },
        "user": "U0NRZC42H",
        "upload": true,
        "display_as_bot": false,
        "username": "<@U0NRZC42H|geraldinestarke>",
        "bot_id": null,
        "ts": "1458732504.000047"
    },
    {
        "type": "message",
        "subtype": "file_share",
        "text": "<@U0NRZC42H|geraldinestarke> uploaded a file: <https://vegoa.slack.com/files/geraldinestarke/F0URPJAT0/img_20160323_112826.jpg|Slack for Android Upload>",
        "file": {
            "id": "F0URPJAT0",
            "created": 1458732689,
            "timestamp": 1458732689,
            "name": "IMG_20160323_112826.jpg",
            "title": "Slack for Android Upload",
            "mimetype": "image/jpeg",
            "filetype": "jpg",
            "pretty_type": "JPEG",
            "user": "U0NRZC42H",
            "editable": false,
            "size": 12179690,
            "mode": "hosted",
            "is_external": false,
            "external_type": "",
            "is_public": true,
            "public_url_shared": false,
            "display_as_bot": false,
            "username": "",
            "url_private": "https://files.slack.com/files-pri/T0LQG2RMF-F0URPJAT0/img_20160323_112826.jpg?t=xoxe-20832093729-50596563477-50548041731-f5b777b683",
            "url_private_download": "https://files.slack.com/files-pri/T0LQG2RMF-F0URPJAT0/download/img_20160323_112826.jpg?t=xoxe-20832093729-50596563477-50548041731-f5b777b683",
            "thumb_64": "https://files.slack.com/files-tmb/T0LQG2RMF-F0URPJAT0-0c70576b64/img_20160323_112826_64.jpg?t=xoxe-20832093729-50596563477-50548041731-f5b777b683",
            "thumb_80": "https://files.slack.com/files-tmb/T0LQG2RMF-F0URPJAT0-0c70576b64/img_20160323_112826_80.jpg?t=xoxe-20832093729-50596563477-50548041731-f5b777b683",
            "thumb_360": "https://files.slack.com/files-tmb/T0LQG2RMF-F0URPJAT0-0c70576b64/img_20160323_112826_360.jpg?t=xoxe-20832093729-50596563477-50548041731-f5b777b683",
            "thumb_360_w": 270,
            "thumb_360_h": 360,
            "thumb_480": "https://files.slack.com/files-tmb/T0LQG2RMF-F0URPJAT0-0c70576b64/img_20160323_112826_480.jpg?t=xoxe-20832093729-50596563477-50548041731-f5b777b683",
            "thumb_480_w": 360,
            "thumb_480_h": 480,
            "thumb_160": "https://files.slack.com/files-tmb/T0LQG2RMF-F0URPJAT0-0c70576b64/img_20160323_112826_160.jpg?t=xoxe-20832093729-50596563477-50548041731-f5b777b683",
            "thumb_720": "https://files.slack.com/files-tmb/T0LQG2RMF-F0URPJAT0-0c70576b64/img_20160323_112826_720.jpg?t=xoxe-20832093729-50596563477-50548041731-f5b777b683",
            "thumb_720_w": 540,
            "thumb_720_h": 720,
            "thumb_960": "https://files.slack.com/files-tmb/T0LQG2RMF-F0URPJAT0-0c70576b64/img_20160323_112826_960.jpg?t=xoxe-20832093729-50596563477-50548041731-f5b777b683",
            "thumb_960_w": 720,
            "thumb_960_h": 960,
            "thumb_1024": "https://files.slack.com/files-tmb/T0LQG2RMF-F0URPJAT0-0c70576b64/img_20160323_112826_1024.jpg?t=xoxe-20832093729-50596563477-50548041731-f5b777b683",
            "thumb_1024_w": 768,
            "thumb_1024_h": 1024,
            "image_exif_rotation": 1,
            "original_w": 3456,
            "original_h": 4608,
            "permalink": "https://vegoa.slack.com/files/geraldinestarke/F0URPJAT0/img_20160323_112826.jpg",
            "permalink_public": "https://slack-files.com/T0LQG2RMF-F0URPJAT0-25951a479c",
            "channels": [
                "C0TTF6735"
            ],
            "groups": [
    
            ],
            "ims": [
    
            ],
            "comments_count": 0
        },
        "user": "U0NRZC42H",
        "upload": true,
        "display_as_bot": false,
        "username": "<@U0NRZC42H|geraldinestarke>",
        "bot_id": null,
        "ts": "1458732698.000048"
    },
    {
        "type": "message",
        "subtype": "file_share",
        "text": "<@U0NRZC42H|geraldinestarke> uploaded a file: <https://vegoa.slack.com/files/geraldinestarke/F0URPRYS2/img_20160323_112901.jpg|Slack for Android Upload> and commented: You can see the thickness comparing to Neo's size :)",
        "file": {
            "id": "F0URPRYS2",
            "created": 1458732780,
            "timestamp": 1458732780,
            "name": "IMG_20160323_112901.jpg",
            "title": "Slack for Android Upload",
            "mimetype": "image/jpeg",
            "filetype": "jpg",
            "pretty_type": "JPEG",
            "user": "U0NRZC42H",
            "editable": false,
            "size": 11066850,
            "mode": "hosted",
            "is_external": false,
            "external_type": "",
            "is_public": true,
            "public_url_shared": false,
            "display_as_bot": false,
            "username": "",
            "url_private": "https://files.slack.com/files-pri/T0LQG2RMF-F0URPRYS2/img_20160323_112901.jpg?t=xoxe-20832093729-50596563477-50548041731-f5b777b683",
            "url_private_download": "https://files.slack.com/files-pri/T0LQG2RMF-F0URPRYS2/download/img_20160323_112901.jpg?t=xoxe-20832093729-50596563477-50548041731-f5b777b683",
            "thumb_64": "https://files.slack.com/files-tmb/T0LQG2RMF-F0URPRYS2-2650c80208/img_20160323_112901_64.jpg?t=xoxe-20832093729-50596563477-50548041731-f5b777b683",
            "thumb_80": "https://files.slack.com/files-tmb/T0LQG2RMF-F0URPRYS2-2650c80208/img_20160323_112901_80.jpg?t=xoxe-20832093729-50596563477-50548041731-f5b777b683",
            "thumb_360": "https://files.slack.com/files-tmb/T0LQG2RMF-F0URPRYS2-2650c80208/img_20160323_112901_360.jpg?t=xoxe-20832093729-50596563477-50548041731-f5b777b683",
            "thumb_360_w": 360,
            "thumb_360_h": 270,
            "thumb_480": "https://files.slack.com/files-tmb/T0LQG2RMF-F0URPRYS2-2650c80208/img_20160323_112901_480.jpg?t=xoxe-20832093729-50596563477-50548041731-f5b777b683",
            "thumb_480_w": 480,
            "thumb_480_h": 360,
            "thumb_160": "https://files.slack.com/files-tmb/T0LQG2RMF-F0URPRYS2-2650c80208/img_20160323_112901_160.jpg?t=xoxe-20832093729-50596563477-50548041731-f5b777b683",
            "thumb_720": "https://files.slack.com/files-tmb/T0LQG2RMF-F0URPRYS2-2650c80208/img_20160323_112901_720.jpg?t=xoxe-20832093729-50596563477-50548041731-f5b777b683",
            "thumb_720_w": 720,
            "thumb_720_h": 540,
            "thumb_960": "https://files.slack.com/files-tmb/T0LQG2RMF-F0URPRYS2-2650c80208/img_20160323_112901_960.jpg?t=xoxe-20832093729-50596563477-50548041731-f5b777b683",
            "thumb_960_w": 960,
            "thumb_960_h": 720,
            "thumb_1024": "https://files.slack.com/files-tmb/T0LQG2RMF-F0URPRYS2-2650c80208/img_20160323_112901_1024.jpg?t=xoxe-20832093729-50596563477-50548041731-f5b777b683",
            "thumb_1024_w": 1024,
            "thumb_1024_h": 768,
            "image_exif_rotation": 1,
            "original_w": 4608,
            "original_h": 3456,
            "permalink": "https://vegoa.slack.com/files/geraldinestarke/F0URPRYS2/img_20160323_112901.jpg",
            "permalink_public": "https://slack-files.com/T0LQG2RMF-F0URPRYS2-d705ea2ddb",
            "channels": [
                "C0TTF6735"
            ],
            "groups": [
    
            ],
            "ims": [
    
            ],
            "comments_count": 1,
            "initial_comment": {
                "id": "Fc0URXFUG5",
                "created": 1458732780,
                "timestamp": 1458732780,
                "user": "U0NRZC42H",
                "is_intro": true,
                "comment": "You can see the thickness comparing to Neo's size :)",
                "channel": ""
            }
        },
        "user": "U0NRZC42H",
        "upload": true,
        "display_as_bot": false,
        "username": "<@U0NRZC42H|geraldinestarke>",
        "bot_id": null,
        "ts": "1458732797.000049"
    },
    {
        "type": "message",
        "user": "U0NRZC42H",
        "text": "Now we still need more soil and sawdust. Still struggling to find some. After that we will just put strow to cover the whole mound and then it's ready to be planted :)",
        "ts": "1458732863.000050"
    },
    {
        "type": "message",
        "user": "U0NRZC42H",
        "text": "We also already have stones to make a little path between the mound and the wall on the left so we can easily access both sides",
        "ts": "1458732899.000051"
    },
    {
        "type": "message",
        "user": "U0LQDTH7V",
        "text": "You will need loads of soil :simple_smile:",
        "ts": "1458734738.000053"
    },
    {
        "type": "message",
        "user": "U0LQDTH7V",
        "text": "Looks amazing :simple_smile:",
        "ts": "1458734746.000054",
        "reactions": [
            {
                "name": "flushed",
                "users": [
                    "U0NS3HEGL"
                ],
                "count": 1
            },
            {
                "name": "scream_cat",
                "users": [
                    "U0NS3HEGL"
                ],
                "count": 1
            },
            {
                "name": "+1",
                "users": [
                    "U0NRZC42H"
                ],
                "count": 1
            }
        ]
    }
]