[
    {
        "type": "message",
        "user": "U0QJ6TY92",
        "text": "Learning material, free to download :heart: <http://soilandhealth.org/agricultural-library-sort-by-subject/>",
        "ts": "1462949926.000002"
    }
]