[
    {
        "type": "message",
        "subtype": "file_share",
        "text": "<@U0NRZC42H|geraldinestarke> uploaded a file: <https://vegoa.slack.com/files/geraldinestarke/F0V6QMSEL/img_20160323_155444.jpg|Slack for Android Upload>",
        "file": {
            "id": "F0V6QMSEL",
            "created": 1458823391,
            "timestamp": 1458823391,
            "name": "IMG_20160323_155444.jpg",
            "title": "Slack for Android Upload",
            "mimetype": "image/jpeg",
            "filetype": "jpg",
            "pretty_type": "JPEG",
            "user": "U0NRZC42H",
            "editable": false,
            "size": 10928346,
            "mode": "hosted",
            "is_external": false,
            "external_type": "",
            "is_public": true,
            "public_url_shared": false,
            "display_as_bot": false,
            "username": "",
            "url_private": "https://files.slack.com/files-pri/T0LQG2RMF-F0V6QMSEL/img_20160323_155444.jpg?t=xoxe-20832093729-50596563477-50548041731-f5b777b683",
            "url_private_download": "https://files.slack.com/files-pri/T0LQG2RMF-F0V6QMSEL/download/img_20160323_155444.jpg?t=xoxe-20832093729-50596563477-50548041731-f5b777b683",
            "thumb_64": "https://files.slack.com/files-tmb/T0LQG2RMF-F0V6QMSEL-65d6c5f48b/img_20160323_155444_64.jpg?t=xoxe-20832093729-50596563477-50548041731-f5b777b683",
            "thumb_80": "https://files.slack.com/files-tmb/T0LQG2RMF-F0V6QMSEL-65d6c5f48b/img_20160323_155444_80.jpg?t=xoxe-20832093729-50596563477-50548041731-f5b777b683",
            "thumb_360": "https://files.slack.com/files-tmb/T0LQG2RMF-F0V6QMSEL-65d6c5f48b/img_20160323_155444_360.jpg?t=xoxe-20832093729-50596563477-50548041731-f5b777b683",
            "thumb_360_w": 270,
            "thumb_360_h": 360,
            "thumb_480": "https://files.slack.com/files-tmb/T0LQG2RMF-F0V6QMSEL-65d6c5f48b/img_20160323_155444_480.jpg?t=xoxe-20832093729-50596563477-50548041731-f5b777b683",
            "thumb_480_w": 360,
            "thumb_480_h": 480,
            "thumb_160": "https://files.slack.com/files-tmb/T0LQG2RMF-F0V6QMSEL-65d6c5f48b/img_20160323_155444_160.jpg?t=xoxe-20832093729-50596563477-50548041731-f5b777b683",
            "thumb_720": "https://files.slack.com/files-tmb/T0LQG2RMF-F0V6QMSEL-65d6c5f48b/img_20160323_155444_720.jpg?t=xoxe-20832093729-50596563477-50548041731-f5b777b683",
            "thumb_720_w": 540,
            "thumb_720_h": 720,
            "thumb_960": "https://files.slack.com/files-tmb/T0LQG2RMF-F0V6QMSEL-65d6c5f48b/img_20160323_155444_960.jpg?t=xoxe-20832093729-50596563477-50548041731-f5b777b683",
            "thumb_960_w": 720,
            "thumb_960_h": 960,
            "thumb_1024": "https://files.slack.com/files-tmb/T0LQG2RMF-F0V6QMSEL-65d6c5f48b/img_20160323_155444_1024.jpg?t=xoxe-20832093729-50596563477-50548041731-f5b777b683",
            "thumb_1024_w": 768,
            "thumb_1024_h": 1024,
            "image_exif_rotation": 1,
            "original_w": 3456,
            "original_h": 4608,
            "permalink": "https://vegoa.slack.com/files/geraldinestarke/F0V6QMSEL/img_20160323_155444.jpg",
            "permalink_public": "https://slack-files.com/T0LQG2RMF-F0V6QMSEL-469bbe029c",
            "channels": [
                "C0TTF6735"
            ],
            "groups": [
    
            ],
            "ims": [
    
            ],
            "comments_count": 0
        },
        "user": "U0NRZC42H",
        "upload": true,
        "display_as_bot": false,
        "username": "<@U0NRZC42H|geraldinestarke>",
        "bot_id": null,
        "ts": "1458823400.000055"
    },
    {
        "type": "message",
        "subtype": "file_share",
        "text": "<@U0NRZC42H|geraldinestarke> uploaded a file: <https://vegoa.slack.com/files/geraldinestarke/F0V6QTYAU/img_20160323_155508.jpg|Slack for Android Upload> and commented: We put sand and more compost on top of all that",
        "file": {
            "id": "F0V6QTYAU",
            "created": 1458823451,
            "timestamp": 1458823451,
            "name": "IMG_20160323_155508.jpg",
            "title": "Slack for Android Upload",
            "mimetype": "image/jpeg",
            "filetype": "jpg",
            "pretty_type": "JPEG",
            "user": "U0NRZC42H",
            "editable": false,
            "size": 12873775,
            "mode": "hosted",
            "is_external": false,
            "external_type": "",
            "is_public": true,
            "public_url_shared": false,
            "display_as_bot": false,
            "username": "",
            "url_private": "https://files.slack.com/files-pri/T0LQG2RMF-F0V6QTYAU/img_20160323_155508.jpg?t=xoxe-20832093729-50596563477-50548041731-f5b777b683",
            "url_private_download": "https://files.slack.com/files-pri/T0LQG2RMF-F0V6QTYAU/download/img_20160323_155508.jpg?t=xoxe-20832093729-50596563477-50548041731-f5b777b683",
            "thumb_64": "https://files.slack.com/files-tmb/T0LQG2RMF-F0V6QTYAU-64ba5b1872/img_20160323_155508_64.jpg?t=xoxe-20832093729-50596563477-50548041731-f5b777b683",
            "thumb_80": "https://files.slack.com/files-tmb/T0LQG2RMF-F0V6QTYAU-64ba5b1872/img_20160323_155508_80.jpg?t=xoxe-20832093729-50596563477-50548041731-f5b777b683",
            "thumb_360": "https://files.slack.com/files-tmb/T0LQG2RMF-F0V6QTYAU-64ba5b1872/img_20160323_155508_360.jpg?t=xoxe-20832093729-50596563477-50548041731-f5b777b683",
            "thumb_360_w": 270,
            "thumb_360_h": 360,
            "thumb_480": "https://files.slack.com/files-tmb/T0LQG2RMF-F0V6QTYAU-64ba5b1872/img_20160323_155508_480.jpg?t=xoxe-20832093729-50596563477-50548041731-f5b777b683",
            "thumb_480_w": 360,
            "thumb_480_h": 480,
            "thumb_160": "https://files.slack.com/files-tmb/T0LQG2RMF-F0V6QTYAU-64ba5b1872/img_20160323_155508_160.jpg?t=xoxe-20832093729-50596563477-50548041731-f5b777b683",
            "thumb_720": "https://files.slack.com/files-tmb/T0LQG2RMF-F0V6QTYAU-64ba5b1872/img_20160323_155508_720.jpg?t=xoxe-20832093729-50596563477-50548041731-f5b777b683",
            "thumb_720_w": 540,
            "thumb_720_h": 720,
            "thumb_960": "https://files.slack.com/files-tmb/T0LQG2RMF-F0V6QTYAU-64ba5b1872/img_20160323_155508_960.jpg?t=xoxe-20832093729-50596563477-50548041731-f5b777b683",
            "thumb_960_w": 720,
            "thumb_960_h": 960,
            "thumb_1024": "https://files.slack.com/files-tmb/T0LQG2RMF-F0V6QTYAU-64ba5b1872/img_20160323_155508_1024.jpg?t=xoxe-20832093729-50596563477-50548041731-f5b777b683",
            "thumb_1024_w": 768,
            "thumb_1024_h": 1024,
            "image_exif_rotation": 1,
            "original_w": 3456,
            "original_h": 4608,
            "permalink": "https://vegoa.slack.com/files/geraldinestarke/F0V6QTYAU/img_20160323_155508.jpg",
            "permalink_public": "https://slack-files.com/T0LQG2RMF-F0V6QTYAU-5ab4598390",
            "channels": [
                "C0TTF6735"
            ],
            "groups": [
    
            ],
            "ims": [
    
            ],
            "comments_count": 1,
            "initial_comment": {
                "id": "Fc0V6T4QD7",
                "created": 1458823451,
                "timestamp": 1458823451,
                "user": "U0NRZC42H",
                "is_intro": true,
                "comment": "We put sand and more compost on top of all that",
                "channel": ""
            }
        },
        "user": "U0NRZC42H",
        "upload": true,
        "display_as_bot": false,
        "username": "<@U0NRZC42H|geraldinestarke>",
        "bot_id": null,
        "ts": "1458823463.000056"
    },
    {
        "type": "message",
        "subtype": "file_share",
        "text": "<@U0NRZC42H|geraldinestarke> uploaded a file: <https://vegoa.slack.com/files/geraldinestarke/F0V6Z5B5G/img_20160323_160158.jpg|Slack for Android Upload>",
        "file": {
            "id": "F0V6Z5B5G",
            "created": 1458823511,
            "timestamp": 1458823511,
            "name": "IMG_20160323_160158.jpg",
            "title": "Slack for Android Upload",
            "mimetype": "image/jpeg",
            "filetype": "jpg",
            "pretty_type": "JPEG",
            "user": "U0NRZC42H",
            "editable": false,
            "size": 12115468,
            "mode": "hosted",
            "is_external": false,
            "external_type": "",
            "is_public": true,
            "public_url_shared": false,
            "display_as_bot": false,
            "username": "",
            "url_private": "https://files.slack.com/files-pri/T0LQG2RMF-F0V6Z5B5G/img_20160323_160158.jpg?t=xoxe-20832093729-50596563477-50548041731-f5b777b683",
            "url_private_download": "https://files.slack.com/files-pri/T0LQG2RMF-F0V6Z5B5G/download/img_20160323_160158.jpg?t=xoxe-20832093729-50596563477-50548041731-f5b777b683",
            "thumb_64": "https://files.slack.com/files-tmb/T0LQG2RMF-F0V6Z5B5G-46a66be440/img_20160323_160158_64.jpg?t=xoxe-20832093729-50596563477-50548041731-f5b777b683",
            "thumb_80": "https://files.slack.com/files-tmb/T0LQG2RMF-F0V6Z5B5G-46a66be440/img_20160323_160158_80.jpg?t=xoxe-20832093729-50596563477-50548041731-f5b777b683",
            "thumb_360": "https://files.slack.com/files-tmb/T0LQG2RMF-F0V6Z5B5G-46a66be440/img_20160323_160158_360.jpg?t=xoxe-20832093729-50596563477-50548041731-f5b777b683",
            "thumb_360_w": 270,
            "thumb_360_h": 360,
            "thumb_480": "https://files.slack.com/files-tmb/T0LQG2RMF-F0V6Z5B5G-46a66be440/img_20160323_160158_480.jpg?t=xoxe-20832093729-50596563477-50548041731-f5b777b683",
            "thumb_480_w": 360,
            "thumb_480_h": 480,
            "thumb_160": "https://files.slack.com/files-tmb/T0LQG2RMF-F0V6Z5B5G-46a66be440/img_20160323_160158_160.jpg?t=xoxe-20832093729-50596563477-50548041731-f5b777b683",
            "thumb_720": "https://files.slack.com/files-tmb/T0LQG2RMF-F0V6Z5B5G-46a66be440/img_20160323_160158_720.jpg?t=xoxe-20832093729-50596563477-50548041731-f5b777b683",
            "thumb_720_w": 540,
            "thumb_720_h": 720,
            "thumb_960": "https://files.slack.com/files-tmb/T0LQG2RMF-F0V6Z5B5G-46a66be440/img_20160323_160158_960.jpg?t=xoxe-20832093729-50596563477-50548041731-f5b777b683",
            "thumb_960_w": 720,
            "thumb_960_h": 960,
            "thumb_1024": "https://files.slack.com/files-tmb/T0LQG2RMF-F0V6Z5B5G-46a66be440/img_20160323_160158_1024.jpg?t=xoxe-20832093729-50596563477-50548041731-f5b777b683",
            "thumb_1024_w": 768,
            "thumb_1024_h": 1024,
            "image_exif_rotation": 1,
            "original_w": 3456,
            "original_h": 4608,
            "permalink": "https://vegoa.slack.com/files/geraldinestarke/F0V6Z5B5G/img_20160323_160158.jpg",
            "permalink_public": "https://slack-files.com/T0LQG2RMF-F0V6Z5B5G-22d6a066c8",
            "channels": [
                "C0TTF6735"
            ],
            "groups": [
    
            ],
            "ims": [
    
            ],
            "comments_count": 0
        },
        "user": "U0NRZC42H",
        "upload": true,
        "display_as_bot": false,
        "username": "<@U0NRZC42H|geraldinestarke>",
        "bot_id": null,
        "ts": "1458823521.000057"
    },
    {
        "type": "message",
        "subtype": "file_share",
        "text": "<@U0NRZC42H|geraldinestarke> uploaded a file: <https://vegoa.slack.com/files/geraldinestarke/F0V6FD6UE/img_20160323_160244.jpg|Slack for Android Upload> and commented: Them we put a thick layer of straw to cover everything",
        "file": {
            "id": "F0V6FD6UE",
            "created": 1458823569,
            "timestamp": 1458823569,
            "name": "IMG_20160323_160244.jpg",
            "title": "Slack for Android Upload",
            "mimetype": "image/jpeg",
            "filetype": "jpg",
            "pretty_type": "JPEG",
            "user": "U0NRZC42H",
            "editable": false,
            "size": 11746995,
            "mode": "hosted",
            "is_external": false,
            "external_type": "",
            "is_public": true,
            "public_url_shared": false,
            "display_as_bot": false,
            "username": "",
            "url_private": "https://files.slack.com/files-pri/T0LQG2RMF-F0V6FD6UE/img_20160323_160244.jpg?t=xoxe-20832093729-50596563477-50548041731-f5b777b683",
            "url_private_download": "https://files.slack.com/files-pri/T0LQG2RMF-F0V6FD6UE/download/img_20160323_160244.jpg?t=xoxe-20832093729-50596563477-50548041731-f5b777b683",
            "thumb_64": "https://files.slack.com/files-tmb/T0LQG2RMF-F0V6FD6UE-b04d36b6fa/img_20160323_160244_64.jpg?t=xoxe-20832093729-50596563477-50548041731-f5b777b683",
            "thumb_80": "https://files.slack.com/files-tmb/T0LQG2RMF-F0V6FD6UE-b04d36b6fa/img_20160323_160244_80.jpg?t=xoxe-20832093729-50596563477-50548041731-f5b777b683",
            "thumb_360": "https://files.slack.com/files-tmb/T0LQG2RMF-F0V6FD6UE-b04d36b6fa/img_20160323_160244_360.jpg?t=xoxe-20832093729-50596563477-50548041731-f5b777b683",
            "thumb_360_w": 360,
            "thumb_360_h": 270,
            "thumb_480": "https://files.slack.com/files-tmb/T0LQG2RMF-F0V6FD6UE-b04d36b6fa/img_20160323_160244_480.jpg?t=xoxe-20832093729-50596563477-50548041731-f5b777b683",
            "thumb_480_w": 480,
            "thumb_480_h": 360,
            "thumb_160": "https://files.slack.com/files-tmb/T0LQG2RMF-F0V6FD6UE-b04d36b6fa/img_20160323_160244_160.jpg?t=xoxe-20832093729-50596563477-50548041731-f5b777b683",
            "thumb_720": "https://files.slack.com/files-tmb/T0LQG2RMF-F0V6FD6UE-b04d36b6fa/img_20160323_160244_720.jpg?t=xoxe-20832093729-50596563477-50548041731-f5b777b683",
            "thumb_720_w": 720,
            "thumb_720_h": 540,
            "thumb_960": "https://files.slack.com/files-tmb/T0LQG2RMF-F0V6FD6UE-b04d36b6fa/img_20160323_160244_960.jpg?t=xoxe-20832093729-50596563477-50548041731-f5b777b683",
            "thumb_960_w": 960,
            "thumb_960_h": 720,
            "thumb_1024": "https://files.slack.com/files-tmb/T0LQG2RMF-F0V6FD6UE-b04d36b6fa/img_20160323_160244_1024.jpg?t=xoxe-20832093729-50596563477-50548041731-f5b777b683",
            "thumb_1024_w": 1024,
            "thumb_1024_h": 768,
            "image_exif_rotation": 1,
            "original_w": 4608,
            "original_h": 3456,
            "permalink": "https://vegoa.slack.com/files/geraldinestarke/F0V6FD6UE/img_20160323_160244.jpg",
            "permalink_public": "https://slack-files.com/T0LQG2RMF-F0V6FD6UE-25927c8006",
            "channels": [
                "C0TTF6735"
            ],
            "groups": [
    
            ],
            "ims": [
    
            ],
            "comments_count": 1,
            "initial_comment": {
                "id": "Fc0V6FF0VC",
                "created": 1458823569,
                "timestamp": 1458823569,
                "user": "U0NRZC42H",
                "is_intro": true,
                "comment": "Them we put a thick layer of straw to cover everything",
                "channel": ""
            }
        },
        "user": "U0NRZC42H",
        "upload": true,
        "display_as_bot": false,
        "username": "<@U0NRZC42H|geraldinestarke>",
        "bot_id": null,
        "ts": "1458823577.000058"
    },
    {
        "type": "message",
        "subtype": "file_share",
        "text": "<@U0NRZC42H|geraldinestarke> uploaded a file: <https://vegoa.slack.com/files/geraldinestarke/F0V6D2Q4C/img_20160323_161251.jpg|Slack for Android Upload>",
        "file": {
            "id": "F0V6D2Q4C",
            "created": 1458823622,
            "timestamp": 1458823622,
            "name": "IMG_20160323_161251.jpg",
            "title": "Slack for Android Upload",
            "mimetype": "image/jpeg",
            "filetype": "jpg",
            "pretty_type": "JPEG",
            "user": "U0NRZC42H",
            "editable": false,
            "size": 11254554,
            "mode": "hosted",
            "is_external": false,
            "external_type": "",
            "is_public": true,
            "public_url_shared": false,
            "display_as_bot": false,
            "username": "",
            "url_private": "https://files.slack.com/files-pri/T0LQG2RMF-F0V6D2Q4C/img_20160323_161251.jpg?t=xoxe-20832093729-50596563477-50548041731-f5b777b683",
            "url_private_download": "https://files.slack.com/files-pri/T0LQG2RMF-F0V6D2Q4C/download/img_20160323_161251.jpg?t=xoxe-20832093729-50596563477-50548041731-f5b777b683",
            "thumb_64": "https://files.slack.com/files-tmb/T0LQG2RMF-F0V6D2Q4C-5c4f62f1e1/img_20160323_161251_64.jpg?t=xoxe-20832093729-50596563477-50548041731-f5b777b683",
            "thumb_80": "https://files.slack.com/files-tmb/T0LQG2RMF-F0V6D2Q4C-5c4f62f1e1/img_20160323_161251_80.jpg?t=xoxe-20832093729-50596563477-50548041731-f5b777b683",
            "thumb_360": "https://files.slack.com/files-tmb/T0LQG2RMF-F0V6D2Q4C-5c4f62f1e1/img_20160323_161251_360.jpg?t=xoxe-20832093729-50596563477-50548041731-f5b777b683",
            "thumb_360_w": 270,
            "thumb_360_h": 360,
            "thumb_480": "https://files.slack.com/files-tmb/T0LQG2RMF-F0V6D2Q4C-5c4f62f1e1/img_20160323_161251_480.jpg?t=xoxe-20832093729-50596563477-50548041731-f5b777b683",
            "thumb_480_w": 360,
            "thumb_480_h": 480,
            "thumb_160": "https://files.slack.com/files-tmb/T0LQG2RMF-F0V6D2Q4C-5c4f62f1e1/img_20160323_161251_160.jpg?t=xoxe-20832093729-50596563477-50548041731-f5b777b683",
            "thumb_720": "https://files.slack.com/files-tmb/T0LQG2RMF-F0V6D2Q4C-5c4f62f1e1/img_20160323_161251_720.jpg?t=xoxe-20832093729-50596563477-50548041731-f5b777b683",
            "thumb_720_w": 540,
            "thumb_720_h": 720,
            "thumb_960": "https://files.slack.com/files-tmb/T0LQG2RMF-F0V6D2Q4C-5c4f62f1e1/img_20160323_161251_960.jpg?t=xoxe-20832093729-50596563477-50548041731-f5b777b683",
            "thumb_960_w": 720,
            "thumb_960_h": 960,
            "thumb_1024": "https://files.slack.com/files-tmb/T0LQG2RMF-F0V6D2Q4C-5c4f62f1e1/img_20160323_161251_1024.jpg?t=xoxe-20832093729-50596563477-50548041731-f5b777b683",
            "thumb_1024_w": 768,
            "thumb_1024_h": 1024,
            "image_exif_rotation": 1,
            "original_w": 3456,
            "original_h": 4608,
            "permalink": "https://vegoa.slack.com/files/geraldinestarke/F0V6D2Q4C/img_20160323_161251.jpg",
            "permalink_public": "https://slack-files.com/T0LQG2RMF-F0V6D2Q4C-7312853235",
            "channels": [
                "C0TTF6735"
            ],
            "groups": [
    
            ],
            "ims": [
    
            ],
            "comments_count": 0
        },
        "user": "U0NRZC42H",
        "upload": true,
        "display_as_bot": false,
        "username": "<@U0NRZC42H|geraldinestarke>",
        "bot_id": null,
        "ts": "1458823638.000059"
    },
    {
        "type": "message",
        "subtype": "file_share",
        "text": "<@U0NRZC42H|geraldinestarke> uploaded a file: <https://vegoa.slack.com/files/geraldinestarke/F0V6ZPKV0/img_20160323_161309.jpg|Slack for Android Upload> and commented: We made a little stone path to access both sides of the mound",
        "file": {
            "id": "F0V6ZPKV0",
            "created": 1458823681,
            "timestamp": 1458823681,
            "name": "IMG_20160323_161309.jpg",
            "title": "Slack for Android Upload",
            "mimetype": "image/jpeg",
            "filetype": "jpg",
            "pretty_type": "JPEG",
            "user": "U0NRZC42H",
            "editable": false,
            "size": 10544963,
            "mode": "hosted",
            "is_external": false,
            "external_type": "",
            "is_public": true,
            "public_url_shared": false,
            "display_as_bot": false,
            "username": "",
            "url_private": "https://files.slack.com/files-pri/T0LQG2RMF-F0V6ZPKV0/img_20160323_161309.jpg?t=xoxe-20832093729-50596563477-50548041731-f5b777b683",
            "url_private_download": "https://files.slack.com/files-pri/T0LQG2RMF-F0V6ZPKV0/download/img_20160323_161309.jpg?t=xoxe-20832093729-50596563477-50548041731-f5b777b683",
            "thumb_64": "https://files.slack.com/files-tmb/T0LQG2RMF-F0V6ZPKV0-ec90e05692/img_20160323_161309_64.jpg?t=xoxe-20832093729-50596563477-50548041731-f5b777b683",
            "thumb_80": "https://files.slack.com/files-tmb/T0LQG2RMF-F0V6ZPKV0-ec90e05692/img_20160323_161309_80.jpg?t=xoxe-20832093729-50596563477-50548041731-f5b777b683",
            "thumb_360": "https://files.slack.com/files-tmb/T0LQG2RMF-F0V6ZPKV0-ec90e05692/img_20160323_161309_360.jpg?t=xoxe-20832093729-50596563477-50548041731-f5b777b683",
            "thumb_360_w": 270,
            "thumb_360_h": 360,
            "thumb_480": "https://files.slack.com/files-tmb/T0LQG2RMF-F0V6ZPKV0-ec90e05692/img_20160323_161309_480.jpg?t=xoxe-20832093729-50596563477-50548041731-f5b777b683",
            "thumb_480_w": 360,
            "thumb_480_h": 480,
            "thumb_160": "https://files.slack.com/files-tmb/T0LQG2RMF-F0V6ZPKV0-ec90e05692/img_20160323_161309_160.jpg?t=xoxe-20832093729-50596563477-50548041731-f5b777b683",
            "thumb_720": "https://files.slack.com/files-tmb/T0LQG2RMF-F0V6ZPKV0-ec90e05692/img_20160323_161309_720.jpg?t=xoxe-20832093729-50596563477-50548041731-f5b777b683",
            "thumb_720_w": 540,
            "thumb_720_h": 720,
            "thumb_960": "https://files.slack.com/files-tmb/T0LQG2RMF-F0V6ZPKV0-ec90e05692/img_20160323_161309_960.jpg?t=xoxe-20832093729-50596563477-50548041731-f5b777b683",
            "thumb_960_w": 720,
            "thumb_960_h": 960,
            "thumb_1024": "https://files.slack.com/files-tmb/T0LQG2RMF-F0V6ZPKV0-ec90e05692/img_20160323_161309_1024.jpg?t=xoxe-20832093729-50596563477-50548041731-f5b777b683",
            "thumb_1024_w": 768,
            "thumb_1024_h": 1024,
            "image_exif_rotation": 1,
            "original_w": 3456,
            "original_h": 4608,
            "permalink": "https://vegoa.slack.com/files/geraldinestarke/F0V6ZPKV0/img_20160323_161309.jpg",
            "permalink_public": "https://slack-files.com/T0LQG2RMF-F0V6ZPKV0-37e22cce48",
            "channels": [
                "C0TTF6735"
            ],
            "groups": [
    
            ],
            "ims": [
    
            ],
            "comments_count": 1,
            "initial_comment": {
                "id": "Fc0V6FTYBG",
                "created": 1458823681,
                "timestamp": 1458823681,
                "user": "U0NRZC42H",
                "is_intro": true,
                "comment": "We made a little stone path to access both sides of the mound",
                "channel": ""
            }
        },
        "user": "U0NRZC42H",
        "upload": true,
        "display_as_bot": false,
        "username": "<@U0NRZC42H|geraldinestarke>",
        "bot_id": null,
        "ts": "1458823698.000060"
    },
    {
        "type": "message",
        "subtype": "file_share",
        "text": "<@U0NRZC42H|geraldinestarke> uploaded a file: <https://vegoa.slack.com/files/geraldinestarke/F0V6P7U3Z/img_20160323_173256.jpg|Slack for Android Upload> and commented: Then we planted :D",
        "file": {
            "id": "F0V6P7U3Z",
            "created": 1458823747,
            "timestamp": 1458823747,
            "name": "IMG_20160323_173256.jpg",
            "title": "Slack for Android Upload",
            "mimetype": "image/jpeg",
            "filetype": "jpg",
            "pretty_type": "JPEG",
            "user": "U0NRZC42H",
            "editable": false,
            "size": 12380110,
            "mode": "hosted",
            "is_external": false,
            "external_type": "",
            "is_public": true,
            "public_url_shared": false,
            "display_as_bot": false,
            "username": "",
            "url_private": "https://files.slack.com/files-pri/T0LQG2RMF-F0V6P7U3Z/img_20160323_173256.jpg?t=xoxe-20832093729-50596563477-50548041731-f5b777b683",
            "url_private_download": "https://files.slack.com/files-pri/T0LQG2RMF-F0V6P7U3Z/download/img_20160323_173256.jpg?t=xoxe-20832093729-50596563477-50548041731-f5b777b683",
            "thumb_64": "https://files.slack.com/files-tmb/T0LQG2RMF-F0V6P7U3Z-3eaf30eb1c/img_20160323_173256_64.jpg?t=xoxe-20832093729-50596563477-50548041731-f5b777b683",
            "thumb_80": "https://files.slack.com/files-tmb/T0LQG2RMF-F0V6P7U3Z-3eaf30eb1c/img_20160323_173256_80.jpg?t=xoxe-20832093729-50596563477-50548041731-f5b777b683",
            "thumb_360": "https://files.slack.com/files-tmb/T0LQG2RMF-F0V6P7U3Z-3eaf30eb1c/img_20160323_173256_360.jpg?t=xoxe-20832093729-50596563477-50548041731-f5b777b683",
            "thumb_360_w": 360,
            "thumb_360_h": 270,
            "thumb_480": "https://files.slack.com/files-tmb/T0LQG2RMF-F0V6P7U3Z-3eaf30eb1c/img_20160323_173256_480.jpg?t=xoxe-20832093729-50596563477-50548041731-f5b777b683",
            "thumb_480_w": 480,
            "thumb_480_h": 360,
            "thumb_160": "https://files.slack.com/files-tmb/T0LQG2RMF-F0V6P7U3Z-3eaf30eb1c/img_20160323_173256_160.jpg?t=xoxe-20832093729-50596563477-50548041731-f5b777b683",
            "thumb_720": "https://files.slack.com/files-tmb/T0LQG2RMF-F0V6P7U3Z-3eaf30eb1c/img_20160323_173256_720.jpg?t=xoxe-20832093729-50596563477-50548041731-f5b777b683",
            "thumb_720_w": 720,
            "thumb_720_h": 540,
            "thumb_960": "https://files.slack.com/files-tmb/T0LQG2RMF-F0V6P7U3Z-3eaf30eb1c/img_20160323_173256_960.jpg?t=xoxe-20832093729-50596563477-50548041731-f5b777b683",
            "thumb_960_w": 960,
            "thumb_960_h": 720,
            "thumb_1024": "https://files.slack.com/files-tmb/T0LQG2RMF-F0V6P7U3Z-3eaf30eb1c/img_20160323_173256_1024.jpg?t=xoxe-20832093729-50596563477-50548041731-f5b777b683",
            "thumb_1024_w": 1024,
            "thumb_1024_h": 768,
            "image_exif_rotation": 1,
            "original_w": 4608,
            "original_h": 3456,
            "permalink": "https://vegoa.slack.com/files/geraldinestarke/F0V6P7U3Z/img_20160323_173256.jpg",
            "permalink_public": "https://slack-files.com/T0LQG2RMF-F0V6P7U3Z-e0490aec57",
            "channels": [
                "C0TTF6735"
            ],
            "groups": [
    
            ],
            "ims": [
    
            ],
            "comments_count": 1,
            "initial_comment": {
                "id": "Fc0V704F8A",
                "created": 1458823747,
                "timestamp": 1458823747,
                "user": "U0NRZC42H",
                "is_intro": true,
                "comment": "Then we planted :D",
                "channel": ""
            }
        },
        "user": "U0NRZC42H",
        "upload": true,
        "display_as_bot": false,
        "username": "<@U0NRZC42H|geraldinestarke>",
        "bot_id": null,
        "ts": "1458823769.000061"
    },
    {
        "type": "message",
        "subtype": "file_share",
        "text": "<@U0NRZC42H|geraldinestarke> uploaded a file: <https://vegoa.slack.com/files/geraldinestarke/F0V6PGWR5/img_20160323_173245.jpg|Slack for Android Upload>",
        "file": {
            "id": "F0V6PGWR5",
            "created": 1458823820,
            "timestamp": 1458823820,
            "name": "IMG_20160323_173245.jpg",
            "title": "Slack for Android Upload",
            "mimetype": "image/jpeg",
            "filetype": "jpg",
            "pretty_type": "JPEG",
            "user": "U0NRZC42H",
            "editable": false,
            "size": 12874912,
            "mode": "hosted",
            "is_external": false,
            "external_type": "",
            "is_public": true,
            "public_url_shared": false,
            "display_as_bot": false,
            "username": "",
            "url_private": "https://files.slack.com/files-pri/T0LQG2RMF-F0V6PGWR5/img_20160323_173245.jpg?t=xoxe-20832093729-50596563477-50548041731-f5b777b683",
            "url_private_download": "https://files.slack.com/files-pri/T0LQG2RMF-F0V6PGWR5/download/img_20160323_173245.jpg?t=xoxe-20832093729-50596563477-50548041731-f5b777b683",
            "thumb_64": "https://files.slack.com/files-tmb/T0LQG2RMF-F0V6PGWR5-029e9ea6fe/img_20160323_173245_64.jpg?t=xoxe-20832093729-50596563477-50548041731-f5b777b683",
            "thumb_80": "https://files.slack.com/files-tmb/T0LQG2RMF-F0V6PGWR5-029e9ea6fe/img_20160323_173245_80.jpg?t=xoxe-20832093729-50596563477-50548041731-f5b777b683",
            "thumb_360": "https://files.slack.com/files-tmb/T0LQG2RMF-F0V6PGWR5-029e9ea6fe/img_20160323_173245_360.jpg?t=xoxe-20832093729-50596563477-50548041731-f5b777b683",
            "thumb_360_w": 360,
            "thumb_360_h": 270,
            "thumb_480": "https://files.slack.com/files-tmb/T0LQG2RMF-F0V6PGWR5-029e9ea6fe/img_20160323_173245_480.jpg?t=xoxe-20832093729-50596563477-50548041731-f5b777b683",
            "thumb_480_w": 480,
            "thumb_480_h": 360,
            "thumb_160": "https://files.slack.com/files-tmb/T0LQG2RMF-F0V6PGWR5-029e9ea6fe/img_20160323_173245_160.jpg?t=xoxe-20832093729-50596563477-50548041731-f5b777b683",
            "thumb_720": "https://files.slack.com/files-tmb/T0LQG2RMF-F0V6PGWR5-029e9ea6fe/img_20160323_173245_720.jpg?t=xoxe-20832093729-50596563477-50548041731-f5b777b683",
            "thumb_720_w": 720,
            "thumb_720_h": 540,
            "thumb_960": "https://files.slack.com/files-tmb/T0LQG2RMF-F0V6PGWR5-029e9ea6fe/img_20160323_173245_960.jpg?t=xoxe-20832093729-50596563477-50548041731-f5b777b683",
            "thumb_960_w": 960,
            "thumb_960_h": 720,
            "thumb_1024": "https://files.slack.com/files-tmb/T0LQG2RMF-F0V6PGWR5-029e9ea6fe/img_20160323_173245_1024.jpg?t=xoxe-20832093729-50596563477-50548041731-f5b777b683",
            "thumb_1024_w": 1024,
            "thumb_1024_h": 768,
            "image_exif_rotation": 1,
            "original_w": 4608,
            "original_h": 3456,
            "permalink": "https://vegoa.slack.com/files/geraldinestarke/F0V6PGWR5/img_20160323_173245.jpg",
            "permalink_public": "https://slack-files.com/T0LQG2RMF-F0V6PGWR5-9a827e75b8",
            "channels": [
                "C0TTF6735"
            ],
            "groups": [
    
            ],
            "ims": [
    
            ],
            "comments_count": 0
        },
        "user": "U0NRZC42H",
        "upload": true,
        "display_as_bot": false,
        "username": "<@U0NRZC42H|geraldinestarke>",
        "bot_id": null,
        "ts": "1458823830.000062"
    },
    {
        "type": "message",
        "subtype": "file_share",
        "text": "<@U0NRZC42H|geraldinestarke> uploaded a file: <https://vegoa.slack.com/files/geraldinestarke/F0V6Q4QSZ/img_20160323_173006.jpg|Slack for Android Upload> and commented: Cucumbers",
        "file": {
            "id": "F0V6Q4QSZ",
            "created": 1458823885,
            "timestamp": 1458823885,
            "name": "IMG_20160323_173006.jpg",
            "title": "Slack for Android Upload",
            "mimetype": "image/jpeg",
            "filetype": "jpg",
            "pretty_type": "JPEG",
            "user": "U0NRZC42H",
            "editable": false,
            "size": 13842620,
            "mode": "hosted",
            "is_external": false,
            "external_type": "",
            "is_public": true,
            "public_url_shared": false,
            "display_as_bot": false,
            "username": "",
            "url_private": "https://files.slack.com/files-pri/T0LQG2RMF-F0V6Q4QSZ/img_20160323_173006.jpg?t=xoxe-20832093729-50596563477-50548041731-f5b777b683",
            "url_private_download": "https://files.slack.com/files-pri/T0LQG2RMF-F0V6Q4QSZ/download/img_20160323_173006.jpg?t=xoxe-20832093729-50596563477-50548041731-f5b777b683",
            "thumb_64": "https://files.slack.com/files-tmb/T0LQG2RMF-F0V6Q4QSZ-7ade388111/img_20160323_173006_64.jpg?t=xoxe-20832093729-50596563477-50548041731-f5b777b683",
            "thumb_80": "https://files.slack.com/files-tmb/T0LQG2RMF-F0V6Q4QSZ-7ade388111/img_20160323_173006_80.jpg?t=xoxe-20832093729-50596563477-50548041731-f5b777b683",
            "thumb_360": "https://files.slack.com/files-tmb/T0LQG2RMF-F0V6Q4QSZ-7ade388111/img_20160323_173006_360.jpg?t=xoxe-20832093729-50596563477-50548041731-f5b777b683",
            "thumb_360_w": 360,
            "thumb_360_h": 270,
            "thumb_480": "https://files.slack.com/files-tmb/T0LQG2RMF-F0V6Q4QSZ-7ade388111/img_20160323_173006_480.jpg?t=xoxe-20832093729-50596563477-50548041731-f5b777b683",
            "thumb_480_w": 480,
            "thumb_480_h": 360,
            "thumb_160": "https://files.slack.com/files-tmb/T0LQG2RMF-F0V6Q4QSZ-7ade388111/img_20160323_173006_160.jpg?t=xoxe-20832093729-50596563477-50548041731-f5b777b683",
            "thumb_720": "https://files.slack.com/files-tmb/T0LQG2RMF-F0V6Q4QSZ-7ade388111/img_20160323_173006_720.jpg?t=xoxe-20832093729-50596563477-50548041731-f5b777b683",
            "thumb_720_w": 720,
            "thumb_720_h": 540,
            "thumb_960": "https://files.slack.com/files-tmb/T0LQG2RMF-F0V6Q4QSZ-7ade388111/img_20160323_173006_960.jpg?t=xoxe-20832093729-50596563477-50548041731-f5b777b683",
            "thumb_960_w": 960,
            "thumb_960_h": 720,
            "thumb_1024": "https://files.slack.com/files-tmb/T0LQG2RMF-F0V6Q4QSZ-7ade388111/img_20160323_173006_1024.jpg?t=xoxe-20832093729-50596563477-50548041731-f5b777b683",
            "thumb_1024_w": 1024,
            "thumb_1024_h": 768,
            "image_exif_rotation": 1,
            "original_w": 4608,
            "original_h": 3456,
            "permalink": "https://vegoa.slack.com/files/geraldinestarke/F0V6Q4QSZ/img_20160323_173006.jpg",
            "permalink_public": "https://slack-files.com/T0LQG2RMF-F0V6Q4QSZ-5365041b78",
            "channels": [
                "C0TTF6735"
            ],
            "groups": [
    
            ],
            "ims": [
    
            ],
            "comments_count": 1,
            "initial_comment": {
                "id": "Fc0V6PQRQX",
                "created": 1458823885,
                "timestamp": 1458823885,
                "user": "U0NRZC42H",
                "is_intro": true,
                "comment": "Cucumbers",
                "channel": ""
            }
        },
        "user": "U0NRZC42H",
        "upload": true,
        "display_as_bot": false,
        "username": "<@U0NRZC42H|geraldinestarke>",
        "bot_id": null,
        "ts": "1458823897.000063"
    },
    {
        "type": "message",
        "subtype": "file_share",
        "text": "<@U0NRZC42H|geraldinestarke> uploaded a file: <https://vegoa.slack.com/files/geraldinestarke/F0V586SPM/img_20160323_173049.jpg|Slack for Android Upload> and commented: Cherry tomatoes",
        "file": {
            "id": "F0V586SPM",
            "created": 1458823951,
            "timestamp": 1458823951,
            "name": "IMG_20160323_173049.jpg",
            "title": "Slack for Android Upload",
            "mimetype": "image/jpeg",
            "filetype": "jpg",
            "pretty_type": "JPEG",
            "user": "U0NRZC42H",
            "editable": false,
            "size": 13841892,
            "mode": "hosted",
            "is_external": false,
            "external_type": "",
            "is_public": true,
            "public_url_shared": false,
            "display_as_bot": false,
            "username": "",
            "url_private": "https://files.slack.com/files-pri/T0LQG2RMF-F0V586SPM/img_20160323_173049.jpg?t=xoxe-20832093729-50596563477-50548041731-f5b777b683",
            "url_private_download": "https://files.slack.com/files-pri/T0LQG2RMF-F0V586SPM/download/img_20160323_173049.jpg?t=xoxe-20832093729-50596563477-50548041731-f5b777b683",
            "thumb_64": "https://files.slack.com/files-tmb/T0LQG2RMF-F0V586SPM-1e7cfc3676/img_20160323_173049_64.jpg?t=xoxe-20832093729-50596563477-50548041731-f5b777b683",
            "thumb_80": "https://files.slack.com/files-tmb/T0LQG2RMF-F0V586SPM-1e7cfc3676/img_20160323_173049_80.jpg?t=xoxe-20832093729-50596563477-50548041731-f5b777b683",
            "thumb_360": "https://files.slack.com/files-tmb/T0LQG2RMF-F0V586SPM-1e7cfc3676/img_20160323_173049_360.jpg?t=xoxe-20832093729-50596563477-50548041731-f5b777b683",
            "thumb_360_w": 360,
            "thumb_360_h": 270,
            "thumb_480": "https://files.slack.com/files-tmb/T0LQG2RMF-F0V586SPM-1e7cfc3676/img_20160323_173049_480.jpg?t=xoxe-20832093729-50596563477-50548041731-f5b777b683",
            "thumb_480_w": 480,
            "thumb_480_h": 360,
            "thumb_160": "https://files.slack.com/files-tmb/T0LQG2RMF-F0V586SPM-1e7cfc3676/img_20160323_173049_160.jpg?t=xoxe-20832093729-50596563477-50548041731-f5b777b683",
            "thumb_720": "https://files.slack.com/files-tmb/T0LQG2RMF-F0V586SPM-1e7cfc3676/img_20160323_173049_720.jpg?t=xoxe-20832093729-50596563477-50548041731-f5b777b683",
            "thumb_720_w": 720,
            "thumb_720_h": 540,
            "thumb_960": "https://files.slack.com/files-tmb/T0LQG2RMF-F0V586SPM-1e7cfc3676/img_20160323_173049_960.jpg?t=xoxe-20832093729-50596563477-50548041731-f5b777b683",
            "thumb_960_w": 960,
            "thumb_960_h": 720,
            "thumb_1024": "https://files.slack.com/files-tmb/T0LQG2RMF-F0V586SPM-1e7cfc3676/img_20160323_173049_1024.jpg?t=xoxe-20832093729-50596563477-50548041731-f5b777b683",
            "thumb_1024_w": 1024,
            "thumb_1024_h": 768,
            "image_exif_rotation": 1,
            "original_w": 4608,
            "original_h": 3456,
            "permalink": "https://vegoa.slack.com/files/geraldinestarke/F0V586SPM/img_20160323_173049.jpg",
            "permalink_public": "https://slack-files.com/T0LQG2RMF-F0V586SPM-c717fbe590",
            "channels": [
                "C0TTF6735"
            ],
            "groups": [
    
            ],
            "ims": [
    
            ],
            "comments_count": 1,
            "initial_comment": {
                "id": "Fc0V6V0JM7",
                "created": 1458823951,
                "timestamp": 1458823951,
                "user": "U0NRZC42H",
                "is_intro": true,
                "comment": "Cherry tomatoes",
                "channel": ""
            }
        },
        "user": "U0NRZC42H",
        "upload": true,
        "display_as_bot": false,
        "username": "<@U0NRZC42H|geraldinestarke>",
        "bot_id": null,
        "ts": "1458823969.000064"
    },
    {
        "type": "message",
        "subtype": "file_share",
        "text": "<@U0NRZC42H|geraldinestarke> uploaded a file: <https://vegoa.slack.com/files/geraldinestarke/F0V6QK7RB/img_20160323_172813.jpg|Slack for Android Upload> and commented: Strawberries",
        "file": {
            "id": "F0V6QK7RB",
            "created": 1458824020,
            "timestamp": 1458824020,
            "name": "IMG_20160323_172813.jpg",
            "title": "Slack for Android Upload",
            "mimetype": "image/jpeg",
            "filetype": "jpg",
            "pretty_type": "JPEG",
            "user": "U0NRZC42H",
            "editable": false,
            "size": 12539475,
            "mode": "hosted",
            "is_external": false,
            "external_type": "",
            "is_public": true,
            "public_url_shared": false,
            "display_as_bot": false,
            "username": "",
            "url_private": "https://files.slack.com/files-pri/T0LQG2RMF-F0V6QK7RB/img_20160323_172813.jpg?t=xoxe-20832093729-50596563477-50548041731-f5b777b683",
            "url_private_download": "https://files.slack.com/files-pri/T0LQG2RMF-F0V6QK7RB/download/img_20160323_172813.jpg?t=xoxe-20832093729-50596563477-50548041731-f5b777b683",
            "thumb_64": "https://files.slack.com/files-tmb/T0LQG2RMF-F0V6QK7RB-76273bec48/img_20160323_172813_64.jpg?t=xoxe-20832093729-50596563477-50548041731-f5b777b683",
            "thumb_80": "https://files.slack.com/files-tmb/T0LQG2RMF-F0V6QK7RB-76273bec48/img_20160323_172813_80.jpg?t=xoxe-20832093729-50596563477-50548041731-f5b777b683",
            "thumb_360": "https://files.slack.com/files-tmb/T0LQG2RMF-F0V6QK7RB-76273bec48/img_20160323_172813_360.jpg?t=xoxe-20832093729-50596563477-50548041731-f5b777b683",
            "thumb_360_w": 360,
            "thumb_360_h": 270,
            "thumb_480": "https://files.slack.com/files-tmb/T0LQG2RMF-F0V6QK7RB-76273bec48/img_20160323_172813_480.jpg?t=xoxe-20832093729-50596563477-50548041731-f5b777b683",
            "thumb_480_w": 480,
            "thumb_480_h": 360,
            "thumb_160": "https://files.slack.com/files-tmb/T0LQG2RMF-F0V6QK7RB-76273bec48/img_20160323_172813_160.jpg?t=xoxe-20832093729-50596563477-50548041731-f5b777b683",
            "thumb_720": "https://files.slack.com/files-tmb/T0LQG2RMF-F0V6QK7RB-76273bec48/img_20160323_172813_720.jpg?t=xoxe-20832093729-50596563477-50548041731-f5b777b683",
            "thumb_720_w": 720,
            "thumb_720_h": 540,
            "thumb_960": "https://files.slack.com/files-tmb/T0LQG2RMF-F0V6QK7RB-76273bec48/img_20160323_172813_960.jpg?t=xoxe-20832093729-50596563477-50548041731-f5b777b683",
            "thumb_960_w": 960,
            "thumb_960_h": 720,
            "thumb_1024": "https://files.slack.com/files-tmb/T0LQG2RMF-F0V6QK7RB-76273bec48/img_20160323_172813_1024.jpg?t=xoxe-20832093729-50596563477-50548041731-f5b777b683",
            "thumb_1024_w": 1024,
            "thumb_1024_h": 768,
            "image_exif_rotation": 1,
            "original_w": 4608,
            "original_h": 3456,
            "permalink": "https://vegoa.slack.com/files/geraldinestarke/F0V6QK7RB/img_20160323_172813.jpg",
            "permalink_public": "https://slack-files.com/T0LQG2RMF-F0V6QK7RB-6ed036d378",
            "channels": [
                "C0TTF6735"
            ],
            "groups": [
    
            ],
            "ims": [
    
            ],
            "comments_count": 1,
            "initial_comment": {
                "id": "Fc0V6Q9HEK",
                "created": 1458824020,
                "timestamp": 1458824020,
                "user": "U0NRZC42H",
                "is_intro": true,
                "comment": "Strawberries",
                "channel": ""
            }
        },
        "user": "U0NRZC42H",
        "upload": true,
        "display_as_bot": false,
        "username": "<@U0NRZC42H|geraldinestarke>",
        "bot_id": null,
        "ts": "1458824030.000065"
    },
    {
        "type": "message",
        "user": "U0NRZC42H",
        "text": "The plants just survived their first night :)",
        "ts": "1458824092.000066"
    },
    {
        "type": "message",
        "user": "U0NRZC42H",
        "text": "This morning we put the fence",
        "ts": "1458824104.000067"
    },
    {
        "type": "message",
        "subtype": "file_share",
        "text": "<@U0NRZC42H|geraldinestarke> uploaded a file: <https://vegoa.slack.com/files/geraldinestarke/F0V71L02E/img_20160324_121635.jpg|Slack for Android Upload>",
        "file": {
            "id": "F0V71L02E",
            "created": 1458824173,
            "timestamp": 1458824173,
            "name": "IMG_20160324_121635.jpg",
            "title": "Slack for Android Upload",
            "mimetype": "image/jpeg",
            "filetype": "jpg",
            "pretty_type": "JPEG",
            "user": "U0NRZC42H",
            "editable": false,
            "size": 13476132,
            "mode": "hosted",
            "is_external": false,
            "external_type": "",
            "is_public": true,
            "public_url_shared": false,
            "display_as_bot": false,
            "username": "",
            "url_private": "https://files.slack.com/files-pri/T0LQG2RMF-F0V71L02E/img_20160324_121635.jpg?t=xoxe-20832093729-50596563477-50548041731-f5b777b683",
            "url_private_download": "https://files.slack.com/files-pri/T0LQG2RMF-F0V71L02E/download/img_20160324_121635.jpg?t=xoxe-20832093729-50596563477-50548041731-f5b777b683",
            "thumb_64": "https://files.slack.com/files-tmb/T0LQG2RMF-F0V71L02E-a4b8996820/img_20160324_121635_64.jpg?t=xoxe-20832093729-50596563477-50548041731-f5b777b683",
            "thumb_80": "https://files.slack.com/files-tmb/T0LQG2RMF-F0V71L02E-a4b8996820/img_20160324_121635_80.jpg?t=xoxe-20832093729-50596563477-50548041731-f5b777b683",
            "thumb_360": "https://files.slack.com/files-tmb/T0LQG2RMF-F0V71L02E-a4b8996820/img_20160324_121635_360.jpg?t=xoxe-20832093729-50596563477-50548041731-f5b777b683",
            "thumb_360_w": 360,
            "thumb_360_h": 270,
            "thumb_480": "https://files.slack.com/files-tmb/T0LQG2RMF-F0V71L02E-a4b8996820/img_20160324_121635_480.jpg?t=xoxe-20832093729-50596563477-50548041731-f5b777b683",
            "thumb_480_w": 480,
            "thumb_480_h": 360,
            "thumb_160": "https://files.slack.com/files-tmb/T0LQG2RMF-F0V71L02E-a4b8996820/img_20160324_121635_160.jpg?t=xoxe-20832093729-50596563477-50548041731-f5b777b683",
            "thumb_720": "https://files.slack.com/files-tmb/T0LQG2RMF-F0V71L02E-a4b8996820/img_20160324_121635_720.jpg?t=xoxe-20832093729-50596563477-50548041731-f5b777b683",
            "thumb_720_w": 720,
            "thumb_720_h": 540,
            "thumb_960": "https://files.slack.com/files-tmb/T0LQG2RMF-F0V71L02E-a4b8996820/img_20160324_121635_960.jpg?t=xoxe-20832093729-50596563477-50548041731-f5b777b683",
            "thumb_960_w": 960,
            "thumb_960_h": 720,
            "thumb_1024": "https://files.slack.com/files-tmb/T0LQG2RMF-F0V71L02E-a4b8996820/img_20160324_121635_1024.jpg?t=xoxe-20832093729-50596563477-50548041731-f5b777b683",
            "thumb_1024_w": 1024,
            "thumb_1024_h": 768,
            "image_exif_rotation": 1,
            "original_w": 4608,
            "original_h": 3456,
            "permalink": "https://vegoa.slack.com/files/geraldinestarke/F0V71L02E/img_20160324_121635.jpg",
            "permalink_public": "https://slack-files.com/T0LQG2RMF-F0V71L02E-fad410f9a3",
            "channels": [
                "C0TTF6735"
            ],
            "groups": [
    
            ],
            "ims": [
    
            ],
            "comments_count": 0,
            "reactions": [
                {
                    "name": "+1",
                    "users": [
                        "U0NS3HEGL"
                    ],
                    "count": 1
                }
            ]
        },
        "user": "U0NRZC42H",
        "upload": true,
        "display_as_bot": false,
        "username": "<@U0NRZC42H|geraldinestarke>",
        "bot_id": null,
        "ts": "1458824185.000068"
    },
    {
        "type": "message",
        "subtype": "file_share",
        "text": "<@U0NRZC42H|geraldinestarke> uploaded a file: <https://vegoa.slack.com/files/geraldinestarke/F0V5BLADR/img_20160324_121700.jpg|Slack for Android Upload> and commented: The strawberries today looking beautiful after this sunny morning :)",
        "file": {
            "id": "F0V5BLADR",
            "created": 1458824815,
            "timestamp": 1458824815,
            "name": "IMG_20160324_121700.jpg",
            "title": "Slack for Android Upload",
            "mimetype": "image/jpeg",
            "filetype": "jpg",
            "pretty_type": "JPEG",
            "user": "U0NRZC42H",
            "editable": false,
            "size": 11626725,
            "mode": "hosted",
            "is_external": false,
            "external_type": "",
            "is_public": true,
            "public_url_shared": false,
            "display_as_bot": false,
            "username": "",
            "url_private": "https://files.slack.com/files-pri/T0LQG2RMF-F0V5BLADR/img_20160324_121700.jpg?t=xoxe-20832093729-50596563477-50548041731-f5b777b683",
            "url_private_download": "https://files.slack.com/files-pri/T0LQG2RMF-F0V5BLADR/download/img_20160324_121700.jpg?t=xoxe-20832093729-50596563477-50548041731-f5b777b683",
            "thumb_64": "https://files.slack.com/files-tmb/T0LQG2RMF-F0V5BLADR-2fd31c7ef8/img_20160324_121700_64.jpg?t=xoxe-20832093729-50596563477-50548041731-f5b777b683",
            "thumb_80": "https://files.slack.com/files-tmb/T0LQG2RMF-F0V5BLADR-2fd31c7ef8/img_20160324_121700_80.jpg?t=xoxe-20832093729-50596563477-50548041731-f5b777b683",
            "thumb_360": "https://files.slack.com/files-tmb/T0LQG2RMF-F0V5BLADR-2fd31c7ef8/img_20160324_121700_360.jpg?t=xoxe-20832093729-50596563477-50548041731-f5b777b683",
            "thumb_360_w": 360,
            "thumb_360_h": 270,
            "thumb_480": "https://files.slack.com/files-tmb/T0LQG2RMF-F0V5BLADR-2fd31c7ef8/img_20160324_121700_480.jpg?t=xoxe-20832093729-50596563477-50548041731-f5b777b683",
            "thumb_480_w": 480,
            "thumb_480_h": 360,
            "thumb_160": "https://files.slack.com/files-tmb/T0LQG2RMF-F0V5BLADR-2fd31c7ef8/img_20160324_121700_160.jpg?t=xoxe-20832093729-50596563477-50548041731-f5b777b683",
            "thumb_720": "https://files.slack.com/files-tmb/T0LQG2RMF-F0V5BLADR-2fd31c7ef8/img_20160324_121700_720.jpg?t=xoxe-20832093729-50596563477-50548041731-f5b777b683",
            "thumb_720_w": 720,
            "thumb_720_h": 540,
            "thumb_960": "https://files.slack.com/files-tmb/T0LQG2RMF-F0V5BLADR-2fd31c7ef8/img_20160324_121700_960.jpg?t=xoxe-20832093729-50596563477-50548041731-f5b777b683",
            "thumb_960_w": 960,
            "thumb_960_h": 720,
            "thumb_1024": "https://files.slack.com/files-tmb/T0LQG2RMF-F0V5BLADR-2fd31c7ef8/img_20160324_121700_1024.jpg?t=xoxe-20832093729-50596563477-50548041731-f5b777b683",
            "thumb_1024_w": 1024,
            "thumb_1024_h": 768,
            "image_exif_rotation": 1,
            "original_w": 4608,
            "original_h": 3456,
            "permalink": "https://vegoa.slack.com/files/geraldinestarke/F0V5BLADR/img_20160324_121700.jpg",
            "permalink_public": "https://slack-files.com/T0LQG2RMF-F0V5BLADR-7f4fda8103",
            "channels": [
                "C0TTF6735"
            ],
            "groups": [
    
            ],
            "ims": [
    
            ],
            "comments_count": 1,
            "initial_comment": {
                "id": "Fc0V6YDSV7",
                "created": 1458824815,
                "timestamp": 1458824815,
                "user": "U0NRZC42H",
                "is_intro": true,
                "comment": "The strawberries today looking beautiful after this sunny morning :)",
                "channel": ""
            },
            "reactions": [
                {
                    "name": "+1",
                    "users": [
                        "U0RLUAGQM"
                    ],
                    "count": 1
                }
            ]
        },
        "user": "U0NRZC42H",
        "upload": true,
        "display_as_bot": false,
        "username": "<@U0NRZC42H|geraldinestarke>",
        "bot_id": null,
        "ts": "1458824826.000070"
    },
    {
        "type": "message",
        "user": "U0RCKAPAT",
        "text": "Well done. I hope there are still a few left at the end of April :stuck_out_tongue_winking_eye: ",
        "ts": "1458825549.000071",
        "reactions": [
            {
                "name": "joy",
                "users": [
                    "U0NS3HEGL",
                    "U0NRZC42H"
                ],
                "count": 2
            }
        ]
    },
    {
        "type": "message",
        "user": "U0QJ6TY92",
        "text": "very good!!! :heart: if u need info on how to combine different veggies in a mini-plot let me know",
        "ts": "1458835014.000072",
        "reactions": [
            {
                "name": "+1",
                "users": [
                    "U0NS3HEGL"
                ],
                "count": 1
            }
        ]
    },
    {
        "type": "message",
        "user": "U0NS3HEGL",
        "text": "<@U0QJ6TY92>: sure we are open to any advice it's quite new for us :stuck_out_tongue:",
        "ts": "1458836589.000073"
    },
    {
        "type": "message",
        "user": "U0NS3HEGL",
        "text": "thanks :wink:",
        "ts": "1458836593.000074"
    },
    {
        "type": "message",
        "user": "U0QJ6TY92",
        "text": ":simple_smile: here a nice good companion/bad companion table <http://deepgreenpermaculture.com/companion-planting/companion-planting-table/>",
        "attachments": [
            {
                "service_name": "Deep Green Permaculture",
                "service_url": "http://deepgreenpermaculture.com",
                "title": "Companion Planting Table",
                "title_link": "http://deepgreenpermaculture.com/companion-planting/companion-planting-table/",
                "author_name": "Angelo (admin)",
                "author_link": "https://deepgreenpermaculture.com/author/mysticrealm/",
                "text": "\u00a0\nGood Companions\nBad Companions\n\n\nApples\nChives, Horsetail (Equisetum), Foxgloves, Wallflowers         Nasturtiums, Garlic, Onions\nGrass, Potatoes\n\n\nApricots\nBasil, Tansy, Southernwood\nTomatoes, Sage\n\n\nAsparagus\nTomatoes, Parsley, Basil\n\u00a0\n\n\nBasil\nTomatoes, Asparagus, Parsley, Apricots\n\u00a0\n\n\nBeans\nCarrots. Cucumbers, Cabbages, Lettuce, Peas, Parsley         Cauliflower, Spinach, Summer Savory\nOnions, Garlic, Fennel, Gladioli, Sunflowers, Kohlrabi\n\n\nBeans, broad\nPotatoes, Sweetcorn\n\u00a0\n\n\nBeans. Dwarf\nBeetroot, Potatoes\n\u00a0\n\n\nBeetroot\nOnions, Silverbeet, Kohlrabi, Lettuce, Cabbage         Dwarf Beans\nTall beans\n\n\nBorage\nStrawberries\n\u00a0\n\n\nBrussels Sprouts\nNasturtiums\n\u00a0\n\n\nBroccoli\n\u00a0\nStrawberries\n\n\nCabbages\nBeans, Beetroot. Celery, Mint, Thyme, Sage, Onions         Rosemary, Dill, Potatoes, Chamomile, Oregano          Hyssop, Southernwood, Nasturtiums, Tansy, Coriander\nRue, Strawberries, Tomatoes, Garlic\n\n\nCarrots\nPeas, Radishes. Lettuce, Chives, Sage, Onions, Leeks\n\u00a0\n\n\nCarnations\n\u00a0\nHyacinths\n\n\nCauliflowers\nCelery. Beans, Tansy, Nasturtiums\nStrawberries\n\n\nCelery\nTomatoes, Dill. Beans, Leeks, Cabbage, Cauliflowers\n\u00a0\n\n\nChamomile\nMint, Cabbages, Onions\n\u00a0\n\n\nChervil\nDill, Coriander, Radish\n\u00a0\n\n\nChives\nParsley, Apples, Carrots, Tomatoes\n\u00a0\n\n\nCitrus\nGuava\n\u00a0\n\n\nCoriander\nDill, Chervil, Anise, Cabbages, Carrots\nFennel\n\n\nCucumbers\nPotatoes (early crop only), Beans, Celery, Lettuce         Sweet Corn, Savoy Cabbages, Sunflowers, Nasturtiums\n\u00a0\n\n\nDill*\nCarrots, Tomatoes, Cabbage, Fennel, Coriander\n\u00a0\n\n\nFennel\nDill, Coriander\nBeans, Tomatoes, Kohlrabi, Coriander, Wormwood\n\n\nFoxgloves\nApples, Potatoes, Tomatoes\n\u00a0\n\n\nFuchsias\nBasil, Gooseberries, Tomatoes\n\u00a0\n\n\nGarlic\nRoses, Apples, Peaches\nPeas, Beans, Cabbages, Strawberries\n\n\nGeraniums\nGrapevines\n\u00a0\n\n\nGladioli\n\u00a0\nStrawberries, Beans, Peas\n\n\nGrapevines\nGeraniums, Mulberries, Hyssop, Basil, Tansy\n\u00a0\n\n\nGuava\nCitrus\n\u00a0\n\n\nHorseradish\nFruit trees, Potatoes\n\u00a0\n\n\nHyacinth\n\u00a0\nCarnations\n\n\nHyssop\nGrapevines, Cabbages\nRadishes\n\n\nKohlrabi\nBeetroot, Onions\nTomatoes, Beans, Fennel\n\n\nLeeks\nCarrots, Celery\n\u00a0\n\n\nLettuce\nCarrots, Onions, Strawberries, Beetroot, Cabbages         Radishes, Marigolds\n\u00a0\n\n\nMarigolds\nLettuce, Potatoes, Tomatoes, Roses, Beans\n\u00a0\n\n\nMelons\nSweet Corn\n\u00a0\n\n\nMint\nCabbages, Chamomile\nParsley\n\n\nNasturtiums\nApples, Cabbages, Cauliflowers, Broccoli         Brussels Sprouts, Kohlrabi, Turnips, Radishes          Cucumbers, Zucchini\n\u00a0\n\n\nOnions\nCarrots, Beetroot, Silverbeet, Lettuce, Chamomile         Kohlrabi, Summer Savory\n\u00a0\n\n\nOregano\nCabbages\n\u00a0\n\n\nParsley\nTomatoes, Asparagus, Roses, Chives\n\u00a0\n\n\nParsnips\nPeas, Potatoes, Peppers, Beans, Radishes, Garlic\nCarrots, Celery, Caraway\n\n\nPeaches\nTansy, Garlic, Basil, Southernwood\n\u00a0\n\n\nPears\n\u00a0\nGrass\n\n\nPeas\nPotatoes, Radishes, Carrots, Turnips\nOnions, Shallots, Garlic, Gladioli\n\n\nPotatoes\nPeas, Beans, Cabbage, Sweetcorn, Broad Beans         Green Beans, Nasturtiums, Marigolds, Foxgloves          Horse Radish, Egg Plant\nApples, Cherries, Cucumbers (with any but early crops)         Pumpkins, Sunflowers, Tomatoes, Raspberries, Rosemary\n\n\nPumpkins\nSweetcorn\nPotatoes\n\n\nRadishes\nLettuces, Peas, Chervil, Nasturtiums\nHyssop\n\n\nRaspberries\nTansy\nBlackberries, Potatoes\n\n\n\u00a0\n\u00a0\nPotatoes\n\n\nRoses\nGarlic, Parsley, Onions, Mignonette, Marigolds\n\u00a0\n\n\nRue\n\u00a0\nSage, Basil\n\n\nSage\nCarrots, Cabbages, Strawberries\nBasil, Rue, Wormwood\n\n\nSavory\nBeans, Onions\n\u00a0\n\n\nSilverbeet\nOnions, Beetroot, Lavender\n\u00a0\n\n\nSpinach\nStrawberries\n\u00a0\n\n\nSquash\nSunflowers\n\u00a0\n\n\nStrawberries\nBorage, Lettuce, Spinach, Sage, Pyrethrum\nCabbages, Cauliflowers, Brussels Sprouts         Gladioli, Tomatoes, Broccoli, Garlic\n\n\nSunflowers\nSquash, Cucumber\nPotatoes\n\n\nSweetcorn\nBroad Beans, Potatoes, Melons, Tomatoes         Cucumber, Squash, Tansy\n\u00a0\n\n\nTansy\nCabbage, Roses, Raspberries, Grapes, Peaches\n\u00a0\n\n\nThyme\nCabbage family\n\u00a0\n\n\nTomatoes\nAsparagus, Celery, Parsley, Basil, Carrots, Chives         Marigolds, Foxgloves, Garlic, Sweetcorn\nRosemary, Potatoes, Kohlrabi, Fennel         Apricots, Strawberries, Dill*\n\n\nTurnips\nNasturtiums, Peas\n\u00a0\n\n\nWallflowers\nApples\n\u00a0\n\n\nWormwood\n\u00a0\nAll other plants\n\n\nZucchini\nNasturtiums\n\u00a0\n\n\n\n* Dill is a beneficial companion plant to tomatoes when it is young, mature dill plants can suppress growth of tomatoes though.\nSource: Companion Planting in Australia \u2013 Brenda Little    \u00a0  See the Companion Planting article describing companion planting and how it work here",
                "fallback": "Deep Green Permaculture Link: Companion Planting Table",
                "from_url": "http://deepgreenpermaculture.com/companion-planting/companion-planting-table/",
                "id": 1
            }
        ],
        "ts": "1458836754.000075"
    },
    {
        "type": "message",
        "user": "U0NS3HEGL",
        "text": "that's amazing it's exactly what we were looking for :+1:",
        "ts": "1458836872.000077"
    },
    {
        "type": "message",
        "user": "U0QJ6TY92",
        "text": "what i v learnt so far for miniplots (garden-like) is to plant in \"circle\"&gt;: outside circle : onions, garlic, leeks, lettuces -, inner circle beetroots, minicabbages, carrots; centre of the circle: aromatic herbs such  as rocket, parsley, cilantro",
        "ts": "1458836905.000078"
    },
    {
        "type": "message",
        "user": "U0QJ6TY92",
        "text": "enjoy :heart:",
        "ts": "1458836911.000079"
    },
    {
        "type": "message",
        "user": "U0NS3HEGL",
        "text": "that's cool, do you have any drawing that shows how this circle looks like ?",
        "ts": "1458837040.000080"
    },
    {
        "type": "message",
        "user": "U0QJ6TY92",
        "text": "ah, and then separately in the viciniy flowers for the bees such as calendula, \"capucine\" (which are also edible)",
        "ts": "1458837067.000081"
    },
    {
        "type": "message",
        "user": "U0QJ6TY92",
        "text": "let me check pix i took at the finca in tenerife...",
        "ts": "1458837082.000082"
    },
    {
        "type": "message",
        "user": "U0NS3HEGL",
        "text": "right I\u00a0saw the honey plants are very important mixed up with the other edible plants and some honey plants are also edible: <https://en.wikipedia.org/wiki/List_of_honey_plants>",
        "ts": "1458837233.000083"
    },
    {
        "type": "message",
        "subtype": "file_share",
        "text": "<@U0QJ6TY92|simonavinati> uploaded a file: <https://vegoa.slack.com/files/simonavinati/F0V8YF65N/dsc_2976.jpg|DSC_2976.JPG> and commented: what u see in the inner circle basically :simple_smile:  a crowded happy family",
        "file": {
            "id": "F0V8YF65N",
            "created": 1458837303,
            "timestamp": 1458837303,
            "name": "DSC_2976.JPG",
            "title": "DSC_2976.JPG",
            "mimetype": "image/jpeg",
            "filetype": "jpg",
            "pretty_type": "JPEG",
            "user": "U0QJ6TY92",
            "editable": false,
            "size": 4965677,
            "mode": "hosted",
            "is_external": false,
            "external_type": "",
            "is_public": true,
            "public_url_shared": false,
            "display_as_bot": false,
            "username": "",
            "url_private": "https://files.slack.com/files-pri/T0LQG2RMF-F0V8YF65N/dsc_2976.jpg?t=xoxe-20832093729-50596563477-50548041731-f5b777b683",
            "url_private_download": "https://files.slack.com/files-pri/T0LQG2RMF-F0V8YF65N/download/dsc_2976.jpg?t=xoxe-20832093729-50596563477-50548041731-f5b777b683",
            "thumb_64": "https://files.slack.com/files-tmb/T0LQG2RMF-F0V8YF65N-e37c0c408e/dsc_2976_64.jpg?t=xoxe-20832093729-50596563477-50548041731-f5b777b683",
            "thumb_80": "https://files.slack.com/files-tmb/T0LQG2RMF-F0V8YF65N-e37c0c408e/dsc_2976_80.jpg?t=xoxe-20832093729-50596563477-50548041731-f5b777b683",
            "thumb_360": "https://files.slack.com/files-tmb/T0LQG2RMF-F0V8YF65N-e37c0c408e/dsc_2976_360.jpg?t=xoxe-20832093729-50596563477-50548041731-f5b777b683",
            "thumb_360_w": 360,
            "thumb_360_h": 203,
            "thumb_480": "https://files.slack.com/files-tmb/T0LQG2RMF-F0V8YF65N-e37c0c408e/dsc_2976_480.jpg?t=xoxe-20832093729-50596563477-50548041731-f5b777b683",
            "thumb_480_w": 480,
            "thumb_480_h": 270,
            "thumb_160": "https://files.slack.com/files-tmb/T0LQG2RMF-F0V8YF65N-e37c0c408e/dsc_2976_160.jpg?t=xoxe-20832093729-50596563477-50548041731-f5b777b683",
            "thumb_720": "https://files.slack.com/files-tmb/T0LQG2RMF-F0V8YF65N-e37c0c408e/dsc_2976_720.jpg?t=xoxe-20832093729-50596563477-50548041731-f5b777b683",
            "thumb_720_w": 720,
            "thumb_720_h": 405,
            "thumb_960": "https://files.slack.com/files-tmb/T0LQG2RMF-F0V8YF65N-e37c0c408e/dsc_2976_960.jpg?t=xoxe-20832093729-50596563477-50548041731-f5b777b683",
            "thumb_960_w": 960,
            "thumb_960_h": 540,
            "thumb_1024": "https://files.slack.com/files-tmb/T0LQG2RMF-F0V8YF65N-e37c0c408e/dsc_2976_1024.jpg?t=xoxe-20832093729-50596563477-50548041731-f5b777b683",
            "thumb_1024_w": 1024,
            "thumb_1024_h": 576,
            "image_exif_rotation": 1,
            "original_w": 3840,
            "original_h": 2160,
            "permalink": "https://vegoa.slack.com/files/simonavinati/F0V8YF65N/dsc_2976.jpg",
            "permalink_public": "https://slack-files.com/T0LQG2RMF-F0V8YF65N-07004d20c1",
            "channels": [
                "C0TTF6735"
            ],
            "groups": [
    
            ],
            "ims": [
    
            ],
            "comments_count": 1,
            "initial_comment": {
                "id": "Fc0V8WAFFX",
                "created": 1458837303,
                "timestamp": 1458837303,
                "user": "U0QJ6TY92",
                "is_intro": true,
                "comment": "what u see in the inner circle basically :simple_smile:  a crowded happy family",
                "channel": ""
            },
            "reactions": [
                {
                    "name": "heart",
                    "users": [
                        "U0NS3HEGL",
                        "U0NRZC42H"
                    ],
                    "count": 2
                }
            ]
        },
        "user": "U0QJ6TY92",
        "upload": true,
        "display_as_bot": false,
        "username": "<@U0QJ6TY92|simonavinati>",
        "bot_id": null,
        "ts": "1458837311.000084"
    },
    {
        "type": "message",
        "user": "U0NS3HEGL",
        "text": "we should definitely try this geraldinestarke",
        "ts": "1458837988.000086",
        "reactions": [
            {
                "name": "+1",
                "users": [
                    "U0NRZC42H"
                ],
                "count": 1
            }
        ]
    },
    {
        "type": "message",
        "user": "U0QKF88EQ",
        "text": "Wow, the garden looks great guys, you've done it beautiful! \n:four_leaf_clover: :herb: :seedling: :sunflower: :ear_of_rice: :tulip: ",
        "ts": "1458845525.000088",
        "reactions": [
            {
                "name": "kissing_heart",
                "users": [
                    "U0NRZC42H",
                    "U0NS3HEGL"
                ],
                "count": 2
            }
        ]
    }
]