[
    {
        "user": "U0NS0B5EG",
        "type": "message",
        "subtype": "channel_join",
        "text": "<@U0NS0B5EG|mike.peach> has joined the channel",
        "ts": "1457797232.000002"
    }
]