[
    {
        "user": "U0NS3HEGL",
        "type": "message",
        "subtype": "channel_leave",
        "text": "<@U0NS3HEGL|canercandan> has left the channel",
        "ts": "1459114549.000002"
    },
    {
        "user": "U0PHF0UAZ",
        "type": "message",
        "subtype": "channel_leave",
        "text": "<@U0PHF0UAZ|erwan.lr> has left the channel",
        "ts": "1459114551.000003"
    },
    {
        "user": "U0LQDTH7V",
        "members": [
            "U0LQDTH7V",
            "U0LQP85B3",
            "U0NRZC42H",
            "U0NS0B5EG",
            "U0PHHAK7Z",
            "U0PU8BVJQ",
            "U0PUFAPAN",
            "U0Q4CU0KB",
            "U0Q5PBY3A",
            "U0QATCU4Q",
            "U0QJ6TY92",
            "U0QKF88EQ",
            "U0RCKAPAT",
            "U0RLUAGQM",
            "U0S1XJ5UH",
            "U0SCLA45C",
            "U0SUACQEM",
            "U0TETPQBZ",
            "U0TKS555J"
        ],
        "type": "message",
        "subtype": "channel_archive",
        "text": "<@U0LQDTH7V|tiagopita> archived the channel (w/ 19 members)",
        "ts": "1459115989.000004"
    }
]