[
    {
        "user": "U0LQDTH7V",
        "type": "message",
        "subtype": "channel_join",
        "text": "<@U0LQDTH7V|tiagopita> has joined the channel",
        "ts": "1458242004.000002"
    },
    {
        "type": "message",
        "user": "U0LQDTH7V",
        "text": "<https://en.wikipedia.org/wiki/Decentralization>",
        "ts": "1458242029.000003"
    },
    {
        "type": "message",
        "user": "U0LQDTH7V",
        "text": "Before commenting read what decentralisation is!",
        "ts": "1458242045.000004"
    },
    {
        "type": "message",
        "user": "U0LQDTH7V",
        "text": "Me and Caner are suggesting decentralisation.",
        "ts": "1458242088.000005"
    },
    {
        "type": "message",
        "user": "U0LQDTH7V",
        "text": "\u201cDecentralization or decentralisation is the process of redistributing or dispersing functions, powers, people or things away from a central location or authority\"",
        "ts": "1458242093.000006",
        "reactions": [
            {
                "name": "+1",
                "users": [
                    "U0NS3HEGL"
                ],
                "count": 1
            }
        ]
    },
    {
        "user": "U0NS3HEGL",
        "inviter": "U0LQDTH7V",
        "type": "message",
        "subtype": "channel_join",
        "text": "<@U0NS3HEGL|canercandan> has joined the channel",
        "ts": "1458242126.000007"
    },
    {
        "user": "U0RLUAGQM",
        "inviter": "U0LQDTH7V",
        "type": "message",
        "subtype": "channel_join",
        "text": "<@U0RLUAGQM|catycat> has joined the channel",
        "ts": "1458242127.000008"
    },
    {
        "user": "U0S1XJ5UH",
        "inviter": "U0LQDTH7V",
        "type": "message",
        "subtype": "channel_join",
        "text": "<@U0S1XJ5UH|d.e.n.i.s.> has joined the channel",
        "ts": "1458242127.000009"
    },
    {
        "user": "U0SCLA45C",
        "inviter": "U0LQDTH7V",
        "type": "message",
        "subtype": "channel_join",
        "text": "<@U0SCLA45C|elsa_correia> has joined the channel",
        "ts": "1458242127.000010"
    },
    {
        "user": "U0PHF0UAZ",
        "inviter": "U0LQDTH7V",
        "type": "message",
        "subtype": "channel_join",
        "text": "<@U0PHF0UAZ|erwan.lr> has joined the channel",
        "ts": "1458242127.000011"
    },
    {
        "user": "U0RCKAPAT",
        "inviter": "U0LQDTH7V",
        "type": "message",
        "subtype": "channel_join",
        "text": "<@U0RCKAPAT|kati> has joined the channel",
        "ts": "1458242127.000012"
    },
    {
        "user": "U0NRZC42H",
        "inviter": "U0LQDTH7V",
        "type": "message",
        "subtype": "channel_join",
        "text": "<@U0NRZC42H|geraldinestarke> has joined the channel",
        "ts": "1458242128.000013"
    },
    {
        "user": "U0QATCU4Q",
        "inviter": "U0LQDTH7V",
        "type": "message",
        "subtype": "channel_join",
        "text": "<@U0QATCU4Q|jamesleipert> has joined the channel",
        "ts": "1458242128.000014"
    },
    {
        "user": "U0PU8BVJQ",
        "inviter": "U0LQDTH7V",
        "type": "message",
        "subtype": "channel_join",
        "text": "<@U0PU8BVJQ|linda.guijt> has joined the channel",
        "ts": "1458242128.000015"
    },
    {
        "user": "U0Q5PBY3A",
        "inviter": "U0LQDTH7V",
        "type": "message",
        "subtype": "channel_join",
        "text": "<@U0Q5PBY3A|marco> has joined the channel",
        "ts": "1458242129.000016"
    },
    {
        "user": "U0LQP85B3",
        "inviter": "U0LQDTH7V",
        "type": "message",
        "subtype": "channel_join",
        "text": "<@U0LQP85B3|melissa> has joined the channel",
        "ts": "1458242129.000017"
    },
    {
        "user": "U0PHHAK7Z",
        "inviter": "U0LQDTH7V",
        "type": "message",
        "subtype": "channel_join",
        "text": "<@U0PHHAK7Z|mark> has joined the channel",
        "ts": "1458242129.000018"
    },
    {
        "user": "U0PUFAPAN",
        "inviter": "U0LQDTH7V",
        "type": "message",
        "subtype": "channel_join",
        "text": "<@U0PUFAPAN|matt> has joined the channel",
        "ts": "1458242129.000019"
    },
    {
        "user": "U0SUACQEM",
        "inviter": "U0LQDTH7V",
        "type": "message",
        "subtype": "channel_join",
        "text": "<@U0SUACQEM|susie> has joined the channel",
        "ts": "1458242129.000020"
    },
    {
        "user": "U0QJ6TY92",
        "inviter": "U0LQDTH7V",
        "type": "message",
        "subtype": "channel_join",
        "text": "<@U0QJ6TY92|simonavinati> has joined the channel",
        "ts": "1458242129.000021"
    },
    {
        "user": "U0NS0B5EG",
        "inviter": "U0LQDTH7V",
        "type": "message",
        "subtype": "channel_join",
        "text": "<@U0NS0B5EG|mike.peach> has joined the channel",
        "ts": "1458242129.000022"
    },
    {
        "user": "U0Q4CU0KB",
        "inviter": "U0LQDTH7V",
        "type": "message",
        "subtype": "channel_join",
        "text": "<@U0Q4CU0KB|theus> has joined the channel",
        "ts": "1458242129.000023"
    },
    {
        "user": "U0TETPQBZ",
        "inviter": "U0LQDTH7V",
        "type": "message",
        "subtype": "channel_join",
        "text": "<@U0TETPQBZ|irmine-pema> has joined the channel",
        "ts": "1458242130.000024"
    },
    {
        "user": "U0QKF88EQ",
        "inviter": "U0LQDTH7V",
        "type": "message",
        "subtype": "channel_join",
        "text": "<@U0QKF88EQ|yanay_phenix> has joined the channel",
        "ts": "1458242130.000025"
    },
    {
        "type": "message",
        "user": "U0LQDTH7V",
        "text": "Most genius in the history of our world were misfits, people that the common sense and consensus called crazy. Darwin lived in a society where was not allowed to study nature or question GOD.",
        "ts": "1458242224.000026"
    },
    {
        "type": "message",
        "user": "U0LQDTH7V",
        "text": "Nowadays the world lives in a representative society, we elect someone to represent us.",
        "ts": "1458242293.000027"
    },
    {
        "type": "message",
        "user": "U0LQDTH7V",
        "text": "Contries like Sweden have a socialist democracy, where a central power taxs people and redistributes to people that need the most.",
        "ts": "1458242342.000028"
    },
    {
        "type": "message",
        "user": "U0LQDTH7V",
        "text": "This money is many times used to sponsor war, chemical companies and the meat industry in the behalf of the Swedish people that are among the most well educated in the world.",
        "ts": "1458242394.000029"
    },
    {
        "type": "message",
        "user": "U0LQDTH7V",
        "text": "When people vote in Sweden they consider their own interests, sometimes trading rights and freedom for social order and the continuation of power.",
        "ts": "1458242459.000030"
    },
    {
        "type": "message",
        "user": "U0LQDTH7V",
        "text": "Power is a very dangerous thing, the elite in power will always try to silence any movement that tries to stop it.",
        "ts": "1458242542.000031"
    },
    {
        "type": "message",
        "user": "U0LQDTH7V",
        "text": "They create fake wars and control the media.",
        "ts": "1458242560.000032"
    },
    {
        "type": "message",
        "user": "U0LQDTH7V",
        "text": "To maintain  status quo western democracies ignore that our lifestyle causes mass extinction of species and global warming. All to keep buying a BMW",
        "ts": "1458242659.000033"
    },
    {
        "type": "message",
        "user": "U0LQDTH7V",
        "text": "Decentralisation, gives the genius between us the freedom to prove they have a better solution.",
        "ts": "1458242696.000034"
    },
    {
        "type": "message",
        "user": "U0LQDTH7V",
        "text": "I ask you all to stop being hypocrite and thing that we all know better than others.",
        "ts": "1458242772.000035"
    },
    {
        "type": "message",
        "user": "U0LQDTH7V",
        "text": "<@U0NS0B5EG>: you are not smarter than everyone and I am not smarter than everyone. Do we even know what being smart? In Portugal we have a saying \u201cSmart are the dogs!\"",
        "ts": "1458242844.000036"
    },
    {
        "type": "message",
        "user": "U0LQDTH7V",
        "text": "Referring to their ability to eat play and sleep.",
        "ts": "1458242898.000037"
    },
    {
        "type": "message",
        "user": "U0LQDTH7V",
        "text": "I am deeply saddened by the attacks to our hard work of yesterday without trying to understand it.",
        "ts": "1458242952.000038"
    },
    {
        "type": "message",
        "user": "U0LQDTH7V",
        "text": "I saddened by the pettiness of focusing on the negative of my Facebook post and not by it\u2019s positivity of attracting more than 200 people and several interested people",
        "ts": "1458243024.000039",
        "reactions": [
            {
                "name": "+1",
                "users": [
                    "U0PHF0UAZ",
                    "U0NS3HEGL",
                    "U0NRZC42H"
                ],
                "count": 3
            }
        ]
    },
    {
        "type": "message",
        "user": "U0LQDTH7V",
        "text": "Me more than everyone is fighting to give power way, to create decentralisation, to let people be creative, to prove to the world that they are genius, that they can thrive.",
        "ts": "1458243088.000040"
    },
    {
        "type": "message",
        "user": "U0LQDTH7V",
        "text": "*If Vegoa is an entity with centralised power how we know that the majority of Vegoans will one day being threatened by someone questioning  is values?*",
        "ts": "1458243186.000041"
    },
    {
        "type": "message",
        "user": "U0LQDTH7V",
        "text": "How do we know we will not use immoral actions to stop a movement?",
        "ts": "1458243237.000042"
    },
    {
        "type": "message",
        "user": "U0LQDTH7V",
        "text": "This happens with Greenpeace and other corrupt green institutions",
        "ts": "1458243256.000043"
    },
    {
        "type": "message",
        "user": "U0LQDTH7V",
        "text": "*Get off your high horse* all off you, and accept that we are not better and definitely not perfect!",
        "ts": "1458243365.000044"
    },
    {
        "type": "message",
        "user": "U0LQDTH7V",
        "text": "Me, Geraldine and Caner are the only people that met everyone visiting, all groups had completely dynamics. Some members did not contribute any money or help, some members exceeded and were amazing, some groups had a negativity about everything, some groups had positive and inspiring discussions.",
        "ts": "1458243547.000045"
    },
    {
        "type": "message",
        "user": "U0LQDTH7V",
        "text": "I can tell you, and please do not accusing me of lying! that the biggest worry is to understand if there will be financial safety and how the group will work.",
        "ts": "1458243618.000046"
    },
    {
        "type": "message",
        "user": "U0LQDTH7V",
        "text": "Most people do not look to be involved on everything, most people don\u2019t even check Slack, that is not before they are not 100% committed, just means they want to worry about what they care and trust us to do the rest.",
        "ts": "1458243698.000047"
    },
    {
        "type": "message",
        "user": "U0LQDTH7V",
        "text": "*TRUST*",
        "ts": "1458243806.000048"
    },
    {
        "type": "message",
        "user": "U0LQDTH7V",
        "text": "_Why trust is the most important emotion of community living?_",
        "ts": "1458243855.000049"
    },
    {
        "type": "message",
        "user": "U0LQDTH7V",
        "text": "Trust is what creates the sense of community, with no trust community cannot exist. Trust makes social life predictable, and that is what community is.",
        "ts": "1458243957.000050"
    },
    {
        "type": "message",
        "user": "U0LQDTH7V",
        "text": "<@U0LQDTH7V> or me",
        "ts": "1458243999.000051"
    },
    {
        "type": "message",
        "subtype": "file_share",
        "text": "<@U0LQDTH7V|tiagopita> uploaded a file: <https://vegoa.slack.com/files/tiagopita/F0TF0PZDH/screen_shot_2016-03-17_at_19.47.01.png|Facebook Group description> and commented: This is the description that had almost no change from the beginning of the project.",
        "file": {
            "id": "F0TF0PZDH",
            "created": 1458244082,
            "timestamp": 1458244082,
            "name": "Screen Shot 2016-03-17 at 19.47.01.png",
            "title": "Facebook Group description",
            "mimetype": "image/png",
            "filetype": "png",
            "pretty_type": "PNG",
            "user": "U0LQDTH7V",
            "editable": false,
            "size": 68114,
            "mode": "hosted",
            "is_external": false,
            "external_type": "",
            "is_public": true,
            "public_url_shared": false,
            "display_as_bot": false,
            "username": "",
            "url_private": "https://files.slack.com/files-pri/T0LQG2RMF-F0TF0PZDH/screen_shot_2016-03-17_at_19.47.01.png?t=xoxe-20832093729-50596563477-50548041731-f5b777b683",
            "url_private_download": "https://files.slack.com/files-pri/T0LQG2RMF-F0TF0PZDH/download/screen_shot_2016-03-17_at_19.47.01.png?t=xoxe-20832093729-50596563477-50548041731-f5b777b683",
            "thumb_64": "https://files.slack.com/files-tmb/T0LQG2RMF-F0TF0PZDH-aaa6c2d395/screen_shot_2016-03-17_at_19.47.01_64.png?t=xoxe-20832093729-50596563477-50548041731-f5b777b683",
            "thumb_80": "https://files.slack.com/files-tmb/T0LQG2RMF-F0TF0PZDH-aaa6c2d395/screen_shot_2016-03-17_at_19.47.01_80.png?t=xoxe-20832093729-50596563477-50548041731-f5b777b683",
            "thumb_360": "https://files.slack.com/files-tmb/T0LQG2RMF-F0TF0PZDH-aaa6c2d395/screen_shot_2016-03-17_at_19.47.01_360.png?t=xoxe-20832093729-50596563477-50548041731-f5b777b683",
            "thumb_360_w": 360,
            "thumb_360_h": 325,
            "thumb_160": "https://files.slack.com/files-tmb/T0LQG2RMF-F0TF0PZDH-aaa6c2d395/screen_shot_2016-03-17_at_19.47.01_160.png?t=xoxe-20832093729-50596563477-50548041731-f5b777b683",
            "image_exif_rotation": 1,
            "original_w": 478,
            "original_h": 432,
            "permalink": "https://vegoa.slack.com/files/tiagopita/F0TF0PZDH/screen_shot_2016-03-17_at_19.47.01.png",
            "permalink_public": "https://slack-files.com/T0LQG2RMF-F0TF0PZDH-4be498f7ae",
            "channels": [
                "C0TG9GU7J"
            ],
            "groups": [
    
            ],
            "ims": [
    
            ],
            "comments_count": 1,
            "initial_comment": {
                "id": "Fc0TGN1KT3",
                "created": 1458244082,
                "timestamp": 1458244082,
                "user": "U0LQDTH7V",
                "is_intro": true,
                "comment": "This is the description that had almost no change from the beginning of the project.",
                "channel": ""
            }
        },
        "user": "U0LQDTH7V",
        "upload": true,
        "display_as_bot": false,
        "username": "<@U0LQDTH7V|tiagopita>",
        "bot_id": null,
        "ts": "1458244084.000052"
    },
    {
        "type": "message",
        "user": "U0LQDTH7V",
        "text": "This is what the manifesto is!",
        "ts": "1458244183.000053"
    },
    {
        "type": "message",
        "user": "U0LQDTH7V",
        "text": "In small groups is normal that there is a natural leader, that happens in between animals. Normally is not the smartest or the most intelligent or the most skilled is the one that can inspire the most people.",
        "ts": "1458244262.000054"
    },
    {
        "type": "message",
        "user": "U0LQDTH7V",
        "text": "Is normal that me as a founder and initiator of this group is seen as a leader by some, people come to me on facebook or in the meetings to open up because that how they see it.",
        "ts": "1458244328.000055",
        "reactions": [
            {
                "name": "+1",
                "users": [
                    "U0TETPQBZ"
                ],
                "count": 1
            }
        ]
    },
    {
        "type": "message",
        "user": "U0LQDTH7V",
        "text": "I don\u2019t know what is the emotion that lead to today discussion, what is the emotion that  made people question my leadership that I frequently tell I want to decentralise. I am a leader that wants to give it\u2019s power way to distribute it.",
        "ts": "1458244446.000056",
        "reactions": [
            {
                "name": "+1",
                "users": [
                    "U0NS3HEGL",
                    "U0TETPQBZ"
                ],
                "count": 2
            }
        ]
    },
    {
        "type": "message",
        "user": "U0LQDTH7V",
        "text": "I see bureaucracy being asked, bureaucracy that is normal in a more mature Organisation, Vegoa  was created this month more precisely yesterday when the beautiful Irmine gave her feedback",
        "ts": "1458244562.000057"
    },
    {
        "type": "message",
        "user": "U0LQDTH7V",
        "text": "That is what the meetings were all about",
        "ts": "1458244579.000058"
    },
    {
        "type": "message",
        "user": "U0LQDTH7V",
        "text": "I think that <@U0NS0B5EG> <@U0PU8BVJQ> and <@U0PUFAPAN> are scared of not being involved in every single decision, that people take initiative with out consultation. Sorry being this straight, but today attacks were not nice and definability not at a time where we are working hard for a website.",
        "ts": "1458244699.000059"
    },
    {
        "type": "message",
        "user": "U0LQDTH7V",
        "text": "You don\u2019t trust me, but because you don\u2019t trust me does not mean that my actions are wrong and does not mean I am destroying Vegoa",
        "ts": "1458244756.000060"
    },
    {
        "type": "message",
        "user": "U0LQDTH7V",
        "text": "All I suggested is what the Facebook group description is. All my actions are to make it a reality",
        "ts": "1458244797.000061"
    },
    {
        "type": "message",
        "user": "U0LQDTH7V",
        "text": "Not for self interest, if was for self interest I would charge everyone for the \u20ac4000 that I spent organising the event of March.",
        "ts": "1458244839.000062"
    },
    {
        "type": "message",
        "user": "U0LQDTH7V",
        "text": "I would try to dictate myself into power",
        "ts": "1458244852.000063"
    },
    {
        "type": "message",
        "user": "U0LQDTH7V",
        "text": "I would force everyone to report everything to me",
        "ts": "1458244867.000064"
    },
    {
        "type": "message",
        "user": "U0LQDTH7V",
        "text": "But I don\u2019t, I am pledging for initiative, I don\u2019t criticise any initiative",
        "ts": "1458244911.000065"
    },
    {
        "type": "message",
        "user": "U0LQDTH7V",
        "text": "What makes someone a leader is the ability to consider everyone suggestions, not force mine using voting or whatever method our society uses to find what is a better idea.",
        "ts": "1458244968.000066"
    },
    {
        "type": "message",
        "user": "U0LQDTH7V",
        "text": "I have no self interest apart from wanting to create an organisation that can change the world!",
        "ts": "1458245049.000067"
    },
    {
        "type": "message",
        "user": "U0LQDTH7V",
        "text": "Today discussing is asking for a organisation where everything needs to be approved by everyone.",
        "ts": "1458245092.000068"
    },
    {
        "type": "message",
        "user": "U0LQDTH7V",
        "text": "Information overload, to many decisions, to many discussions, no specific actions is something that people don\u2019t like",
        "ts": "1458245150.000069"
    },
    {
        "type": "message",
        "user": "U0LQDTH7V",
        "text": "*Transparency*",
        "ts": "1458245160.000070"
    },
    {
        "type": "message",
        "user": "U0LQDTH7V",
        "text": "&gt;Transparency, as used in science, engineering, business, the humanities and in other social contexts, implies openness, communication, and accountability.",
        "ts": "1458245208.000071"
    },
    {
        "type": "message",
        "user": "U0LQDTH7V",
        "text": "Accountability, in the organisation(working groups) manifesto every organisation will be asked to be fully transparent. That does not mean everyone needs to put everything online, means everyone can ask anything to the organisation, require any data or values.",
        "ts": "1458245284.000072"
    },
    {
        "type": "message",
        "user": "U0LQDTH7V",
        "text": "Decentralisation, Transparency, Openness are the values that an Organisation can have but an individual cannot as that would be a privacy invasion",
        "ts": "1458245362.000073",
        "reactions": [
            {
                "name": "+1",
                "users": [
                    "U0NS3HEGL",
                    "U0NRZC42H"
                ],
                "count": 2
            }
        ]
    },
    {
        "type": "message",
        "user": "U0LQDTH7V",
        "text": "*Commons*",
        "ts": "1458246069.000074"
    },
    {
        "type": "message",
        "user": "U0LQDTH7V",
        "text": "What was today heavily promoted by everyone attacking our suggestion was a \u201cstate\u201d a system that controls and owns things. A democratic state owning everything is not what commons mean.",
        "ts": "1458246207.000075"
    },
    {
        "type": "message",
        "user": "U0LQDTH7V",
        "text": "There is 3 main types of Commons",
        "ts": "1458246223.000076"
    },
    {
        "type": "message",
        "user": "U0LQDTH7V",
        "text": "2 of them simple and 1 complex",
        "ts": "1458246245.000077"
    },
    {
        "type": "message",
        "user": "U0LQDTH7V",
        "text": "there is different philosophies around the commons so I will keep it simple",
        "ts": "1458246265.000078"
    },
    {
        "type": "message",
        "user": "U0LQDTH7V",
        "text": "*Social commons* - are \u201corganized around access by users to social resources created by specific kinds of human labor,\u201d such as \u201ccaring for the sick, the elderly, and children; educating children; maintaining households; finding or creating pure water; \u201d",
        "ts": "1458246364.000079",
        "reactions": [
            {
                "name": "+1",
                "users": [
                    "U0NS3HEGL"
                ],
                "count": 1
            }
        ]
    },
    {
        "type": "message",
        "user": "U0LQDTH7V",
        "text": "*Knowledge Commons* (Something that I have a very strong opinion about)  and those are shared intellectual and cultural resources. Meaning no copyrights, or patents IP and all that crap! we evolve together",
        "ts": "1458246458.000080"
    },
    {
        "type": "message",
        "user": "U0LQDTH7V",
        "text": "The most delicate one *Material Commons* those are natural resources that are limited and subtractive",
        "ts": "1458246523.000081"
    },
    {
        "type": "message",
        "user": "U0LQDTH7V",
        "text": "meaning if we all take there will be no commons left",
        "ts": "1458246539.000082"
    },
    {
        "type": "message",
        "user": "U0LQDTH7V",
        "text": "If someone uses them prevents other from using them",
        "ts": "1458246563.000083"
    },
    {
        "type": "message",
        "user": "U0LQDTH7V",
        "text": "This does not happen in the other commons",
        "ts": "1458246701.000084"
    },
    {
        "type": "message",
        "user": "U0LQDTH7V",
        "text": "I left this topic for last because this is the bases of today discussion",
        "ts": "1458246722.000085"
    },
    {
        "type": "message",
        "user": "U0LQDTH7V",
        "text": "Land is a limited resource, an organisation needs land and people need land, most land will be a public space meaning everyone can use as it intends, but house land is limited and subtractive",
        "ts": "1458246803.000088"
    },
    {
        "type": "message",
        "user": "U0LQDTH7V",
        "text": "Meaning the more we take the less is left for other members",
        "ts": "1458246822.000089"
    },
    {
        "type": "message",
        "user": "U0LQDTH7V",
        "text": "In a normal democracy people would be greedy and selfish maybe blocking more members that would take their land or space",
        "ts": "1458246883.000090"
    },
    {
        "type": "message",
        "user": "U0LQDTH7V",
        "text": "There is different ways of solving this solution.",
        "ts": "1458246976.000091"
    },
    {
        "type": "message",
        "user": "U0LQDTH7V",
        "text": "In direct democracy the 51% would decide how land is allocated in liquid or representative democracy the 51% would elect someone that decides on behalf of the 100% making sure everyone gets the right amount of land. This is a very basic solution that is used in Communist countries",
        "ts": "1458247081.000092"
    },
    {
        "type": "message",
        "user": "U0LQDTH7V",
        "text": "In a decentralised society and specially one with basic income, people can decide what is priority for them and they vote with their dividends",
        "ts": "1458247158.000093",
        "reactions": [
            {
                "name": "+1",
                "users": [
                    "U0NS3HEGL",
                    "U0TETPQBZ"
                ],
                "count": 2
            }
        ]
    },
    {
        "type": "message",
        "user": "U0LQDTH7V",
        "text": "When a resource is limited, there is even a more sustainable way of using it, not using it at all",
        "ts": "1458247211.000094"
    },
    {
        "type": "message",
        "user": "U0LQDTH7V",
        "text": "That can be people sharing houses or create multiple level housing, offering people creativity will allow people to prioritise their needs",
        "ts": "1458247251.000095"
    },
    {
        "type": "message",
        "user": "U0LQDTH7V",
        "text": "A democracy would force everyone to accept the same",
        "ts": "1458247268.000096"
    },
    {
        "type": "message",
        "user": "U0LQDTH7V",
        "text": "You can apply this to farming, where in people can farm smart using technology and can be greedy waiting as much space as possible blocking other from accessing that space",
        "ts": "1458247357.000097",
        "reactions": [
            {
                "name": "+1",
                "users": [
                    "U0NS3HEGL"
                ],
                "count": 1
            }
        ]
    },
    {
        "type": "message",
        "user": "U0LQDTH7V",
        "text": "Through democratic power",
        "ts": "1458247374.000098"
    },
    {
        "type": "message",
        "user": "U0LQDTH7V",
        "text": "Democracy may elect Trump!",
        "ts": "1458247393.000099",
        "reactions": [
            {
                "name": "-1",
                "users": [
                    "U0NS3HEGL"
                ],
                "count": 1
            }
        ]
    },
    {
        "type": "message",
        "user": "U0LQDTH7V",
        "text": "We all know how democracy is great! all our politicians tell us everyday the same old story.",
        "ts": "1458247515.000100"
    },
    {
        "type": "message",
        "user": "U0LQDTH7V",
        "text": "Decentralisation, commons, transparency. This may be terms that you don\u2019t purely understand but this are all the things all of us are looking for.",
        "ts": "1458247617.000101"
    },
    {
        "type": "message",
        "user": "U0LQDTH7V",
        "text": "*Commons*, access to everything the same way, some access rights, new members have the same access as old members",
        "edited": {
            "user": "U0LQDTH7V",
            "ts": "1458247774.000000"
        },
        "ts": "1458247660.000102"
    },
    {
        "type": "message",
        "user": "U0LQDTH7V",
        "text": "Everyone can access everything, no private property apart from it\u2019s own house (safe space)",
        "ts": "1458247698.000103"
    },
    {
        "type": "message",
        "user": "U0LQDTH7V",
        "text": "*Decentralisation* - No state or entity telling us what we can do or cannot",
        "edited": {
            "user": "U0LQDTH7V",
            "ts": "1458247790.000000"
        },
        "ts": "1458247750.000104"
    },
    {
        "type": "message",
        "user": "U0LQDTH7V",
        "text": "*Transparency* - Accountancy, both for good and bad - Trust that equals community",
        "ts": "1458247843.000107"
    },
    {
        "type": "message",
        "user": "U0LQDTH7V",
        "text": "Community is access to all resources of the community, freedom and no one telling us what to do apart from the social values that are common in a community, trust that lets us rely on others.",
        "ts": "1458248044.000108"
    },
    {
        "type": "message",
        "user": "U0LQDTH7V",
        "text": "We could go on and on and have a discussion about all this and how we all have different views.",
        "ts": "1458248103.000109"
    },
    {
        "type": "message",
        "user": "U0LQDTH7V",
        "text": "To make clear, I don\u2019t want to be a leader, I am the co-founder of Vegoa and the person that invited everyone to Portugal, I do want the values that inspire me to start Vegoa to be part of Vegoa. I am open to constructive critics about Working groups, decentralisation, commons, openness and anything. I am not closed minded I change my opinion all the time and very regularly. Please be constructive and not philosophical.",
        "ts": "1458248268.000110",
        "reactions": [
            {
                "name": "+1",
                "users": [
                    "U0NS3HEGL",
                    "U0PHF0UAZ"
                ],
                "count": 2
            }
        ]
    },
    {
        "type": "message",
        "user": "U0LQDTH7V",
        "text": "I apologise for the long text, should be a document, but this are crucial days for Vegoa and petty fights are not progressive, I felt that I need to impose my view or things don\u2019t move.",
        "ts": "1458248351.000111"
    },
    {
        "type": "message",
        "user": "U0LQDTH7V",
        "text": "Some will feel attacked by this text, but that is not my intention, this is an attempt to explain why I make the decisions I do when I do. I am a doer, I get things done fast and efficiently, I believe that this is what we need initially.",
        "ts": "1458248490.000112"
    },
    {
        "type": "message",
        "user": "U0LQDTH7V",
        "text": "I am not power hungry, just don\u2019t need it, although I like to be appreciated and all I am trying to do is giving the power way.",
        "ts": "1458248586.000113"
    },
    {
        "type": "message",
        "user": "U0LQDTH7V",
        "text": "Finished!",
        "ts": "1458248618.000114",
        "reactions": [
            {
                "name": "+1",
                "users": [
                    "U0NS3HEGL",
                    "U0NRZC42H"
                ],
                "count": 2
            }
        ]
    },
    {
        "type": "message",
        "user": "U0NS3HEGL",
        "text": "<@U0LQDTH7V>: thanks :wink: it clarifies lot of things",
        "ts": "1458248912.000115",
        "reactions": [
            {
                "name": "+1",
                "users": [
                    "U0TETPQBZ"
                ],
                "count": 1
            }
        ]
    },
    {
        "type": "message",
        "user": "U0LQDTH7V",
        "text": "Thank you",
        "ts": "1458248938.000116",
        "reactions": [
            {
                "name": "+1",
                "users": [
                    "U0TETPQBZ"
                ],
                "count": 1
            }
        ]
    },
    {
        "type": "message",
        "user": "U0PU8BVJQ",
        "text": "To have one thing straight. I am not scared of not being involved in everything. (and im pretty sure mike and matt arent either) I dont want to be involved in everything. I find transparancy and clarity in important matters, important.  And it seems we all do. \nApart from that; its not nice that you feel its right to point us out in this way, especcially in this long/important text. Its not needed and its not even accurate (apart from it being your own assumptions) You could have also said: some people. \nAny further comments towards me, you can send them privatly, Thank you.",
        "edited": {
            "user": "U0PU8BVJQ",
            "ts": "1458269825.000000"
        },
        "ts": "1458249617.000117"
    },
    {
        "type": "message",
        "user": "U0LQDTH7V",
        "text": "The same way I was pointed publicly, I would never otherwise do it.",
        "ts": "1458249717.000118"
    },
    {
        "type": "message",
        "user": "U0PU8BVJQ",
        "text": "no comment.",
        "ts": "1458249799.000119"
    },
    {
        "type": "message",
        "user": "U0NS0B5EG",
        "text": "Alright, you win. Pretend whatever you want. You've insulted and attacked me and others enough that I don't really know how to try to help you with this anymore that won't result in you making it even worse so I'm just going to leave it at this. Whenever you are ready to have a mature discussion, you know where to find me.\n\nI hope you understand how these discussions are necessary though; and the social value of people knowing that not just one person is making every single decision all on their own with an iron fist, and there are others who will actually listen to them and factor in their ideas and interests. When you go around insulting people and accusing them of saying and doing shit that they didn't you force them to stand up to you, it's really very simple. I don't relish this job but it simply has to be done for people to feel secure.\n\nI'm not sure why you are so afraid of not controlling every single decision yourself, and ensuring that nobody else is ever allowed to make any at all or throwing a tantrum when they do. It's not a black and white dichotomy where you are involved in either everything or nothing, and you know this. I don't know why you are making up these accusations of control that everybody, yourself included, knows could not be further from the truth. I also agree that attacks are not nice, but only one person here has been conducting them. \n\nPeople are going to do what they want to do, work together to accomplish their shared interests and values as they see fit, live and work together and establish a group dynamic, and it's just not possible to stop them, so why keep trying? It's blatantly obvious that almost everybody involved in the project wants to have a village; it has been their understanding from the start. Flipping everything on its head and trying to block that idea from developing is just suicide for the project and will make a lot of people get scared and back out. That is what I am worried about.\n\nThe biggest thing you need to work on is learning to not approach debates in a confrontational and hostile manner all the time. Replying to every opinion about a topic by making it about you and them with personal attacks and dismissive comments or off topic aggrandizements all the time is not conducive to productive discussion. I am telling you this as a friend, who has had a lot of personal experience in talking to people the wrong way. I want to see the community prosper and flourish, not fracture and disintegrate because of egos and selfishness and control issues.\n\nIt's nice you took the time to come up with replies to all of that stuff that you made up though, although I've pretty thoroughly explained your misunderstandings and strawman accusations already so there's not much more to say there.",
        "edited": {
            "user": "U0NS0B5EG",
            "ts": "1458271786.000000"
        },
        "ts": "1458267149.000120"
    },
    {
        "type": "message",
        "user": "U0PUFAPAN",
        "text": "This is something I spent some time writing: It addresses the topics from lately and discusses my personal view on what the complex discussions 'I' have been part of are: \nIt is detailed, but I do not wish to continue with longer texts such as this after I post this. I want to move forward. \n\nThere was no fear, we seem to be on the same page with a lot of ideas and I love the idea of challenging the way things are and going where no one has gone to achieve something better for this world.  I would like you to spend the time to read this message then I would like to move on productively with this project work on things.\n\nMy responses were not based on fear, I was not frightened/scared. They were based on love and passion for this. \nI am trying to work towards a decentralized system. On the contrary to what you said,  I 'Do Not' want to be involved in every decision, \nThat is not what 'my' personal comments were about. (Which only represents me, 'not MIke, not Linda).  \n\nWhat it boils down to is that there was a projection of your interests made public. Which was not necessarily the interests of the existing group. Therefore in an attempt to decentralize things so more people could offer an opinion. I created a channel called community.  I brought up the discussion of your control in the project and was questioning your 'natural' leadership.\nThis is a very important thing so we can all understand the mechanisms behind the project.   I 'trust' you, as do I 'trust' everyone here on slack, otherwise I simply would not be here.\nI trust that it is okay to challenge you and that public opinion is a good thing.\n\nInitiative should be open to debate, criticism and discussion. That is exercising the freedom to question the decisions of others.\nI don't want to shut down anyone and I cannot stress enough, I want this to work. \nI have never said that your actions were wrong, I challenged them however.   Personally I don't agree with some of your actions which I have made very clear several times and offered my solutions to problems. However, I would say that my solutions were very quickly shut down and the tone changed to that of a more personal and angry one.   \n\nI want to keep this group together, I want to make peace with all of you ( I never lost any sense of peace with any of you in the first place).  I think we could all agree, there should be no hard feelings? Unless, challenging ideas or processes is offensive to anyone? In which case then I am confused, because we are here to challenge the very fabric of society and therefore should be completely open to criticism.    As you can challenge the very words I am writing...  please do.. No hard feelings. \nSide note: Reading a book or many books/information does not necessarily make someone an expert on a topic.. Until the topic has been tried and tried again in practice and even then someone can come along and completely break apart all knowledge on a subject by looking at it with fresh eyes. Sometimes the most simple of solutions are overlooked, but they can change the world.   Considering what we are trying to do has not even been officially tried how can any of us really know anything.",
        "ts": "1458279592.000136"
    },
    {
        "type": "message",
        "user": "U0PUFAPAN",
        "text": "-It is important to continue to challenge \n- It is important to distinguish between what is a personal attack and what is a challenge\n- it is important to listen and admit we can be wrong (Not directed at anyone, I'm wrong all the time, but I'm also right too a lot of the time haha that's really perception. \n\nChallenging the situation within this group is my way of trying to humanise us and accept we are flawed but can work together to do better., to help each other learn, to let people see the other side, rather than their just their own vision. Being challenged in my life by the things I saw  and thought about was what lead me to being a vegan. Being challenged by others has made me a better person and there is always room for growth. We should dissect everything and understand what makes it tick. \n\nI am trying to put a human face on this project, I want to connect people. To understand what makes them tick and try to figure out a way to include them in such a way that even if we are completely different, we are united by a core value and they can (even if not  straight away) contribute in their own way with the tools we provide to create a better alternative to the system we live in  but not to distance myself from them and categorise myself.  We fall into our own path and groups and change them all the time.\n In that way we are all leaders and everyone must be given the chance to be understood, not through our own filter. .  Even if they are different from the consensus of what normal social behaviours and patterns say they should be. At least we are as open as we can be and try to dissect it as best as we can. \n\nBy analysing ourselves objectively we can better understand the patterns of others.  This next topic discusses our roles within this group.\nThere are many ways in which we can show initiative within this project, here are some examples of how we implement our personal ideas into a solid form AKA make decisions :\n\nTaking the lead: \n\n- 'Taking the lead' is based on having a strong confidence in ones own opinion, therefore possibly disregarding the opinions of others.   \nSuch unshakable confidence may lead to anger if ones opinion is challenged. Taking the lead,  in a group dynamic is merely drowning out the opinions of others with your own opinion and pushing ahead with that. (Even if you have spent years researching/ given it a lot of complex thought , you are agreeing with yourself over others).\nTaking the lead excludes the individual opinions of others by accepting that ones personal opinion is the right opinion and disregarding them.",
        "ts": "1458279632.000137"
    },
    {
        "type": "message",
        "user": "U0PUFAPAN",
        "text": "Leading by example: \n\n- 'Leading by example' is based on the idea that one earns the trust of another and it is not automatic or inherited through position or in any way. To earn the trust of others is to be seen to open yourself up to the idea of  trusting others. It's complex but in short, 'to earn trust is to show willingness to trust. '\n To establish that trust you must consider that others may have an opinion that might be more logical than your own personal opinion and therefore consider it before performing an action.  \n\nBut here comes the dilemma......       How can you consider the opinion of others without first asking others for their opinion? You simply don't and cannot without asking. \nTherefore trust will collapse, and if trust collapses chaos follows shortly after. Each for their own.\n\nNote :  Leadership and taking the lead are two different things but are often synonymous with one another.\n\nThere are modern tools to analyse public opinion before you make a decision without directly asking a question if you are representing a group or an organisation ,  and these are implemented particularly on social media platforms such as facebook where  a pattern is analysed and converted into a graph, numbers etc.\n You can analyse this model and base future decisions on it. However,  the program itself is collecting data.... collecting information... Asking for information and feeding it back into a program to analyse that information .. What is that information?     It is data collected based on the willingness of users to interact with something. trust from users.. \"That interests me, that's what I want to look at, or share or like\".  \n\nThat's great within a computer, but how does that apply to real life with a small group of individuals? How can we create a trust, if  we have to wait until something is completed/ shared before we can formulate an opinion? ( in which time it is too late to do anything about it/ therefore being denied an opinion). This is taking the lead and it divides a group.\n\nOne suggestion which I am not saying I am for or against is:\n \nIf said group wishes to expand, the initial group would then need to have a shared trust based on the 'lead by example' method whereby general opinions were actually considered and each member would earn trust by showing 'willingness' to consider the opinions of others, whilst challenging them with their own opinions. The group would have to accept this challenge and consider it.  \n\nAs the group grows, things will become much more complex so it will have to evolve, but the initial group of 'pioneers' would have to prove the system is possible and sustainable enough for it to expand. Proof.\nTime would tell, one such theory could be that\nThis model can then be transferred into a larger scale model based on public opinion and to prevent a large scale shouting match and collapse of trust\n\n One example of how to deal with this would be that:\nDebates could then be over time more efficiently sectioned into categories and subcategories  where people (Not voted for) would come together to discuss specific sub topics in finer detail using the same trust and coming to general ideas, that could then be proven to work and used as a model for the whole. \n\nNote: This is discussing group community decision making.  Not the policies themselves regarding land, income etc",
        "ts": "1458279651.000138"
    },
    {
        "type": "message",
        "user": "U0PUFAPAN",
        "text": "The  confidence of a strong opinions are just opinions that are drowning out the other opinions in the room.\n But some people do not have a strong enough voice in the discussion . Thierry was an example. \n\nThe reason I decided to challenge some things  \n\nI just felt that it was time we exercised that trust, not through documents we upload on the Google drive that we change every time we have a conflict, from A to B then back to A again,  but with challenging discussions here so that we could understand the boundaries and explore them,  therefore we and I/we can understand exactly what the manifesto should be about, just exactly how we are involved and how we can attempt to protect those values, then write it.   This is not an attack or a fight to create just another democratic system, this is challenging the system. \nBy asking for consensus, I was asking for a public debate/ calling for discussions to occur so that we could arrive at crucial point whereby we could actually draft a manifesto.\nA general agreement.   'the judgment arrived at by most of those concerned'.  \nWhatever way you wish to look at it, however you define it.     That is essentially what holds this entire project together...     A general agreement...  It is rather vague but we have agreed upon working together on this project.\n\nIt's rather ironic isn't it, we have reached a consensus in order to make a project where some of us are against consensus's and some in favour of. But the consensus is that we are all against the system we live in now haha So why can't we reach a consensus...        It's a pretty viscous circle. These thumbs up :+1:  or thumbs down  :-1: are a form of voting or showing favour for one party. Whilst it may not be considered a vote, you are agreeing with the principles of another. That of someone who provides you with the logic you can relate to. \nBut collectively of course there are issues especially regarding the exclusion of the minority. \nI find all of the above concepts amazing and I am very interested in working towards an understanding. \n\nI am aiming big with this project and I find it exciting. I do dream a lot about what this could be, \n\nI am very positive and have always been about this project.   Whatever solutions we can find to these on going discussions that we are having. I still want to continue and open my heart to you all collectively.    I will continue to work on solutions and I hope we can form a resolve. \n\nNo more long texts  :simple_smile: Matt",
        "ts": "1458279655.000139",
        "reactions": [
            {
                "name": "+1",
                "users": [
                    "U0NS0B5EG"
                ],
                "count": 1
            }
        ]
    },
    {
        "type": "message",
        "user": "U0PUFAPAN",
        "text": "I've said what I wanted say",
        "edited": {
            "user": "U0PUFAPAN",
            "ts": "1458279901.000000"
        },
        "ts": "1458279690.000140"
    }
]