[
    {
        "type": "message",
        "user": "U0NS0B5EG",
        "text": "Tiago, can you please try to think clearly and beyond your own emotions and ego for two seconds? What purpose do you think kicking me out of facebook is going to serve, other than make you look like a tyrant dictator who indeed does want to exercise fully centralized control over everything and everyone else? What you really want is for nobody other than yourself to be able to post anything without asking for permission, presumably from you? I have been involved in this from the very start just as you, and very active on facebook in particular, so what do you think people are going to think when they see that I've just been removed on your whim? You are causing the exact fear and fracturing that I have been urging you to try to mitigate. You need to start listening to people and stop undermining everybody's confidence in the project and in you! Particularly with what you say about being strongly against 'expelling'... Was that all just hot air designed to manipulate people into a false sense of security?\n\nDecentralizing the facebook group in particular is one of the most urgent concerns right now, and as been brought up specifically, as it's currently the main communication channel that ties all of our potential members and supporters into the project. If anything, you should be transferring ownership of it, not removing other admins from it for no reason other than trying to be petty. As if I ever had or ever would abuse admin powers or silence anybody's free speech, lol. You have to be insane to even try to imply that.",
        "edited": {
            "user": "U0NS0B5EG",
            "ts": "1458410953.000000"
        },
        "ts": "1458410621.000120"
    }
]