[
    {
        "type": "message",
        "user": "U0QJ6TY92",
        "text": "<https://www.facebook.com/FairFairshop> the guy who just posted this on FB is the partner of my friend Karo (she makes the cheese i brought to the meeting). He is alo a vegan hip hop artist....maybe we could ask him to compose a Vegoa song? (or too much greek sun on my brain :wink: )",
        "ts": "1459942273.000004",
        "reactions": [
            {
                "name": "+1",
                "users": [
                    "U0NS3HEGL"
                ],
                "count": 1
            }
        ]
    },
    {
        "type": "message",
        "user": "U0NS3HEGL",
        "text": "the vegan cheese ya I\u00a0remember it was very good :wink:",
        "ts": "1459942577.000005"
    },
    {
        "type": "message",
        "user": "U0LQDTH7V",
        "text": "<https://www.facebook.com/gary.yourofsky/videos/978038545584727/>",
        "attachments": [
            {
                "service_name": "Facebook",
                "service_url": "https://www.facebook.com",
                "author_name": "Best Video You Will Ever See",
                "author_link": "https://www.facebook.com/gary.yourofsky/",
                "fallback": "Facebook Video: ",
                "from_url": "https://www.facebook.com/gary.yourofsky/videos/978038545584727/",
                "id": 1
            }
        ],
        "ts": "1459952406.000006"
    },
    {
        "type": "message",
        "user": "U0LQDTH7V",
        "text": "<https://www.airbnb.no/rooms/3945272>",
        "attachments": [
            {
                "service_name": "Airbnb",
                "title": "Unik Hobbit Cabin - Jordhytter til leie i Hol",
                "title_link": "https://www.airbnb.no/rooms/3945272",
                "text": "Jordhus i Hol, Norge. Cozy and special cabin . Made unik for a memorable experience Skiing,hiking,fishing and outside the door. Free firewood and candlelights. The cabin do have a bathroom with water closet,kitchen for easy meals and electric heating in the floor. E...",
                "fallback": "Airbnb: Unik Hobbit Cabin - Jordhytter til leie i Hol",
                "image_url": "https://a2.muscache.com/im/pictures/5525f97e-1305-41fb-8e24-512a1551d9f4.jpg?aki_policy=x_large",
                "from_url": "https://www.airbnb.no/rooms/3945272",
                "image_width": 375,
                "image_height": 250,
                "image_bytes": 79872,
                "id": 1
            }
        ],
        "ts": "1459960886.000008",
        "reactions": [
            {
                "name": "heart_eyes_cat",
                "users": [
                    "U0NS3HEGL"
                ],
                "count": 1
            },
            {
                "name": "blush",
                "users": [
                    "U0RCKAPAT"
                ],
                "count": 1
            }
        ]
    }
]