[
    {
        "user": "U0NS3HEGL",
        "type": "message",
        "subtype": "channel_leave",
        "text": "<@U0NS3HEGL|canercandan> has left the channel",
        "ts": "1465828667.000002"
    }
]