[
    {
        "user": "U0NS0B5EG",
        "old_name": "homeschooling",
        "name": "_homeschooling",
        "type": "message",
        "subtype": "channel_name",
        "text": "<@U0NS0B5EG|mike.peach> has renamed the channel from \"homeschooling\" to \"_homeschooling\"",
        "ts": "1458401307.000002"
    }
]