[
    {
        "type": "message",
        "user": "U0PHF0UAZ",
        "text": "/todo Disable the directory listing on the web server (e.g: <http://vegoa.org/media/> etc)",
        "ts": "1460561762.000003"
    },
    {
        "text": ":+1: Task created! - Type `/todo list` to view them all.",
        "bot_id": "B0X2T4QDQ",
        "type": "message",
        "subtype": "bot_message",
        "ts": "1460561762.000004"
    },
    {
        "type": "message",
        "subtype": "file_share",
        "text": "<@U0LQDTH7V|tiagopita> uploaded a file: <https://vegoa.slack.com/files/tiagopita/F10E192GN/vegoalogo.svg|vegoalogo.svg>",
        "file": {
            "id": "F10E192GN",
            "created": 1460576118,
            "timestamp": 1460576118,
            "name": "vegoalogo.svg",
            "title": "vegoalogo.svg",
            "mimetype": "image/svg+xml",
            "filetype": "svg",
            "pretty_type": "SVG",
            "user": "U0LQDTH7V",
            "editable": false,
            "size": 6002,
            "mode": "hosted",
            "is_external": false,
            "external_type": "",
            "is_public": true,
            "public_url_shared": false,
            "display_as_bot": false,
            "username": "",
            "url_private": "https://files.slack.com/files-pri/T0LQG2RMF-F10E192GN/vegoalogo.svg?t=xoxe-20832093729-50596563477-50548041731-f5b777b683",
            "url_private_download": "https://files.slack.com/files-pri/T0LQG2RMF-F10E192GN/download/vegoalogo.svg?t=xoxe-20832093729-50596563477-50548041731-f5b777b683",
            "thumb_64": "https://files.slack.com/files-tmb/T0LQG2RMF-F10E192GN-751f3c1261/vegoalogo_64.png?t=xoxe-20832093729-50596563477-50548041731-f5b777b683",
            "thumb_80": "https://files.slack.com/files-tmb/T0LQG2RMF-F10E192GN-751f3c1261/vegoalogo_80.png?t=xoxe-20832093729-50596563477-50548041731-f5b777b683",
            "thumb_360": "https://files.slack.com/files-tmb/T0LQG2RMF-F10E192GN-751f3c1261/vegoalogo_360.png?t=xoxe-20832093729-50596563477-50548041731-f5b777b683",
            "thumb_360_w": 278,
            "thumb_360_h": 360,
            "thumb_480": "https://files.slack.com/files-tmb/T0LQG2RMF-F10E192GN-751f3c1261/vegoalogo_480.png?t=xoxe-20832093729-50596563477-50548041731-f5b777b683",
            "thumb_480_w": 371,
            "thumb_480_h": 480,
            "thumb_160": "https://files.slack.com/files-tmb/T0LQG2RMF-F10E192GN-751f3c1261/vegoalogo_160.png?t=xoxe-20832093729-50596563477-50548041731-f5b777b683",
            "thumb_720": "https://files.slack.com/files-tmb/T0LQG2RMF-F10E192GN-751f3c1261/vegoalogo_720.png?t=xoxe-20832093729-50596563477-50548041731-f5b777b683",
            "thumb_720_w": 556,
            "thumb_720_h": 720,
            "image_exif_rotation": 1,
            "original_w": 612,
            "original_h": 792,
            "permalink": "https://vegoa.slack.com/files/tiagopita/F10E192GN/vegoalogo.svg",
            "permalink_public": "https://slack-files.com/T0LQG2RMF-F10E192GN-205744dc60",
            "channels": [
                "C0NT1T133"
            ],
            "groups": [
    
            ],
            "ims": [
    
            ],
            "comments_count": 0,
            "reactions": [
                {
                    "name": "+1",
                    "users": [
                        "U0NS3HEGL"
                    ],
                    "count": 1
                }
            ]
        },
        "user": "U0LQDTH7V",
        "upload": true,
        "display_as_bot": false,
        "username": "<@U0LQDTH7V|tiagopita>",
        "bot_id": null,
        "ts": "1460576120.000005"
    }
]