[
    {
        "type": "message",
        "user": "U0LQDTH7V",
        "text": "Today :)",
        "ts": "1457174860.000002",
        "reactions": [
            {
                "name": "wink",
                "users": [
                    "U0NS3HEGL"
                ],
                "count": 1
            }
        ]
    }
]