[
    {
        "user": "U0LQDTH7V",
        "type": "message",
        "subtype": "channel_join",
        "text": "<@U0LQDTH7V|tiagopita> has joined the channel",
        "ts": "1457994685.000002"
    },
    {
        "user": "U0LQDTH7V",
        "purpose": "Vegoa coop",
        "type": "message",
        "subtype": "channel_purpose",
        "text": "<@U0LQDTH7V|tiagopita> set the channel purpose: Vegoa coop",
        "ts": "1457994686.000003"
    },
    {
        "user": "U0SCLA45C",
        "inviter": "U0LQDTH7V",
        "type": "message",
        "subtype": "channel_join",
        "text": "<@U0SCLA45C|elsa_correia> has joined the channel",
        "ts": "1457994687.000004"
    },
    {
        "user": "U0S1XJ5UH",
        "inviter": "U0LQDTH7V",
        "type": "message",
        "subtype": "channel_join",
        "text": "<@U0S1XJ5UH|d.e.n.i.s.> has joined the channel",
        "ts": "1457994687.000005"
    },
    {
        "user": "U0RLUAGQM",
        "inviter": "U0LQDTH7V",
        "type": "message",
        "subtype": "channel_join",
        "text": "<@U0RLUAGQM|catycat> has joined the channel",
        "ts": "1457994687.000006"
    },
    {
        "user": "U0NS3HEGL",
        "inviter": "U0LQDTH7V",
        "type": "message",
        "subtype": "channel_join",
        "text": "<@U0NS3HEGL|canercandan> has joined the channel",
        "ts": "1457994687.000007"
    },
    {
        "user": "U0NRZC42H",
        "inviter": "U0LQDTH7V",
        "type": "message",
        "subtype": "channel_join",
        "text": "<@U0NRZC42H|geraldinestarke> has joined the channel",
        "ts": "1457994687.000008"
    },
    {
        "user": "U0RCKAPAT",
        "inviter": "U0LQDTH7V",
        "type": "message",
        "subtype": "channel_join",
        "text": "<@U0RCKAPAT|kati> has joined the channel",
        "ts": "1457994687.000009"
    },
    {
        "user": "U0PHF0UAZ",
        "inviter": "U0LQDTH7V",
        "type": "message",
        "subtype": "channel_join",
        "text": "<@U0PHF0UAZ|erwan.lr> has joined the channel",
        "ts": "1457994687.000010"
    },
    {
        "user": "U0QATCU4Q",
        "inviter": "U0LQDTH7V",
        "type": "message",
        "subtype": "channel_join",
        "text": "<@U0QATCU4Q|jamesleipert> has joined the channel",
        "ts": "1457994688.000011"
    },
    {
        "user": "U0Q5PBY3A",
        "inviter": "U0LQDTH7V",
        "type": "message",
        "subtype": "channel_join",
        "text": "<@U0Q5PBY3A|marco> has joined the channel",
        "ts": "1457994688.000012"
    },
    {
        "user": "U0PHHAK7Z",
        "inviter": "U0LQDTH7V",
        "type": "message",
        "subtype": "channel_join",
        "text": "<@U0PHHAK7Z|mark> has joined the channel",
        "ts": "1457994688.000013"
    },
    {
        "user": "U0PU8BVJQ",
        "inviter": "U0LQDTH7V",
        "type": "message",
        "subtype": "channel_join",
        "text": "<@U0PU8BVJQ|linda.guijt> has joined the channel",
        "ts": "1457994688.000014"
    },
    {
        "user": "U0PUFAPAN",
        "inviter": "U0LQDTH7V",
        "type": "message",
        "subtype": "channel_join",
        "text": "<@U0PUFAPAN|matt> has joined the channel",
        "ts": "1457994688.000015"
    },
    {
        "user": "U0LQP85B3",
        "inviter": "U0LQDTH7V",
        "type": "message",
        "subtype": "channel_join",
        "text": "<@U0LQP85B3|melissa> has joined the channel",
        "ts": "1457994689.000016"
    },
    {
        "user": "U0NS0B5EG",
        "inviter": "U0LQDTH7V",
        "type": "message",
        "subtype": "channel_join",
        "text": "<@U0NS0B5EG|mike.peach> has joined the channel",
        "ts": "1457994689.000017"
    },
    {
        "user": "U0QJ6TY92",
        "inviter": "U0LQDTH7V",
        "type": "message",
        "subtype": "channel_join",
        "text": "<@U0QJ6TY92|simonavinati> has joined the channel",
        "ts": "1457994689.000018"
    },
    {
        "user": "U0Q4CU0KB",
        "inviter": "U0LQDTH7V",
        "type": "message",
        "subtype": "channel_join",
        "text": "<@U0Q4CU0KB|theus> has joined the channel",
        "ts": "1457994689.000019"
    },
    {
        "user": "U0QKF88EQ",
        "inviter": "U0LQDTH7V",
        "type": "message",
        "subtype": "channel_join",
        "text": "<@U0QKF88EQ|yanay_phenix> has joined the channel",
        "ts": "1457994689.000020"
    },
    {
        "type": "message",
        "user": "U0LQDTH7V",
        "text": "<!channel>: on Wednesday me and <@U0PHF0UAZ> will visit the coop office in Faro to get all details. Everyone that wants to be already in the main Vegoa cooperative please confirm in the doc shared below",
        "ts": "1457994756.000021"
    },
    {
        "type": "message",
        "user": "U0PUFAPAN",
        "text": "Still waiting on the doc",
        "ts": "1457994857.000022"
    },
    {
        "type": "message",
        "user": "U0LQDTH7V",
        "text": "<https://docs.google.com/document/d/1NcI3X-5ng3b6pP51DNtFguDW68L1sWJRaLeYn5fRY5s/edit?usp=sharing>",
        "ts": "1457995037.000026",
        "reactions": [
            {
                "name": "+1",
                "users": [
                    "U0QJ6TY92"
                ],
                "count": 1
            }
        ]
    },
    {
        "type": "message",
        "user": "U0PUFAPAN",
        "text": "Filled in, let me know what materials will be needed",
        "ts": "1457997325.000027",
        "reactions": [
            {
                "name": "+1",
                "users": [
                    "U0NS3HEGL",
                    "U0LQDTH7V"
                ],
                "count": 2
            }
        ]
    }
]