[
    {
        "type": "message",
        "user": "U0QKF88EQ",
        "text": "OK guys, I suggest to try to installing the open source program on a server... \n\nDoes anyone have a free server for \"proof of concept\" (@canercandan / <@U0LQDTH7V> )",
        "edited": {
            "user": "U0QKF88EQ",
            "ts": "1458078304.000000"
        },
        "ts": "1458078211.000002"
    },
    {
        "type": "message",
        "user": "U0QKF88EQ",
        "text": "?",
        "ts": "1458078227.000003"
    },
    {
        "type": "message",
        "user": "U0NS3HEGL",
        "text": "I\u00a0have a server using docker so you can install as many docker images as you want on it, are you familiar with this tech ?",
        "ts": "1458078362.000005"
    },
    {
        "type": "message",
        "user": "U0NS3HEGL",
        "text": "I\u00a0found some docker images available @ <https://hub.docker.com/search/?isAutomated=0&amp;isOfficial=0&amp;page=1&amp;pullCount=0&amp;q=sharetribe&amp;starCount=0>",
        "ts": "1458078448.000006"
    },
    {
        "type": "message",
        "user": "U0NS3HEGL",
        "text": "but somebody has to test them",
        "ts": "1458078456.000007"
    },
    {
        "type": "message",
        "user": "U0NS3HEGL",
        "text": "so if you are familiar with docker I\u00a0can give you an access on the server to deploy an image",
        "ts": "1458078491.000008"
    }
]