[
    {
        "type": "message",
        "user": "U0NS3HEGL",
        "text": "<https://vegoa.slack.com/archives/general/p1459131510000003> hey <@U0PU8BVJQ> the reason is because <@U0LQDTH7V> has created this channel in the past and became automatically its owner. So you can ask him to transfer the ownership of the channel to you and get a full control of it",
        "attachments": [
            {
                "color": "4D394B",
                "from_url": "https://vegoa.slack.com/archives/general/p1459131510000003",
                "fallback": "[March 27th, 2016 7:18 PM] linda.guijt: and i dont seem to be able to put an _ s _  in front of bookavegan myself. have a good night",
                "author_subname": "linda.guijt",
                "ts": "1459131510.000003",
                "text": "and i dont seem to be able to put an _ s _  in front of bookavegan myself. have a good night",
                "author_name": "Linda Guijt",
                "author_link": "https://vegoa.slack.com/team/linda.guijt",
                "author_icon": "https://avatars.slack-edge.com/2016-03-20/28113764800_b0d59d26d316c7855d2c_48.jpg",
                "mrkdwn_in": [
                    "text"
                ],
                "id": 1
            }
        ],
        "edited": {
            "user": "U0NS3HEGL",
            "ts": "1459159380.000000"
        },
        "ts": "1459159349.000002"
    },
    {
        "type": "message",
        "user": "U0LQDTH7V",
        "text": "Need to check how to do that ",
        "ts": "1459161077.000005"
    },
    {
        "type": "message",
        "user": "U0NS3HEGL",
        "text": "<@U0LQDTH7V>: did some search and it seams that the feature is not available",
        "ts": "1459162203.000006"
    },
    {
        "type": "message",
        "user": "U0NS3HEGL",
        "text": "suggest <@U0LQDTH7V> you rename the channel name to `_s_bookavegan` thanks :wink:",
        "ts": "1459162243.000007"
    },
    {
        "type": "message",
        "user": "U0PU8BVJQ",
        "text": "you can also remove the channel and then i'll create a new one",
        "ts": "1459162777.000008"
    },
    {
        "user": "U0LQDTH7V",
        "members": [
            "U0LQDTH7V",
            "U0LQP85B3",
            "U0NRZC42H",
            "U0NS0B5EG",
            "U0NS3HEGL",
            "U0PHF0UAZ",
            "U0PHHAK7Z",
            "U0PU8BVJQ",
            "U0PUFAPAN",
            "U0Q4CU0KB",
            "U0Q5PBY3A",
            "U0QATCU4Q",
            "U0QJ6TY92",
            "U0QKF88EQ",
            "U0RCKAPAT",
            "U0RLUAGQM"
        ],
        "type": "message",
        "subtype": "channel_archive",
        "text": "<@U0LQDTH7V|tiagopita> archived the channel (w/ 16 members)",
        "ts": "1459163679.000009"
    }
]