[
    {
        "user": "U0NS3HEGL",
        "type": "message",
        "subtype": "channel_join",
        "text": "<@U0NS3HEGL|canercandan> has joined the channel",
        "ts": "1457612155.000002"
    },
    {
        "type": "message",
        "user": "U0NS3HEGL",
        "text": "as an update tiago already bought the two domain names bookavegan.{org|com}",
        "ts": "1457612231.000003"
    },
    {
        "type": "message",
        "user": "U0NS3HEGL",
        "text": "so we can create the website using the sharetribe solution very quickly",
        "ts": "1457612267.000004"
    },
    {
        "user": "U0PUFAPAN",
        "type": "message",
        "subtype": "channel_join",
        "text": "<@U0PUFAPAN|matt> has joined the channel",
        "ts": "1457613464.000005"
    },
    {
        "user": "U0Q5PBY3A",
        "inviter": "U0PUFAPAN",
        "type": "message",
        "subtype": "channel_join",
        "text": "<@U0Q5PBY3A|marco> has joined the channel",
        "ts": "1457613521.000006"
    },
    {
        "user": "U0PU8BVJQ",
        "inviter": "U0PUFAPAN",
        "type": "message",
        "subtype": "channel_join",
        "text": "<@U0PU8BVJQ|linda.guijt> has joined the channel",
        "ts": "1457613536.000007"
    },
    {
        "type": "message",
        "user": "U0LQDTH7V",
        "text": "<https://book-a-vegan.sharetribe.com/>",
        "attachments": [
            {
                "service_name": "Book a Vegan",
                "title": "Book a Vegan - Community marketplace",
                "title_link": "https://book-a-vegan.sharetribe.com/",
                "text": "This is a place to sell, rent, swap and share goods and services with the other members of the marketplace. - Community marketplace",
                "fallback": "Book a Vegan: Book a Vegan - Community marketplace",
                "thumb_url": "https://assets1.sharetribe.com/assets/sharetribe_icon-8a45b0a40aa575d9bb361f67d873db81.png",
                "from_url": "https://book-a-vegan.sharetribe.com/",
                "thumb_width": 200,
                "thumb_height": 200,
                "id": 1
            }
        ],
        "ts": "1457613749.000008",
        "reactions": [
            {
                "name": "+1",
                "users": [
                    "U0NS3HEGL"
                ],
                "count": 1
            }
        ]
    },
    {
        "type": "message",
        "user": "U0LQDTH7V",
        "text": "forget the logo",
        "ts": "1457613755.000010"
    },
    {
        "type": "message",
        "user": "U0LQDTH7V",
        "text": "is just an example :simple_smile:",
        "ts": "1457613759.000011"
    },
    {
        "type": "message",
        "user": "U0LQDTH7V",
        "text": "ready",
        "ts": "1457613765.000012"
    },
    {
        "type": "message",
        "user": "U0LQDTH7V",
        "text": "just need to configure the website",
        "ts": "1457613771.000013",
        "reactions": [
            {
                "name": "+1",
                "users": [
                    "U0PUFAPAN"
                ],
                "count": 1
            }
        ]
    },
    {
        "type": "message",
        "user": "U0LQDTH7V",
        "text": "I guess in a week we can have this service ready to go",
        "ts": "1457613781.000014"
    },
    {
        "type": "message",
        "user": "U0PUFAPAN",
        "text": "Nice! We just figure out listings and  the logo etc and it's a relatively easy start up.. and can apply internationally",
        "ts": "1457613870.000015"
    },
    {
        "type": "message",
        "user": "U0LQDTH7V",
        "text": "whats your e-mail",
        "ts": "1457613880.000016"
    },
    {
        "type": "message",
        "user": "U0LQDTH7V",
        "text": "let me invite you to admin",
        "ts": "1457613884.000017"
    },
    {
        "type": "message",
        "user": "U0PUFAPAN",
        "text": "<mailto:matthewsimpson88@hotmail.co.uk|matthewsimpson88@hotmail.co.uk>",
        "ts": "1457613896.000018"
    },
    {
        "type": "message",
        "user": "U0LQDTH7V",
        "text": "Going for a walk",
        "ts": "1457613971.000019"
    },
    {
        "type": "message",
        "user": "U0LQDTH7V",
        "text": "when I come try to figure out how to add you as admin",
        "ts": "1457613981.000020"
    },
    {
        "type": "message",
        "user": "U0LQDTH7V",
        "text": "I think once you register I can",
        "ts": "1457613988.000021"
    },
    {
        "type": "message",
        "user": "U0LQDTH7V",
        "text": "But looks ok right?",
        "ts": "1457613993.000022"
    },
    {
        "type": "message",
        "user": "U0PUFAPAN",
        "text": "My internet keeps cutting out anyway. But it looks very cool for a start up!",
        "ts": "1457614007.000023"
    },
    {
        "type": "message",
        "user": "U0LQDTH7V",
        "text": "people can add their services",
        "ts": "1457614022.000024"
    },
    {
        "type": "message",
        "user": "U0PU8BVJQ",
        "text": "Me too please",
        "ts": "1457614026.000025",
        "reactions": [
            {
                "name": "+1",
                "users": [
                    "U0PUFAPAN"
                ],
                "count": 1
            }
        ]
    },
    {
        "type": "message",
        "user": "U0LQDTH7V",
        "text": "works on mobile",
        "ts": "1457614026.000026"
    },
    {
        "type": "message",
        "user": "U0LQDTH7V",
        "text": "and people can send messages inside the software",
        "ts": "1457614044.000027"
    },
    {
        "type": "message",
        "user": "U0LQDTH7V",
        "text": "just like airbnb",
        "ts": "1457614048.000028"
    },
    {
        "type": "message",
        "user": "U0LQDTH7V",
        "text": "Ok back soon",
        "ts": "1457614067.000029"
    },
    {
        "type": "message",
        "user": "U0PUFAPAN",
        "text": "Ok my I will only be available on my phone later today but I like the idea and I think we should of course add Linda, Marco and anyone who was involved as admins. Let's get this going! Let's brainstorm some logos. I'll do that later today",
        "ts": "1457614174.000030"
    },
    {
        "type": "message",
        "user": "U0LQDTH7V",
        "text": "I am ok not being part of it. I like the idea a lot and will help setting up the website.",
        "ts": "1457619423.000031"
    },
    {
        "type": "message",
        "user": "U0LQDTH7V",
        "text": "Is an idea that involves loads of web work but I guess Marco can do it",
        "ts": "1457619441.000032"
    },
    {
        "type": "message",
        "user": "U0LQDTH7V",
        "text": "Should I continue work on it?",
        "ts": "1457620034.000033"
    },
    {
        "type": "message",
        "user": "U0PUFAPAN",
        "text": "Personally speaking I think it is wrong to not include anyone. I welcome anyone who is interested and likes this idea. Therefore of course I have absolutely no problem and I think we are stronger together as a team with every aspect of this project.  I think initiative is great and we need all the help we can get on every front for all the different cooperatives. I don't want things to just stagnate and not go anywhere because we fear we're sacrificing our rights or ideas. I love the idea of openness (as discussed). So for example, we who are interested in this core group are administrators and all have a say and can expand upon this.  We can also agree on how we can split costs such as domain name renting, copyright registration and take legal rights/rolls within a cooperative. I like the principles idea of what you said on the other channel \"Everything is owned by the organisation and NEVER by an individual. Inside the cooperative everyone has the same shares and everyone decides collectively who earns what\" and I would like to research more into this :simple_smile:",
        "ts": "1457621755.000034"
    },
    {
        "type": "message",
        "user": "U0NS3HEGL",
        "text": "<@U0PUFAPAN> hey, you can create an accounting spreadsheet for this purpose so every costs/expenses are in and can be split with people that wanted to be involved",
        "edited": {
            "user": "U0NS3HEGL",
            "ts": "1457622897.000000"
        },
        "ts": "1457622880.000035"
    },
    {
        "type": "message",
        "user": "U0LQDTH7V",
        "text": "<@U0PUFAPAN> the reason why can\u2019t be owned by everyone is because some people put loads of work and others don\u2019t. Is very easy as well to want to be involved on everything and get nothing done. That\u2019s why I am happy to help with my formal skills software/UI/marketing.",
        "ts": "1457623448.000037"
    },
    {
        "type": "message",
        "user": "U0LQDTH7V",
        "text": "Everyone can use bookavegan but someone needs to take daily responsibility. Book a vegan can create job positions for the people that want to manage it.",
        "ts": "1457623520.000038"
    },
    {
        "type": "message",
        "user": "U0LQDTH7V",
        "text": "Like yourself I am happy to see positions being created and ready to help.",
        "ts": "1457623567.000039"
    },
    {
        "type": "message",
        "user": "U0LQDTH7V",
        "text": "Now this is just my personal suggestion: Keep groups small so things can have focus and move forward with quality. Vegoa should mean sustainability but also quality, when a Vegoan decides to be part of an Organisations needs to make sure it can get it\u2019s best",
        "ts": "1457623657.000040"
    },
    {
        "type": "message",
        "user": "U0LQDTH7V",
        "text": "There is two sides of BOOKAVEGAN, admin it and keep developing it with more options features, and just be one of the vegans in it, the last one everyone can be part of course.",
        "ts": "1457623733.000041",
        "reactions": [
            {
                "name": "+1",
                "users": [
                    "U0NS3HEGL"
                ],
                "count": 1
            }
        ]
    },
    {
        "type": "message",
        "user": "U0LQDTH7V",
        "text": "Am I confused or you are suggesting everyone shoul run Book a Vegan?",
        "ts": "1457623768.000042"
    },
    {
        "type": "message",
        "user": "U0PU8BVJQ",
        "text": "Matthew went to work.\nI personally think the first few people who want to be part of bookavegan should run it, if they want to and are able to.\n",
        "ts": "1457626318.000043",
        "reactions": [
            {
                "name": "+1",
                "users": [
                    "U0LQDTH7V",
                    "U0NS3HEGL",
                    "U0PUFAPAN"
                ],
                "count": 3
            }
        ]
    },
    {
        "user": "U0NRZC42H",
        "type": "message",
        "subtype": "channel_join",
        "text": "<@U0NRZC42H|geraldinestarke> has joined the channel",
        "ts": "1457626343.000044"
    },
    {
        "type": "message",
        "user": "U0LQDTH7V",
        "text": "I personally like the idea a lot, have all my support",
        "ts": "1457626406.000045",
        "reactions": [
            {
                "name": "+1",
                "users": [
                    "U0NS3HEGL",
                    "U0PUFAPAN"
                ],
                "count": 2
            }
        ]
    },
    {
        "type": "message",
        "user": "U0LQDTH7V",
        "text": "If we have it ready next week we could launch it together with <http://Vegoa.org|Vegoa.org> and the first press release",
        "ts": "1457626446.000046"
    },
    {
        "type": "message",
        "user": "U0PU8BVJQ",
        "text": "Though tiago, it's great that you're helping and thank you for that. But I'm not sure that I'm comfortable with you buying the domain right away and taking the lead in this. We could have also done it.\nI also don't think it's a good idea that one person owns all our websites and social media. No offense.\n I'll send you a message later.",
        "ts": "1457627693.000047"
    },
    {
        "type": "message",
        "user": "U0LQDTH7V",
        "text": "<@U0PU8BVJQ>: like I said, I don\u2019t own anything, the domain will be owned by the cooperative",
        "ts": "1457627769.000048"
    },
    {
        "type": "message",
        "user": "U0LQDTH7V",
        "text": "Just because I got it does not mean I own it",
        "ts": "1457627783.000049"
    },
    {
        "type": "message",
        "user": "U0LQDTH7V",
        "text": "That is the trust I was refering to",
        "ts": "1457627800.000050"
    },
    {
        "type": "message",
        "user": "U0LQDTH7V",
        "text": "very useful in the real world",
        "ts": "1457627807.000051"
    },
    {
        "type": "message",
        "user": "U0LQDTH7V",
        "text": "but something not nice in a team",
        "ts": "1457627815.000052"
    },
    {
        "type": "message",
        "user": "U0NS3HEGL",
        "text": "<@U0PU8BVJQ>: the domain name ownership can be transferred to a new individual or company",
        "ts": "1457627827.000053"
    },
    {
        "type": "message",
        "user": "U0LQDTH7V",
        "text": "we needed the domain to setup the website",
        "ts": "1457627841.000054"
    },
    {
        "type": "message",
        "user": "U0LQDTH7V",
        "text": "Please create an account in <http://iwantmyname.com|iwantmyname.com>",
        "ts": "1457627873.000055"
    },
    {
        "type": "message",
        "user": "U0LQDTH7V",
        "text": "I will transfer the domain right way",
        "ts": "1457627883.000056",
        "reactions": [
            {
                "name": "+1",
                "users": [
                    "U0NS3HEGL"
                ],
                "count": 1
            }
        ]
    },
    {
        "type": "message",
        "user": "U0LQDTH7V",
        "text": "You can as well create an account in other registrar but then will cost you money",
        "ts": "1457627928.000057"
    },
    {
        "user": "U0PHF0UAZ",
        "inviter": "U0LQDTH7V",
        "type": "message",
        "subtype": "channel_join",
        "text": "<@U0PHF0UAZ|erwan.lr> has joined the channel",
        "ts": "1457628115.000058"
    },
    {
        "user": "U0LQP85B3",
        "inviter": "U0LQDTH7V",
        "type": "message",
        "subtype": "channel_join",
        "text": "<@U0LQP85B3|melissa> has joined the channel",
        "ts": "1457628115.000059"
    },
    {
        "user": "U0QATCU4Q",
        "inviter": "U0LQDTH7V",
        "type": "message",
        "subtype": "channel_join",
        "text": "<@U0QATCU4Q|jamesleipert> has joined the channel",
        "ts": "1457628115.000060"
    },
    {
        "user": "U0PHHAK7Z",
        "inviter": "U0LQDTH7V",
        "type": "message",
        "subtype": "channel_join",
        "text": "<@U0PHHAK7Z|mark> has joined the channel",
        "ts": "1457628115.000061"
    },
    {
        "user": "U0NS0B5EG",
        "inviter": "U0LQDTH7V",
        "type": "message",
        "subtype": "channel_join",
        "text": "<@U0NS0B5EG|mike.peach> has joined the channel",
        "ts": "1457628115.000062"
    },
    {
        "user": "U0QKF88EQ",
        "inviter": "U0LQDTH7V",
        "type": "message",
        "subtype": "channel_join",
        "text": "<@U0QKF88EQ|yanay_phenix> has joined the channel",
        "ts": "1457628115.000063"
    },
    {
        "user": "U0RCKAPAT",
        "inviter": "U0LQDTH7V",
        "type": "message",
        "subtype": "channel_join",
        "text": "<@U0RCKAPAT|kati> has joined the channel",
        "ts": "1457628115.000064"
    },
    {
        "user": "U0QJ6TY92",
        "inviter": "U0LQDTH7V",
        "type": "message",
        "subtype": "channel_join",
        "text": "<@U0QJ6TY92|simonavinati> has joined the channel",
        "ts": "1457628116.000065"
    },
    {
        "user": "U0Q4CU0KB",
        "inviter": "U0LQDTH7V",
        "type": "message",
        "subtype": "channel_join",
        "text": "<@U0Q4CU0KB|theus> has joined the channel",
        "ts": "1457628116.000066"
    },
    {
        "user": "U0RLUAGQM",
        "inviter": "U0LQDTH7V",
        "type": "message",
        "subtype": "channel_join",
        "text": "<@U0RLUAGQM|catycat> has joined the channel",
        "ts": "1457628116.000067"
    },
    {
        "type": "message",
        "user": "U0LQDTH7V",
        "text": "Self-management without trust just does not work",
        "ts": "1457628211.000068"
    },
    {
        "type": "message",
        "user": "U0LQDTH7V",
        "text": "I suggested the software, I guess my help is not needed anymore",
        "ts": "1457628254.000069"
    },
    {
        "type": "message",
        "user": "U0LQDTH7V",
        "text": "I will continue other tasks",
        "ts": "1457628262.000070"
    },
    {
        "type": "message",
        "user": "U0LQDTH7V",
        "text": "let me know when you need my skills",
        "ts": "1457628269.000071"
    },
    {
        "type": "message",
        "user": "U0LQDTH7V",
        "text": "I listed them in Simona skills doc",
        "ts": "1457628284.000072"
    },
    {
        "type": "message",
        "user": "U0PU8BVJQ",
        "text": "It's not that I don't trust you. It's more that I would like you to trust me :wink: ",
        "ts": "1457628801.000073"
    },
    {
        "type": "message",
        "user": "U0LQDTH7V",
        "text": "I do trust you 100%",
        "ts": "1457628814.000074"
    },
    {
        "type": "message",
        "user": "U0LQDTH7V",
        "text": "but I needed the domain to continue",
        "ts": "1457628825.000075"
    },
    {
        "type": "message",
        "user": "U0LQDTH7V",
        "text": "Like I said I can setup a platform just like airbnb in a few hours",
        "ts": "1457628850.000076"
    },
    {
        "type": "message",
        "user": "U0LQDTH7V",
        "text": "that is what I was doing",
        "ts": "1457628856.000077"
    },
    {
        "type": "message",
        "user": "U0LQDTH7V",
        "text": "Vegans could start creating their profile",
        "ts": "1457628864.000078"
    },
    {
        "type": "message",
        "user": "U0LQDTH7V",
        "text": "And could be an income for you guys fast",
        "ts": "1457628879.000079"
    },
    {
        "type": "message",
        "user": "U0LQDTH7V",
        "text": "Because I can register a domain in 10 sec I did think was a problem",
        "ts": "1457628895.000080"
    },
    {
        "type": "message",
        "user": "U0LQDTH7V",
        "text": "domain names are transferable",
        "ts": "1457628902.000081"
    },
    {
        "type": "message",
        "user": "U0LQDTH7V",
        "text": "at any time",
        "ts": "1457628905.000082"
    },
    {
        "type": "message",
        "user": "U0LQDTH7V",
        "text": "for free",
        "ts": "1457628907.000083"
    },
    {
        "type": "message",
        "user": "U0PU8BVJQ",
        "text": "I know tiago. And its great that youre helping. Thank you :slightly_smiling_face: (I didnt mean anything bad)",
        "ts": "1457629131.000084"
    },
    {
        "type": "message",
        "user": "U0LQDTH7V",
        "text": "Using this specific software costs when there is no server installation",
        "ts": "1457629192.000085"
    },
    {
        "type": "message",
        "user": "U0LQDTH7V",
        "text": "It may be a bit expensive",
        "ts": "1457629197.000086"
    },
    {
        "type": "message",
        "user": "U0LQDTH7V",
        "text": "<https://www.sharetribe.com/pricing.html>",
        "attachments": [
            {
                "service_name": "Create a marketplace with Sharetribe",
                "title": "Pricing - Create a marketplace with Sharetribe",
                "title_link": "https://www.sharetribe.com/pricing.html",
                "text": "Sharetribe is available in various plans: have a look at our pricing and start your marketplace now!",
                "fallback": "Create a marketplace with Sharetribe: Pricing - Create a marketplace with Sharetribe",
                "image_url": "https://www.sharetribe.com/files/sharing.index.jpg",
                "image_width": 476,
                "image_height": 250,
                "from_url": "https://www.sharetribe.com/pricing.html",
                "image_bytes": 58431,
                "id": 1
            }
        ],
        "ts": "1457629198.000087"
    },
    {
        "type": "message",
        "user": "U0LQDTH7V",
        "text": "we need option two",
        "ts": "1457629202.000088"
    },
    {
        "type": "message",
        "user": "U0LQDTH7V",
        "text": "I would ask you make the decision",
        "edited": {
            "user": "U0LQDTH7V",
            "ts": "1457629244.000000"
        },
        "ts": "1457629220.000089"
    },
    {
        "type": "message",
        "user": "U0LQDTH7V",
        "text": "We can as well host ourselves for free",
        "ts": "1457629368.000094"
    },
    {
        "type": "message",
        "user": "U0LQDTH7V",
        "text": "using the open source",
        "ts": "1457629375.000095"
    },
    {
        "type": "message",
        "user": "U0LQDTH7V",
        "text": "<https://github.com/sharetribe/sharetribe>",
        "attachments": [
            {
                "service_name": "GitHub",
                "title": "sharetribe/sharetribe",
                "title_link": "https://github.com/sharetribe/sharetribe",
                "text": "sharetribe - Open source marketplace platform",
                "fallback": "GitHub: sharetribe/sharetribe",
                "thumb_url": "https://avatars2.githubusercontent.com/u/1733898?v=3&s=400",
                "from_url": "https://github.com/sharetribe/sharetribe",
                "thumb_width": 145,
                "thumb_height": 145,
                "id": 1
            }
        ],
        "ts": "1457629377.000096"
    },
    {
        "type": "message",
        "user": "U0QKF88EQ",
        "text": "For now- can we use existing servers?\nWe have some space on the server we store our business site, and I'm sure others have available servers too...",
        "ts": "1457630845.000098"
    },
    {
        "type": "message",
        "user": "U0QKF88EQ",
        "text": "BTW- I love this idea and would love to be part!\n:wink:",
        "ts": "1457630868.000099"
    },
    {
        "type": "message",
        "user": "U0LQDTH7V",
        "text": "I have servers, the system is Ruby on rails",
        "ts": "1457630887.000100"
    },
    {
        "type": "message",
        "user": "U0LQDTH7V",
        "text": "not easy to handle",
        "ts": "1457630892.000101"
    },
    {
        "type": "message",
        "user": "U0LQDTH7V",
        "text": "but the organisation needs to make the decisions",
        "ts": "1457630914.000102"
    },
    {
        "type": "message",
        "user": "U0LQDTH7V",
        "text": "I wait for a decision",
        "ts": "1457630924.000103"
    },
    {
        "type": "message",
        "user": "U0QKF88EQ",
        "text": "Ohhh, don't know it    =/",
        "ts": "1457630928.000104"
    },
    {
        "type": "message",
        "user": "U0QKF88EQ",
        "text": "who is the organization?!",
        "edited": {
            "user": "U0QKF88EQ",
            "ts": "1457630969.000000"
        },
        "ts": "1457630957.000105"
    },
    {
        "type": "message",
        "user": "U0LQDTH7V",
        "text": "Book a vegan",
        "ts": "1457630967.000106"
    },
    {
        "type": "message",
        "user": "U0LQDTH7V",
        "text": "will be a organisation",
        "ts": "1457630973.000108"
    },
    {
        "type": "message",
        "user": "U0QKF88EQ",
        "text": "Yes, but it isn't... yet...",
        "ts": "1457630987.000109"
    },
    {
        "type": "message",
        "user": "U0LQDTH7V",
        "text": "<@U0NS3HEGL>: prepared a template",
        "ts": "1457630995.000110"
    },
    {
        "type": "message",
        "subtype": "file_share",
        "text": "<@U0LQDTH7V|tiagopita> shared a file: <https://vegoa.slack.com/files/tiagopita/F0RU16J4R/template|Template>",
        "file": {
            "id": "F0RU16J4R",
            "created": 1457630998,
            "timestamp": 1457630998,
            "name": "Template",
            "title": "Template",
            "mimetype": "application/vnd.google-apps.presentation",
            "filetype": "gpres",
            "pretty_type": "GDocs Presentation",
            "user": "U0LQDTH7V",
            "editable": false,
            "size": 345,
            "mode": "external",
            "is_external": true,
            "external_type": "gdrive",
            "is_public": true,
            "public_url_shared": false,
            "display_as_bot": false,
            "username": "",
            "url_private": "https://docs.google.com/a/vegoa.org/presentation/d/1thlmA8raQjpnHZ1jg51MomgHXm7N5rjFnIEX97pNiHE/edit?usp=drivesdk",
            "thumb_64": "https://a.slack-edge.com/66f9/img/files/gpres_64.png",
            "thumb_360": "https://a.slack-edge.com/272a/img/files/gpres_360.png",
            "thumb_360_w": 360,
            "thumb_360_h": 167,
            "permalink": "https://vegoa.slack.com/files/tiagopita/F0RU16J4R/template",
            "channels": [
                "C0RHVBERZ"
            ],
            "groups": [
    
            ],
            "ims": [
    
            ],
            "comments_count": 0,
            "reactions": [
                {
                    "name": "+1",
                    "users": [
                        "U0QKF88EQ"
                    ],
                    "count": 1
                }
            ]
        },
        "user": "U0LQDTH7V",
        "upload": false,
        "display_as_bot": false,
        "username": "<@U0LQDTH7V|tiagopita>",
        "bot_id": null,
        "ts": "1457630999.000112"
    },
    {
        "type": "message",
        "user": "U0PU8BVJQ",
        "text": "It's everyone of us who wants to join",
        "ts": "1457631003.000114"
    },
    {
        "type": "message",
        "user": "U0QKF88EQ",
        "text": "OK, if we know already it's Ruby on rails, does someone has an offer (/knows) how/where we can set it up? (preferably for free)",
        "ts": "1457631071.000115"
    },
    {
        "type": "message",
        "user": "U0PU8BVJQ",
        "text": "So far matthew, linda, yanay and/or phenix",
        "ts": "1457631415.000116"
    },
    {
        "type": "message",
        "user": "U0PU8BVJQ",
        "text": "Tiago, again, it's great that you want to help set up the website. I really appreciate it. ",
        "ts": "1457631520.000117"
    },
    {
        "type": "message",
        "user": "U0NS0B5EG",
        "text": "I'll join; i'll check out the skill document and fill stuff in whenever i get some time",
        "ts": "1457632059.000118"
    },
    {
        "type": "message",
        "user": "U0LQDTH7V",
        "text": "To many people to start, I will help as much as I can, let me know when you need help",
        "ts": "1457632479.000119"
    },
    {
        "type": "message",
        "user": "U0PU8BVJQ",
        "text": "Ok so yes it looks like the second option, is the best one.",
        "ts": "1457632542.000120"
    },
    {
        "type": "message",
        "user": "U0LQDTH7V",
        "text": "I don\u2019t want to sound negative or a know it all, but let\u2019s be realistic, this project initially only needs someone that does software and media enquires and customer support. 2 people",
        "ts": "1457633137.000121"
    },
    {
        "type": "message",
        "user": "U0LQDTH7V",
        "text": "Of course loads of people can help",
        "ts": "1457633145.000122"
    },
    {
        "type": "message",
        "user": "U0LQDTH7V",
        "text": "But I am not opposing, just suggesting",
        "ts": "1457633175.000123"
    },
    {
        "type": "message",
        "user": "U0LQDTH7V",
        "text": "<@U0PU8BVJQ>: installing will be to much work and manutention",
        "ts": "1457633253.000124"
    },
    {
        "type": "message",
        "user": "U0QKF88EQ",
        "text": "What's the alternative? Use their service?\nIt's so expensive... =/",
        "ts": "1457644299.000125"
    },
    {
        "type": "message",
        "user": "U0LQDTH7V",
        "text": "If you don\u2019t have the skills that you will have to use the service",
        "ts": "1457646432.000126"
    },
    {
        "type": "message",
        "user": "U0LQDTH7V",
        "text": "Is easy to manage and should not require any IT Skills",
        "edited": {
            "user": "U0LQDTH7V",
            "ts": "1457646649.000000"
        },
        "ts": "1457646633.000127"
    },
    {
        "type": "message",
        "user": "U0LQDTH7V",
        "text": "when you have your organisation let me know and I will transfer the domain",
        "ts": "1457646670.000129"
    }
]