[
    {
        "user": "U0LQDTH7V",
        "type": "message",
        "subtype": "channel_join",
        "text": "<@U0LQDTH7V|tiagopita> has joined the channel",
        "ts": "1457707367.000002"
    },
    {
        "type": "message",
        "user": "U0LQDTH7V",
        "text": "<https://www.facebook.com/groups/36268273966/>",
        "ts": "1457707372.000003"
    },
    {
        "user": "U0NS3HEGL",
        "type": "message",
        "subtype": "channel_join",
        "text": "<@U0NS3HEGL|canercandan> has joined the channel",
        "ts": "1457711167.000002"
    },
    {
        "type": "message",
        "user": "U0NS3HEGL",
        "text": "if anybody interested by the Pimsleur Portuguese audio courses I\u00a0can share to them",
        "ts": "1457717110.000003"
    }
]