[
    {
        "user": "U0PUFAPAN",
        "type": "message",
        "subtype": "channel_join",
        "text": "<@U0PUFAPAN|matt> has joined the channel",
        "ts": "1456944485.000002"
    }
]