[
    {
        "user": "U0PHF0UAZ",
        "type": "message",
        "subtype": "channel_join",
        "text": "<@U0PHF0UAZ|erwan.lr> has joined the channel",
        "ts": "1457512109.000002"
    },
    {
        "user": "U0LQDTH7V",
        "old_name": "meetup",
        "name": "inalgarve",
        "type": "message",
        "subtype": "channel_name",
        "text": "<@U0LQDTH7V|tiagopita> has renamed the channel from \"meetup\" to \"inalgarve\"",
        "ts": "1457536527.000002"
    },
    {
        "user": "U0LQDTH7V",
        "purpose": "For the Vegoans already in Algarve",
        "type": "message",
        "subtype": "channel_purpose",
        "text": "<@U0LQDTH7V|tiagopita> set the channel purpose: For the Vegoans already in Algarve",
        "ts": "1457536556.000003"
    },
    {
        "type": "message",
        "user": "U0LQDTH7V",
        "text": "I will start looking for a car, as you noticed in here we will need a car or a scooter",
        "ts": "1457536587.000004",
        "reactions": [
            {
                "name": "+1",
                "users": [
                    "U0NS3HEGL"
                ],
                "count": 1
            }
        ]
    }
]