[
    {
        "user": "U0LQDTH7V",
        "members": [
            "U0LQDTH7V",
            "U0LQP85B3",
            "U0NRZC42H",
            "U0NS0B5EG",
            "U0NS3HEGL",
            "U0PHF0UAZ",
            "U0PHHAK7Z",
            "U0PU8BVJQ",
            "U0PUFAPAN",
            "U0Q4CU0KB",
            "U0Q5PBY3A",
            "U0QATCU4Q",
            "U0QJ6TY92",
            "U0QKF88EQ",
            "U0RCKAPAT",
            "U0RLUAGQM",
            "U0S1XJ5UH",
            "U0SCLA45C",
            "U0SUACQEM",
            "U0TETPQBZ"
        ],
        "type": "message",
        "subtype": "channel_archive",
        "text": "<@U0LQDTH7V|tiagopita> archived the channel (w/ 20 members)",
        "ts": "1459103942.000002"
    }
]