[
    {
        "type": "message",
        "user": "U0NS0B5EG",
        "text": "Hey i just uploaded a file to the drive called vegoa project write-up. It's a prototype for a document summarizing our current progress and meetings so far that we can release at the end of march. Let me know what you think and keep in mind this is just an incomplete rough draft, new things can be added throughout march too.",
        "ts": "1457469454.000002",
        "reactions": [
            {
                "name": "+1",
                "users": [
                    "U0NS3HEGL"
                ],
                "count": 1
            }
        ]
    },
    {
        "type": "message",
        "user": "U0NS0B5EG",
        "text": "Or removed/reworded",
        "ts": "1457469472.000003"
    }
]