[
    {
        "type": "message",
        "user": "U0QJ6TY92",
        "text": "yesterday i was in Bologna to visit a friend and we went here for lunch <https://www.facebook.com/likeazoo/photos> unfortunately they have also meat...Inspiring was: they mostly have 0km ingredients, it is also a shop and an art gallery at the same time",
        "attachments": [
            {
                "title": "ZOO",
                "title_link": "https://www.facebook.com/likeazoo/photos",
                "text": "ZOO, Bologna. 24,147 likes \u00b7 662 talking about this \u00b7 3,316 were here. Bakery+Bagels Place+Bookshop+Illustration Gallery+Textile Design+Workshop",
                "fallback": "ZOO",
                "from_url": "https://www.facebook.com/likeazoo/photos",
                "id": 1
            }
        ],
        "ts": "1458307689.000002"
    },
    {
        "user": "U0NS0B5EG",
        "type": "message",
        "subtype": "channel_leave",
        "text": "<@U0NS0B5EG|mike.peach> has left the channel",
        "ts": "1458361392.000004"
    }
]