[
    {
        "type": "message",
        "user": "U0LQDTH7V",
        "text": "Spoke with Elsa regarding prices, flats are the cheapest option initially",
        "ts": "1457514494.000012"
    },
    {
        "type": "message",
        "user": "U0LQDTH7V",
        "text": "a  new 1 bedroom flat costs 250/300  euros in the city center and less outside",
        "ts": "1457514525.000013"
    },
    {
        "type": "message",
        "user": "U0LQDTH7V",
        "text": "a 3 bedroom costs 400/500",
        "ts": "1457514542.000014"
    },
    {
        "type": "message",
        "user": "U0LQDTH7V",
        "text": "cheaper than houses",
        "ts": "1457514554.000015"
    },
    {
        "type": "message",
        "user": "U0LQDTH7V",
        "text": "Initially can be the best solution",
        "ts": "1457514569.000016"
    },
    {
        "user": "U0PU8BVJQ",
        "inviter": "U0LQDTH7V",
        "type": "message",
        "subtype": "channel_join",
        "text": "<@U0PU8BVJQ|linda.guijt> has joined the channel",
        "ts": "1457514748.000017"
    },
    {
        "user": "U0Q5PBY3A",
        "inviter": "U0LQDTH7V",
        "type": "message",
        "subtype": "channel_join",
        "text": "<@U0Q5PBY3A|marco> has joined the channel",
        "ts": "1457514748.000018"
    },
    {
        "user": "U0QATCU4Q",
        "inviter": "U0LQDTH7V",
        "type": "message",
        "subtype": "channel_join",
        "text": "<@U0QATCU4Q|jamesleipert> has joined the channel",
        "ts": "1457514748.000019"
    },
    {
        "user": "U0PHHAK7Z",
        "inviter": "U0LQDTH7V",
        "type": "message",
        "subtype": "channel_join",
        "text": "<@U0PHHAK7Z|mark> has joined the channel",
        "ts": "1457514748.000020"
    },
    {
        "user": "U0QJ6TY92",
        "inviter": "U0LQDTH7V",
        "type": "message",
        "subtype": "channel_join",
        "text": "<@U0QJ6TY92|simonavinati> has joined the channel",
        "ts": "1457514749.000021"
    },
    {
        "user": "U0RCKAPAT",
        "inviter": "U0LQDTH7V",
        "type": "message",
        "subtype": "channel_join",
        "text": "<@U0RCKAPAT|kati> has joined the channel",
        "ts": "1457514749.000022"
    },
    {
        "user": "U0QKF88EQ",
        "inviter": "U0LQDTH7V",
        "type": "message",
        "subtype": "channel_join",
        "text": "<@U0QKF88EQ|yanay_phenix> has joined the channel",
        "ts": "1457514749.000023"
    },
    {
        "user": "U0Q4CU0KB",
        "inviter": "U0LQDTH7V",
        "type": "message",
        "subtype": "channel_join",
        "text": "<@U0Q4CU0KB|theus> has joined the channel",
        "ts": "1457514749.000024"
    },
    {
        "type": "message",
        "user": "U0NS3HEGL",
        "text": "one of the best ads website in portugal: <https://olx.pt/>",
        "ts": "1457517264.000025"
    },
    {
        "type": "message",
        "user": "U0LQDTH7V",
        "text": "400, all bills included 1 bedroom",
        "ts": "1457527451.000026"
    },
    {
        "type": "message",
        "user": "U0LQDTH7V",
        "text": "<http://pt.avenidaproperty.com/propriedade-para-alugar/lagos-centro-historico--apartamento_19630>",
        "attachments": [
            {
                "title": "  Apartamento para alugar Lagos Centro hist\u00f3rico  | T1 | Ref: RAA150LG - Avenida Propriedades ",
                "title_link": "http://pt.avenidaproperty.com/propriedade-para-alugar/lagos-centro-historico--apartamento_19630",
                "text": "Apartamento para alugar Lagos Centro hist\u00f3rico | T1 | Ref: RAA150LG, \u00daltimo andar com amplo terra\u00e7o e boa exposi\u00e7\u00e3o solar! ,Localizado no cora\u00e7\u00e3o do centro hist\u00f3rico da cidad",
                "fallback": "  Apartamento para alugar Lagos Centro hist\u00f3rico  | T1 | Ref: RAA150LG - Avenida Propriedades ",
                "image_url": "http://bo.moonshapes.pt/PropertyFiles/19630/DSC_0030800x533.jpg",
                "from_url": "http://pt.avenidaproperty.com/propriedade-para-alugar/lagos-centro-historico--apartamento_19630",
                "image_width": 375,
                "image_height": 250,
                "image_bytes": 178196,
                "id": 1
            }
        ],
        "ts": "1457527452.000027"
    },
    {
        "type": "message",
        "user": "U0PHF0UAZ",
        "text": "What's the catch on this one ? Sure it's unfurnished bu the price seems very low <http://www.avenidaproperty.com/property-to-rent/lagos--apartment_15031>",
        "attachments": [
            {
                "title": "  Apartment to rent Lagos  | T4s | Ref: RAA96LG - Avenida Propriedades ",
                "title_link": "http://www.avenidaproperty.com/property-to-rent/lagos--apartment_15031",
                "text": "Apartment to rent Lagos | T4s | Ref: RAA96LG, Located in a residential area, apartment with 4 bedrooms &amp; 2 bathrooms,On the 2nd floor without elevator, find this apart",
                "fallback": "  Apartment to rent Lagos  | T4s | Ref: RAA96LG - Avenida Propriedades ",
                "image_url": "http://bo.moonshapes.pt/PropertyFiles/15031/DSC_0036800x533.jpg",
                "from_url": "http://www.avenidaproperty.com/property-to-rent/lagos--apartment_15031",
                "image_width": 375,
                "image_height": 250,
                "image_bytes": 149694,
                "id": 1
            }
        ],
        "ts": "1457530495.000029"
    },
    {
        "type": "message",
        "user": "U0NS0B5EG",
        "text": "400 for 4 bedroom? We should grab it asap",
        "ts": "1457531002.000031"
    }
]