[
    {
        "user": "U0NRZC42H",
        "old_name": "organic-coop",
        "name": "_organic-coop",
        "type": "message",
        "subtype": "channel_name",
        "text": "<@U0NRZC42H|geraldinestarke> has renamed the channel from \"organic-coop\" to \"_organic-coop\"",
        "ts": "1458495992.000044"
    }
]