[
    {
        "type": "message",
        "user": "U0NS3HEGL",
        "text": "talking about outflow of capital in <#C0RHVBERZ>, we were talking with <@U0NRZC42H> about this issue regarding <#C0R0PNZJ7>",
        "ts": "1457894900.000002"
    },
    {
        "type": "message",
        "user": "U0NS3HEGL",
        "text": "because since we are not farming anything ourselves so far it means we will be dependent of the outside world farmers",
        "ts": "1457894943.000003"
    },
    {
        "type": "message",
        "user": "U0NS3HEGL",
        "text": "until an organization for farming (cf. <#C0S61PCAK>) can provide fruits and veggies",
        "ts": "1457894997.000004"
    },
    {
        "type": "message",
        "user": "U0NS3HEGL",
        "text": "it means the organization has to convert its vegoas to euros so it can pay its producers\u2026",
        "ts": "1457895064.000005"
    },
    {
        "type": "message",
        "user": "U0NS3HEGL",
        "text": "we were asking ourselves if it is not better to prepare a farming org first before launching this org so dont need euros\u2026",
        "ts": "1457895111.000006"
    },
    {
        "type": "message",
        "user": "U0NS3HEGL",
        "text": "what are your thoughts about this ?",
        "ts": "1457895156.000007"
    },
    {
        "type": "message",
        "user": "U0LQDTH7V",
        "text": "I think is good to know where how the vegoas leave",
        "ts": "1457895301.000008"
    },
    {
        "type": "message",
        "user": "U0LQDTH7V",
        "text": "this org could help on that",
        "ts": "1457895310.000009"
    },
    {
        "type": "message",
        "user": "U0LQDTH7V",
        "text": "meaning the farming org knows there is a market",
        "ts": "1457895327.000010"
    },
    {
        "type": "message",
        "user": "U0NS3HEGL",
        "text": "make sense, if in the business model/plan org can describe in <https://vegoa.slack.com/files/tiagopita/F0RU16J4R/template>, they can clearly specify what is the expectation of euros spending and why, so vegoans can later try to build an organization to cover these needs",
        "ts": "1457895697.000011"
    },
    {
        "type": "message",
        "subtype": "file_mention",
        "text": "<@U0NS3HEGL|canercandan> mentioned a file: <https://vegoa.slack.com/files/tiagopita/F0RU16J4R/template|Template>",
        "file": {
            "id": "F0RU16J4R",
            "created": 1457630998,
            "timestamp": 1457630998,
            "name": "Template",
            "title": "Template",
            "mimetype": "application/vnd.google-apps.presentation",
            "filetype": "gpres",
            "pretty_type": "GDocs Presentation",
            "user": "U0LQDTH7V",
            "editable": false,
            "size": 345,
            "mode": "external",
            "is_external": true,
            "external_type": "gdrive",
            "is_public": true,
            "public_url_shared": false,
            "display_as_bot": false,
            "username": "",
            "url_private": "https://docs.google.com/a/vegoa.org/presentation/d/1thlmA8raQjpnHZ1jg51MomgHXm7N5rjFnIEX97pNiHE/edit?usp=drivesdk",
            "thumb_64": "https://a.slack-edge.com/66f9/img/files/gpres_64.png",
            "thumb_360": "https://a.slack-edge.com/272a/img/files/gpres_360.png",
            "thumb_360_w": 360,
            "thumb_360_h": 167,
            "permalink": "https://vegoa.slack.com/files/tiagopita/F0RU16J4R/template",
            "channels": [
                "C0RHVBERZ"
            ],
            "groups": [
    
            ],
            "ims": [
    
            ],
            "comments_count": 0,
            "reactions": [
                {
                    "name": "+1",
                    "users": [
                        "U0QKF88EQ"
                    ],
                    "count": 1
                }
            ]
        },
        "user": "U0NS3HEGL",
        "ts": "1457895698.000012"
    },
    {
        "type": "message",
        "user": "U0LQDTH7V",
        "text": "yap",
        "ts": "1457895715.000013"
    }
]