[
    {
        "type": "message",
        "user": "U0NRZC42H",
        "text": "hey <@U0QJ6TY92> how would you like to call the category under we put those 2 articles?",
        "ts": "1460057812.000015"
    },
    {
        "type": "message",
        "user": "U0NRZC42H",
        "text": "degrow?  DIY?",
        "ts": "1460057832.000016"
    },
    {
        "type": "message",
        "user": "U0NRZC42H",
        "text": "Receipts?",
        "ts": "1460057863.000017"
    },
    {
        "type": "message",
        "user": "U0NRZC42H",
        "text": "or anything else?",
        "ts": "1460057871.000018"
    },
    {
        "type": "message",
        "user": "U0QJ6TY92",
        "text": "uhm good question...it is a mix between sustainability and dregrowth",
        "ts": "1460057875.000019"
    },
    {
        "type": "message",
        "user": "U0QJ6TY92",
        "text": "Easy degrowth recipes?",
        "ts": "1460057923.000020"
    },
    {
        "type": "message",
        "user": "U0NRZC42H",
        "text": "we can only put one word :smile:",
        "ts": "1460057942.000021"
    },
    {
        "type": "message",
        "user": "U0NRZC42H",
        "text": "it will appear in the menu on the website",
        "ts": "1460057958.000022"
    },
    {
        "type": "message",
        "user": "U0NRZC42H",
        "text": "like a menu title",
        "ts": "1460057962.000023"
    },
    {
        "type": "message",
        "user": "U0QJ6TY92",
        "text": "XD sorry guys XD",
        "ts": "1460057991.000024"
    },
    {
        "type": "message",
        "user": "U0QJ6TY92",
        "text": "Degrowth",
        "ts": "1460058005.000025"
    },
    {
        "type": "message",
        "user": "U0NRZC42H",
        "text": ":grin:",
        "ts": "1460058008.000026"
    },
    {
        "type": "message",
        "user": "U0QJ6TY92",
        "text": "then :wink:",
        "ts": "1460058008.000027"
    },
    {
        "type": "message",
        "user": "U0QJ6TY92",
        "text": ":innocent:",
        "ts": "1460058038.000028"
    },
    {
        "type": "message",
        "user": "U0NRZC42H",
        "text": "ok :simple_smile:",
        "ts": "1460058171.000029"
    },
    {
        "type": "message",
        "user": "U0QJ6TY92",
        "text": "merc\u00ec :heart:",
        "ts": "1460058205.000030"
    },
    {
        "type": "message",
        "user": "U0NRZC42H",
        "text": "de rien! I am putting them online now :smile:",
        "ts": "1460058380.000031"
    },
    {
        "type": "message",
        "user": "U0QJ6TY92",
        "text": "fantastic! i just took pix of \"old bread\" chocolate cake i baked :heart:",
        "ts": "1460058872.000032",
        "reactions": [
            {
                "name": "yum",
                "users": [
                    "U0NRZC42H",
                    "U0NS3HEGL"
                ],
                "count": 2
            }
        ]
    },
    {
        "type": "message",
        "user": "U0NRZC42H",
        "text": "pfouuu it's done!",
        "ts": "1460069350.000033"
    },
    {
        "type": "message",
        "user": "U0NRZC42H",
        "text": "<http://vegoa.org/en/blogs/>",
        "attachments": [
            {
                "title": "The Vegoans blog - Vegoa ",
                "title_link": "http://vegoa.org/en/blogs/",
                "text": "Hundreds of vegans from around the world are getting together in South Portugal to create a thriving self-sustainable community.",
                "fallback": "The Vegoans blog - Vegoa ",
                "from_url": "http://vegoa.org/en/blogs/",
                "id": 1
            }
        ],
        "ts": "1460069367.000034",
        "reactions": [
            {
                "name": "+1",
                "users": [
                    "U0NS3HEGL",
                    "U0PHF0UAZ"
                ],
                "count": 2
            }
        ]
    },
    {
        "type": "message",
        "user": "U0QJ6TY92",
        "text": "great!! merc\u00ec Geraldine :smiley:",
        "ts": "1460094980.000036",
        "reactions": [
            {
                "name": "+1",
                "users": [
                    "U0NRZC42H"
                ],
                "count": 1
            }
        ]
    }
]