[
    {
        "user": "U0LQDTH7V",
        "type": "message",
        "subtype": "channel_join",
        "text": "<@U0LQDTH7V|tiagopita> has joined the channel",
        "ts": "1458112263.000002"
    },
    {
        "user": "U0NS3HEGL",
        "inviter": "U0LQDTH7V",
        "type": "message",
        "subtype": "channel_join",
        "text": "<@U0NS3HEGL|canercandan> has joined the channel",
        "ts": "1458112283.000003"
    },
    {
        "user": "U0RLUAGQM",
        "inviter": "U0LQDTH7V",
        "type": "message",
        "subtype": "channel_join",
        "text": "<@U0RLUAGQM|catycat> has joined the channel",
        "ts": "1458112283.000004"
    },
    {
        "user": "U0S1XJ5UH",
        "inviter": "U0LQDTH7V",
        "type": "message",
        "subtype": "channel_join",
        "text": "<@U0S1XJ5UH|d.e.n.i.s.> has joined the channel",
        "ts": "1458112283.000005"
    },
    {
        "user": "U0SCLA45C",
        "inviter": "U0LQDTH7V",
        "type": "message",
        "subtype": "channel_join",
        "text": "<@U0SCLA45C|elsa_correia> has joined the channel",
        "ts": "1458112283.000006"
    },
    {
        "user": "U0PHF0UAZ",
        "inviter": "U0LQDTH7V",
        "type": "message",
        "subtype": "channel_join",
        "text": "<@U0PHF0UAZ|erwan.lr> has joined the channel",
        "ts": "1458112283.000007"
    },
    {
        "user": "U0NRZC42H",
        "inviter": "U0LQDTH7V",
        "type": "message",
        "subtype": "channel_join",
        "text": "<@U0NRZC42H|geraldinestarke> has joined the channel",
        "ts": "1458112283.000008"
    },
    {
        "user": "U0QATCU4Q",
        "inviter": "U0LQDTH7V",
        "type": "message",
        "subtype": "channel_join",
        "text": "<@U0QATCU4Q|jamesleipert> has joined the channel",
        "ts": "1458112283.000009"
    },
    {
        "user": "U0RCKAPAT",
        "inviter": "U0LQDTH7V",
        "type": "message",
        "subtype": "channel_join",
        "text": "<@U0RCKAPAT|kati> has joined the channel",
        "ts": "1458112283.000010"
    },
    {
        "user": "U0PU8BVJQ",
        "inviter": "U0LQDTH7V",
        "type": "message",
        "subtype": "channel_join",
        "text": "<@U0PU8BVJQ|linda.guijt> has joined the channel",
        "ts": "1458112283.000011"
    },
    {
        "user": "U0Q5PBY3A",
        "inviter": "U0LQDTH7V",
        "type": "message",
        "subtype": "channel_join",
        "text": "<@U0Q5PBY3A|marco> has joined the channel",
        "ts": "1458112283.000012"
    },
    {
        "user": "U0PHHAK7Z",
        "inviter": "U0LQDTH7V",
        "type": "message",
        "subtype": "channel_join",
        "text": "<@U0PHHAK7Z|mark> has joined the channel",
        "ts": "1458112283.000013"
    },
    {
        "user": "U0PUFAPAN",
        "inviter": "U0LQDTH7V",
        "type": "message",
        "subtype": "channel_join",
        "text": "<@U0PUFAPAN|matt> has joined the channel",
        "ts": "1458112283.000014"
    },
    {
        "user": "U0LQP85B3",
        "inviter": "U0LQDTH7V",
        "type": "message",
        "subtype": "channel_join",
        "text": "<@U0LQP85B3|melissa> has joined the channel",
        "ts": "1458112283.000015"
    },
    {
        "user": "U0NS0B5EG",
        "inviter": "U0LQDTH7V",
        "type": "message",
        "subtype": "channel_join",
        "text": "<@U0NS0B5EG|mike.peach> has joined the channel",
        "ts": "1458112283.000016"
    },
    {
        "user": "U0QJ6TY92",
        "inviter": "U0LQDTH7V",
        "type": "message",
        "subtype": "channel_join",
        "text": "<@U0QJ6TY92|simonavinati> has joined the channel",
        "ts": "1458112283.000017"
    },
    {
        "user": "U0SUACQEM",
        "inviter": "U0LQDTH7V",
        "type": "message",
        "subtype": "channel_join",
        "text": "<@U0SUACQEM|susie> has joined the channel",
        "ts": "1458112283.000018"
    },
    {
        "user": "U0Q4CU0KB",
        "inviter": "U0LQDTH7V",
        "type": "message",
        "subtype": "channel_join",
        "text": "<@U0Q4CU0KB|theus> has joined the channel",
        "ts": "1458112284.000019"
    },
    {
        "user": "U0QKF88EQ",
        "inviter": "U0LQDTH7V",
        "type": "message",
        "subtype": "channel_join",
        "text": "<@U0QKF88EQ|yanay_phenix> has joined the channel",
        "ts": "1458112284.000020"
    },
    {
        "type": "message",
        "user": "U0LQDTH7V",
        "text": "Communication in marketing is a very interesting point that can lead to a long discussion ",
        "ts": "1458112315.000021"
    },
    {
        "type": "message",
        "user": "U0LQDTH7V",
        "text": "Different companies use different techniques ",
        "ts": "1458112330.000022"
    },
    {
        "type": "message",
        "user": "U0LQDTH7V",
        "text": "When a team is small and needs to handle to much the best way is not to share to much information with the outside world ",
        "ts": "1458112363.000023"
    },
    {
        "type": "message",
        "user": "U0LQDTH7V",
        "text": "For example we changed location organically when saw the property for sale  ",
        "ts": "1458112403.000024"
    },
    {
        "type": "message",
        "user": "U0LQDTH7V",
        "text": "We have the channels for people that oppose it to do so, they have the right to oppose it at anytime.",
        "ts": "1458112432.000025"
    },
    {
        "type": "message",
        "user": "U0LQDTH7V",
        "text": "Regarding the worries from <@U0PUFAPAN> and <@U0PU8BVJQ> that I believe are shared with more Vegoans, when I created a post saying we have the land is true ",
        "ts": "1458112500.000026"
    },
    {
        "type": "message",
        "user": "U0LQDTH7V",
        "text": "We do have the land, we need a deposit and will have 3 months to raise the money to pay it. This land is not for us to live but will allow us to do so in the beginning and specially in the summer.",
        "ts": "1458112561.000027"
    },
    {
        "type": "message",
        "user": "U0LQDTH7V",
        "text": "This land can easily get the fundraising needed, other lands could not be able and not be ready for tourism anytime soon. ",
        "ts": "1458112604.000028"
    },
    {
        "type": "message",
        "user": "U0LQDTH7V",
        "text": "In my personal view, jobs is a worry for most of us. This plot will create jobs plus more indirect jobs. Will be a place where people that want to know more about Vegoa before joining come and stay.",
        "ts": "1458112678.000029"
    },
    {
        "type": "message",
        "user": "U0LQDTH7V",
        "text": "Is clear that we will have maybe 200 people wanting to join just this year, it may look overwhelming but if we have a platform where this people create organisations that help the next ones than we don't have to worry about 200 people. They will care for each other, organically. ",
        "ts": "1458112772.000030"
    },
    {
        "type": "message",
        "user": "U0LQDTH7V",
        "text": "Now what we do need fast is a wiki/website where all the information is available so people can start making their moves naturally, organically.",
        "ts": "1458112822.000031"
    },
    {
        "type": "message",
        "user": "U0LQDTH7V",
        "text": "Makes sense?",
        "ts": "1458112828.000032",
        "reactions": [
            {
                "name": "+1",
                "users": [
                    "U0NS3HEGL"
                ],
                "count": 1
            }
        ]
    },
    {
        "type": "message",
        "user": "U0RCKAPAT",
        "text": "Agreed ",
        "ts": "1458115571.000002"
    },
    {
        "type": "message",
        "user": "U0PUFAPAN",
        "text": "I agree that you cannot simply go around advertising by sharing too much information with the outside world as it could actually hinder the progress of decision making.  \n\nHowever, it is important that information that may represent us and the project as a whole can go through a small process of filtration among this smaller dedicated group. \nBut also in a way that does not lose spontaneity or enthusiasm.  It could be as simple as getting a second opinion from a few others to ensure no one feels misrepresented. \nOf course we cannot wait for every single person to dissect it  and discuss it at length so we can all be on the same page as it could take weeks.\n But an example would to be to openly discuss future posts, as simple as a channel. And asking hey what do you guys think of this post? before it is posted.\n\" Hey that's really cool but maybe you could say it in a different way\".. ok.. agreed or not agreed.   \nWe're all very active, this would probably take half an hour tops.   \n\nAny design work or whatever I can help with would go through the same process. We create a quick census of support.\n I really wouldn't consider this to be a worry of mine in the sense that I am unhappy or freaking out. On the contrary, I think these discussions (Whilst time consuming)  are an important step towards transparency and a shared vision. It is still early days regarding our shared media vision and this is a way to constructively work on that. Problems, solutions and consensus.\n\nAt the moment we do have a relatively small team and we are working on finding the best solutions through discussions and solid work. \nThe diverse and talented group we are gifted with now provide an example of how we can find solutions to address the larger outside population.\nIt is an important discussion. \n\nTo 'have' could imply ownership, when in reality we want to attain the land through hard work and crowd funding and have been given a time frame to do so in. \n So say for example this was said in the context of facebook. If I was a viewer on facebook, I may make assumptions based on some of the language used. You may think that is being picky and  to be honest, I love the enthusiasm of the post and I don't feel the need to really discuss it further. \nHowever, this message/topic I am writing is about the processes which we use to ensure we agree upon a future media presence and find solutions as a group to do this as we increase our public outreach.\n\nRegarding the land, I think this land is a very great idea and you have all my support.  I fully trust all of you guys abilities and there are no hard feelings throughout this topic. I love the idea and am willing to put in the hard work. I do think it is a very important stepping stone to ensure we can provide the tools necessary for new members to grow within the community and bring about better prospects for jobs and cooperatives. Being a tourist attraction really acts as a catalyst for future advertising and the organisations revenue growth. \nI do think it is a lot of money to raise which I think we can do. But with such an investment we may have to also think about exploring other avenues and possibilities that could grow, where we can actually build or expand upon.   \n\nEither way, I'm committed to the cause and will put in the hard work. \n\nYes I agree upon the idea of a wiki page. It is absolutely necessary. Let's get to work.\n\nI just want a tad more transparency with our media presence and to have within these dedicated group of members a better understanding and collaboration of media content. \nSo let's try to find some solutions. Group discuss ? :simple_smile:\n\nMuch love, Matt",
        "edited": {
            "user": "U0PUFAPAN",
            "ts": "1458138284.000000"
        },
        "ts": "1458138095.000002",
        "reactions": [
            {
                "name": "godmode",
                "users": [
                    "U0NS0B5EG"
                ],
                "count": 1
            }
        ]
    },
    {
        "type": "message",
        "user": "U0PUFAPAN",
        "text": "P.s I am aware of the work on the logo and happy to see this process is being followed.",
        "ts": "1458138218.000004"
    }
]