[
    {
        "user": "U0NS3HEGL",
        "type": "message",
        "subtype": "channel_join",
        "text": "<@U0NS3HEGL|canercandan> has joined the channel",
        "ts": "1457355599.000002"
    },
    {
        "user": "U0NS3HEGL",
        "purpose": "deals with frederic laloux's tail organization",
        "type": "message",
        "subtype": "channel_purpose",
        "text": "<@U0NS3HEGL|canercandan> set the channel purpose: deals with frederic laloux's tail organization",
        "ts": "1457355600.000003"
    },
    {
        "user": "U0PHF0UAZ",
        "inviter": "U0NS3HEGL",
        "type": "message",
        "subtype": "channel_join",
        "text": "<@U0PHF0UAZ|erwan.lr> has joined the channel",
        "ts": "1457355600.000004"
    },
    {
        "user": "U0NRZC42H",
        "inviter": "U0NS3HEGL",
        "type": "message",
        "subtype": "channel_join",
        "text": "<@U0NRZC42H|geraldinestarke> has joined the channel",
        "ts": "1457355600.000005"
    },
    {
        "user": "U0QATCU4Q",
        "inviter": "U0NS3HEGL",
        "type": "message",
        "subtype": "channel_join",
        "text": "<@U0QATCU4Q|jamesleipert> has joined the channel",
        "ts": "1457355600.000006"
    },
    {
        "user": "U0PU8BVJQ",
        "inviter": "U0NS3HEGL",
        "type": "message",
        "subtype": "channel_join",
        "text": "<@U0PU8BVJQ|linda.guijt> has joined the channel",
        "ts": "1457355600.000007"
    },
    {
        "user": "U0PHHAK7Z",
        "inviter": "U0NS3HEGL",
        "type": "message",
        "subtype": "channel_join",
        "text": "<@U0PHHAK7Z|mark> has joined the channel",
        "ts": "1457355600.000008"
    },
    {
        "user": "U0Q5PBY3A",
        "inviter": "U0NS3HEGL",
        "type": "message",
        "subtype": "channel_join",
        "text": "<@U0Q5PBY3A|marco> has joined the channel",
        "ts": "1457355601.000009"
    },
    {
        "user": "U0PUFAPAN",
        "inviter": "U0NS3HEGL",
        "type": "message",
        "subtype": "channel_join",
        "text": "<@U0PUFAPAN|matt> has joined the channel",
        "ts": "1457355601.000010"
    },
    {
        "user": "U0LQP85B3",
        "inviter": "U0NS3HEGL",
        "type": "message",
        "subtype": "channel_join",
        "text": "<@U0LQP85B3|melissa> has joined the channel",
        "ts": "1457355601.000011"
    },
    {
        "user": "U0NS0B5EG",
        "inviter": "U0NS3HEGL",
        "type": "message",
        "subtype": "channel_join",
        "text": "<@U0NS0B5EG|mike.peach> has joined the channel",
        "ts": "1457355601.000012"
    },
    {
        "user": "U0LQDTH7V",
        "inviter": "U0NS3HEGL",
        "type": "message",
        "subtype": "channel_join",
        "text": "<@U0LQDTH7V|tiagopita> has joined the channel",
        "ts": "1457355602.000013"
    },
    {
        "user": "U0Q4CU0KB",
        "inviter": "U0NS3HEGL",
        "type": "message",
        "subtype": "channel_join",
        "text": "<@U0Q4CU0KB|theus> has joined the channel",
        "ts": "1457355602.000014"
    },
    {
        "user": "U0QJ6TY92",
        "inviter": "U0NS3HEGL",
        "type": "message",
        "subtype": "channel_join",
        "text": "<@U0QJ6TY92|simonavinati> has joined the channel",
        "ts": "1457355602.000015"
    },
    {
        "user": "U0QKF88EQ",
        "inviter": "U0NS3HEGL",
        "type": "message",
        "subtype": "channel_join",
        "text": "<@U0QKF88EQ|yanay_phenix> has joined the channel",
        "ts": "1457355602.000016"
    },
    {
        "user": "U0NS3HEGL",
        "purpose": "deals with frederic laloux's tail organization (https://drive.google.com/file/d/0B6FFRX7R02iYWm5jXzRkbWVleTQ/view?usp=sharing)",
        "type": "message",
        "subtype": "channel_purpose",
        "text": "<@U0NS3HEGL|canercandan> set the channel purpose: deals with frederic laloux's tail organization (https://drive.google.com/file/d/0B6FFRX7R02iYWm5jXzRkbWVleTQ/view?usp=sharing)",
        "ts": "1457355643.000017"
    },
    {
        "type": "message",
        "user": "U0NS3HEGL",
        "text": "created a channel about the teal organization idea of Frederic Laloux, you can find the book @ <https://drive.google.com/file/d/0B6FFRX7R02iYWm5jXzRkbWVleTQ/view?usp=sharing>",
        "edited": {
            "user": "U0NS3HEGL",
            "ts": "1457384300.000000"
        },
        "ts": "1457356209.000018"
    },
    {
        "type": "message",
        "subtype": "file_share",
        "text": "<@U0NS3HEGL|canercandan> shared a file: <https://vegoa.slack.com/files/canercandan/F0QRZSGKG/reinventing_organizations_-_frederic_laloux.pdf|Reinventing Organizations - Frederic Laloux.pdf>",
        "file": {
            "id": "F0QRZSGKG",
            "created": 1457356210,
            "timestamp": 1457356210,
            "name": "Reinventing Organizations - Frederic Laloux.pdf",
            "title": "Reinventing Organizations - Frederic Laloux.pdf",
            "mimetype": "application/pdf",
            "filetype": "pdf",
            "pretty_type": "PDF",
            "user": "U0NS3HEGL",
            "editable": false,
            "size": 6970064,
            "mode": "external",
            "is_external": true,
            "external_type": "gdrive",
            "is_public": true,
            "public_url_shared": false,
            "display_as_bot": false,
            "username": "",
            "url_private": "https://drive.google.com/a/candan.fr/file/d/0B6FFRX7R02iYWm5jXzRkbWVleTQ/view?usp=drivesdk",
            "permalink": "https://vegoa.slack.com/files/canercandan/F0QRZSGKG/reinventing_organizations_-_frederic_laloux.pdf",
            "channels": [
                "C0QRW037A"
            ],
            "groups": [
    
            ],
            "ims": [
    
            ],
            "comments_count": 0
        },
        "user": "U0NS3HEGL",
        "upload": false,
        "display_as_bot": false,
        "username": "<@U0NS3HEGL|canercandan>",
        "bot_id": null,
        "ts": "1457356211.000019"
    },
    {
        "user": "U0NS3HEGL",
        "old_name": "tailorganization",
        "name": "tealorganization",
        "type": "message",
        "subtype": "channel_name",
        "text": "<@U0NS3HEGL|canercandan> has renamed the channel from \"tailorganization\" to \"tealorganization\"",
        "ts": "1457384279.000020"
    },
    {
        "user": "U0NS3HEGL",
        "purpose": "deals with frederic laloux's teal organization (https://drive.google.com/file/d/0B6FFRX7R02iYWm5jXzRkbWVleTQ/view?usp=sharing)",
        "type": "message",
        "subtype": "channel_purpose",
        "text": "<@U0NS3HEGL|canercandan> set the channel purpose: deals with frederic laloux's teal organization (https://drive.google.com/file/d/0B6FFRX7R02iYWm5jXzRkbWVleTQ/view?usp=sharing)",
        "ts": "1457384292.000021"
    }
]