[
    {
        "type": "message",
        "subtype": "file_share",
        "text": "<@U0LQDTH7V|tiagopita> uploaded a file: <https://vegoa.slack.com/files/tiagopita/F0UFL96RM/img_2737.jpg|IMG_2737.jpg>",
        "file": {
            "id": "F0UFL96RM",
            "created": 1458642696,
            "timestamp": 1458642696,
            "name": "IMG_2737.jpg",
            "title": "IMG_2737.jpg",
            "mimetype": "image/jpeg",
            "filetype": "jpg",
            "pretty_type": "JPEG",
            "user": "U0LQDTH7V",
            "editable": false,
            "size": 1814871,
            "mode": "hosted",
            "is_external": false,
            "external_type": "",
            "is_public": true,
            "public_url_shared": false,
            "display_as_bot": false,
            "username": "",
            "url_private": "https://files.slack.com/files-pri/T0LQG2RMF-F0UFL96RM/img_2737.jpg?t=xoxe-20832093729-50596563477-50548041731-f5b777b683",
            "url_private_download": "https://files.slack.com/files-pri/T0LQG2RMF-F0UFL96RM/download/img_2737.jpg?t=xoxe-20832093729-50596563477-50548041731-f5b777b683",
            "thumb_64": "https://files.slack.com/files-tmb/T0LQG2RMF-F0UFL96RM-a2e07c469d/img_2737_64.jpg?t=xoxe-20832093729-50596563477-50548041731-f5b777b683",
            "thumb_80": "https://files.slack.com/files-tmb/T0LQG2RMF-F0UFL96RM-a2e07c469d/img_2737_80.jpg?t=xoxe-20832093729-50596563477-50548041731-f5b777b683",
            "thumb_360": "https://files.slack.com/files-tmb/T0LQG2RMF-F0UFL96RM-a2e07c469d/img_2737_360.jpg?t=xoxe-20832093729-50596563477-50548041731-f5b777b683",
            "thumb_360_w": 360,
            "thumb_360_h": 270,
            "thumb_480": "https://files.slack.com/files-tmb/T0LQG2RMF-F0UFL96RM-a2e07c469d/img_2737_480.jpg?t=xoxe-20832093729-50596563477-50548041731-f5b777b683",
            "thumb_480_w": 480,
            "thumb_480_h": 360,
            "thumb_160": "https://files.slack.com/files-tmb/T0LQG2RMF-F0UFL96RM-a2e07c469d/img_2737_160.jpg?t=xoxe-20832093729-50596563477-50548041731-f5b777b683",
            "thumb_720": "https://files.slack.com/files-tmb/T0LQG2RMF-F0UFL96RM-a2e07c469d/img_2737_720.jpg?t=xoxe-20832093729-50596563477-50548041731-f5b777b683",
            "thumb_720_w": 720,
            "thumb_720_h": 540,
            "thumb_960": "https://files.slack.com/files-tmb/T0LQG2RMF-F0UFL96RM-a2e07c469d/img_2737_960.jpg?t=xoxe-20832093729-50596563477-50548041731-f5b777b683",
            "thumb_960_w": 960,
            "thumb_960_h": 720,
            "thumb_1024": "https://files.slack.com/files-tmb/T0LQG2RMF-F0UFL96RM-a2e07c469d/img_2737_1024.jpg?t=xoxe-20832093729-50596563477-50548041731-f5b777b683",
            "thumb_1024_w": 1024,
            "thumb_1024_h": 768,
            "image_exif_rotation": 1,
            "original_w": 3264,
            "original_h": 2448,
            "permalink": "https://vegoa.slack.com/files/tiagopita/F0UFL96RM/img_2737.jpg",
            "permalink_public": "https://slack-files.com/T0LQG2RMF-F0UFL96RM-732253754c",
            "channels": [
                "C0NTE11BR"
            ],
            "groups": [
    
            ],
            "ims": [
    
            ],
            "comments_count": 0
        },
        "user": "U0LQDTH7V",
        "upload": true,
        "display_as_bot": false,
        "username": "<@U0LQDTH7V|tiagopita>",
        "bot_id": null,
        "ts": "1458642703.000062"
    },
    {
        "type": "message",
        "subtype": "file_share",
        "text": "<@U0LQDTH7V|tiagopita> uploaded a file: <https://vegoa.slack.com/files/tiagopita/F0UFLEQKH/img_2739.jpg|IMG_2739.jpg>",
        "file": {
            "id": "F0UFLEQKH",
            "created": 1458642750,
            "timestamp": 1458642750,
            "name": "IMG_2739.jpg",
            "title": "IMG_2739.jpg",
            "mimetype": "image/jpeg",
            "filetype": "jpg",
            "pretty_type": "JPEG",
            "user": "U0LQDTH7V",
            "editable": false,
            "size": 2290827,
            "mode": "hosted",
            "is_external": false,
            "external_type": "",
            "is_public": true,
            "public_url_shared": false,
            "display_as_bot": false,
            "username": "",
            "url_private": "https://files.slack.com/files-pri/T0LQG2RMF-F0UFLEQKH/img_2739.jpg?t=xoxe-20832093729-50596563477-50548041731-f5b777b683",
            "url_private_download": "https://files.slack.com/files-pri/T0LQG2RMF-F0UFLEQKH/download/img_2739.jpg?t=xoxe-20832093729-50596563477-50548041731-f5b777b683",
            "thumb_64": "https://files.slack.com/files-tmb/T0LQG2RMF-F0UFLEQKH-94dabcf246/img_2739_64.jpg?t=xoxe-20832093729-50596563477-50548041731-f5b777b683",
            "thumb_80": "https://files.slack.com/files-tmb/T0LQG2RMF-F0UFLEQKH-94dabcf246/img_2739_80.jpg?t=xoxe-20832093729-50596563477-50548041731-f5b777b683",
            "thumb_360": "https://files.slack.com/files-tmb/T0LQG2RMF-F0UFLEQKH-94dabcf246/img_2739_360.jpg?t=xoxe-20832093729-50596563477-50548041731-f5b777b683",
            "thumb_360_w": 360,
            "thumb_360_h": 270,
            "thumb_480": "https://files.slack.com/files-tmb/T0LQG2RMF-F0UFLEQKH-94dabcf246/img_2739_480.jpg?t=xoxe-20832093729-50596563477-50548041731-f5b777b683",
            "thumb_480_w": 480,
            "thumb_480_h": 360,
            "thumb_160": "https://files.slack.com/files-tmb/T0LQG2RMF-F0UFLEQKH-94dabcf246/img_2739_160.jpg?t=xoxe-20832093729-50596563477-50548041731-f5b777b683",
            "thumb_720": "https://files.slack.com/files-tmb/T0LQG2RMF-F0UFLEQKH-94dabcf246/img_2739_720.jpg?t=xoxe-20832093729-50596563477-50548041731-f5b777b683",
            "thumb_720_w": 720,
            "thumb_720_h": 540,
            "thumb_960": "https://files.slack.com/files-tmb/T0LQG2RMF-F0UFLEQKH-94dabcf246/img_2739_960.jpg?t=xoxe-20832093729-50596563477-50548041731-f5b777b683",
            "thumb_960_w": 960,
            "thumb_960_h": 720,
            "thumb_1024": "https://files.slack.com/files-tmb/T0LQG2RMF-F0UFLEQKH-94dabcf246/img_2739_1024.jpg?t=xoxe-20832093729-50596563477-50548041731-f5b777b683",
            "thumb_1024_w": 1024,
            "thumb_1024_h": 768,
            "image_exif_rotation": 1,
            "original_w": 3264,
            "original_h": 2448,
            "permalink": "https://vegoa.slack.com/files/tiagopita/F0UFLEQKH/img_2739.jpg",
            "permalink_public": "https://slack-files.com/T0LQG2RMF-F0UFLEQKH-edd6c984b1",
            "channels": [
                "C0NTE11BR"
            ],
            "groups": [
    
            ],
            "ims": [
    
            ],
            "comments_count": 0
        },
        "user": "U0LQDTH7V",
        "upload": true,
        "display_as_bot": false,
        "username": "<@U0LQDTH7V|tiagopita>",
        "bot_id": null,
        "ts": "1458642756.000063"
    },
    {
        "type": "message",
        "subtype": "file_share",
        "text": "<@U0LQDTH7V|tiagopita> uploaded a file: <https://vegoa.slack.com/files/tiagopita/F0UFLMCKF/img_2740.jpg|IMG_2740.jpg>",
        "file": {
            "id": "F0UFLMCKF",
            "created": 1458642806,
            "timestamp": 1458642806,
            "name": "IMG_2740.jpg",
            "title": "IMG_2740.jpg",
            "mimetype": "image/jpeg",
            "filetype": "jpg",
            "pretty_type": "JPEG",
            "user": "U0LQDTH7V",
            "editable": false,
            "size": 2709684,
            "mode": "hosted",
            "is_external": false,
            "external_type": "",
            "is_public": true,
            "public_url_shared": false,
            "display_as_bot": false,
            "username": "",
            "url_private": "https://files.slack.com/files-pri/T0LQG2RMF-F0UFLMCKF/img_2740.jpg?t=xoxe-20832093729-50596563477-50548041731-f5b777b683",
            "url_private_download": "https://files.slack.com/files-pri/T0LQG2RMF-F0UFLMCKF/download/img_2740.jpg?t=xoxe-20832093729-50596563477-50548041731-f5b777b683",
            "thumb_64": "https://files.slack.com/files-tmb/T0LQG2RMF-F0UFLMCKF-69881213bd/img_2740_64.jpg?t=xoxe-20832093729-50596563477-50548041731-f5b777b683",
            "thumb_80": "https://files.slack.com/files-tmb/T0LQG2RMF-F0UFLMCKF-69881213bd/img_2740_80.jpg?t=xoxe-20832093729-50596563477-50548041731-f5b777b683",
            "thumb_360": "https://files.slack.com/files-tmb/T0LQG2RMF-F0UFLMCKF-69881213bd/img_2740_360.jpg?t=xoxe-20832093729-50596563477-50548041731-f5b777b683",
            "thumb_360_w": 360,
            "thumb_360_h": 270,
            "thumb_480": "https://files.slack.com/files-tmb/T0LQG2RMF-F0UFLMCKF-69881213bd/img_2740_480.jpg?t=xoxe-20832093729-50596563477-50548041731-f5b777b683",
            "thumb_480_w": 480,
            "thumb_480_h": 360,
            "thumb_160": "https://files.slack.com/files-tmb/T0LQG2RMF-F0UFLMCKF-69881213bd/img_2740_160.jpg?t=xoxe-20832093729-50596563477-50548041731-f5b777b683",
            "thumb_720": "https://files.slack.com/files-tmb/T0LQG2RMF-F0UFLMCKF-69881213bd/img_2740_720.jpg?t=xoxe-20832093729-50596563477-50548041731-f5b777b683",
            "thumb_720_w": 720,
            "thumb_720_h": 540,
            "thumb_960": "https://files.slack.com/files-tmb/T0LQG2RMF-F0UFLMCKF-69881213bd/img_2740_960.jpg?t=xoxe-20832093729-50596563477-50548041731-f5b777b683",
            "thumb_960_w": 960,
            "thumb_960_h": 720,
            "thumb_1024": "https://files.slack.com/files-tmb/T0LQG2RMF-F0UFLMCKF-69881213bd/img_2740_1024.jpg?t=xoxe-20832093729-50596563477-50548041731-f5b777b683",
            "thumb_1024_w": 1024,
            "thumb_1024_h": 768,
            "image_exif_rotation": 1,
            "original_w": 3264,
            "original_h": 2448,
            "permalink": "https://vegoa.slack.com/files/tiagopita/F0UFLMCKF/img_2740.jpg",
            "permalink_public": "https://slack-files.com/T0LQG2RMF-F0UFLMCKF-b48e6d8a42",
            "channels": [
                "C0NTE11BR"
            ],
            "groups": [
    
            ],
            "ims": [
    
            ],
            "comments_count": 0
        },
        "user": "U0LQDTH7V",
        "upload": true,
        "display_as_bot": false,
        "username": "<@U0LQDTH7V|tiagopita>",
        "bot_id": null,
        "ts": "1458642815.000064"
    },
    {
        "type": "message",
        "user": "U0LQDTH7V",
        "text": "I would like to make an offer on this land.     Any questions?",
        "ts": "1458646598.000065"
    },
    {
        "type": "message",
        "user": "U0NS3HEGL",
        "text": "I suggest to start with a very low offer like 200k so we can eventually get an final offer around ~300-350k",
        "edited": {
            "user": "U0NS3HEGL",
            "ts": "1458646713.000000"
        },
        "ts": "1458646691.000066"
    },
    {
        "type": "message",
        "user": "U0LQDTH7V",
        "text": "That's less than half ",
        "ts": "1458646785.000068"
    },
    {
        "type": "message",
        "user": "U0LQDTH7V",
        "text": "Maybe 250k ?",
        "ts": "1458646790.000069"
    },
    {
        "type": "message",
        "user": "U0LQDTH7V",
        "text": "Asking price currently is 470k",
        "ts": "1458646807.000070"
    },
    {
        "type": "message",
        "user": "U0LQDTH7V",
        "text": "Because we don't have the cash available we can't pay in cash ",
        "edited": {
            "user": "U0LQDTH7V",
            "ts": "1458646838.000000"
        },
        "ts": "1458646822.000071"
    },
    {
        "type": "message",
        "user": "U0NRZC42H",
        "text": ":+1:  250k sounds reasonable I think",
        "ts": "1458646854.000073"
    },
    {
        "type": "message",
        "user": "U0NS3HEGL",
        "text": "<@U0LQDTH7V>: if 20 people are interested to be part of this project therefore of the organisation that acquire the land, it means 12.5k\u20ac per member!",
        "ts": "1458646947.000074"
    },
    {
        "type": "message",
        "user": "U0LQDTH7V",
        "text": "We should open it to all new members ",
        "ts": "1458647012.000075",
        "reactions": [
            {
                "name": "+1",
                "users": [
                    "U0NS3HEGL"
                ],
                "count": 1
            }
        ]
    },
    {
        "type": "message",
        "user": "U0NS3HEGL",
        "text": "we can already pay a deposit to fix the price",
        "ts": "1458647024.000076"
    },
    {
        "type": "message",
        "user": "U0LQDTH7V",
        "text": "Everyone that shows interest should start drafting what the land should  be for ",
        "ts": "1458647049.000077",
        "reactions": [
            {
                "name": "+1",
                "users": [
                    "U0NRZC42H",
                    "U0NS3HEGL"
                ],
                "count": 2
            }
        ]
    },
    {
        "type": "message",
        "user": "U0NS3HEGL",
        "text": "that can be part of an organisation business plan",
        "ts": "1458647080.000078"
    },
    {
        "type": "message",
        "user": "U0LQDTH7V",
        "text": "Yap ",
        "ts": "1458647228.000079"
    },
    {
        "type": "message",
        "user": "U0LQDTH7V",
        "text": "Land association",
        "ts": "1458647236.000080",
        "reactions": [
            {
                "name": "+1",
                "users": [
                    "U0NS3HEGL"
                ],
                "count": 1
            }
        ]
    },
    {
        "type": "message",
        "user": "U0LQDTH7V",
        "text": "The way a see it is the following, this land is huge, can accommodate 100 people, even if not all for living, for work and farming. ",
        "ts": "1458648005.000081"
    },
    {
        "type": "message",
        "user": "U0LQDTH7V",
        "text": "If 100 people help, the ones that want to farm and potential visitors tourists. Will be a small amount to each person ",
        "ts": "1458648059.000082",
        "reactions": [
            {
                "name": "+1",
                "users": [
                    "U0NS3HEGL"
                ],
                "count": 1
            }
        ]
    },
    {
        "type": "message",
        "user": "U0NS3HEGL",
        "text": "if 100 people are ready to raise the fund, means 2500-3000\u20ac per individual :wink:",
        "ts": "1458648220.000083",
        "reactions": [
            {
                "name": "+1",
                "users": [
                    "U0QJ6TY92"
                ],
                "count": 1
            }
        ]
    },
    {
        "type": "message",
        "user": "U0LQDTH7V",
        "text": "Let's keep in mind 400k",
        "ts": "1458648244.000084"
    },
    {
        "type": "message",
        "user": "U0LQDTH7V",
        "text": "Is easy as anything left can be used for bulding ",
        "ts": "1458648255.000085"
    },
    {
        "type": "message",
        "user": "U0LQDTH7V",
        "text": "Or others infrastructures ",
        "ts": "1458648471.000086"
    },
    {
        "type": "message",
        "user": "U0LQDTH7V",
        "text": "If we plan 250k and cannot negotiate that than is complicated ",
        "ts": "1458648498.000087"
    },
    {
        "type": "message",
        "user": "U0LQDTH7V",
        "text": "400k is not a crazy amount for a village :) ?",
        "ts": "1458648522.000088"
    },
    {
        "type": "message",
        "user": "U0LQDTH7V",
        "text": "I mean for crowdfunding ",
        "ts": "1458648535.000089"
    },
    {
        "type": "message",
        "user": "U0LQDTH7V",
        "text": "We now need to be fast and efficient ",
        "ts": "1458648544.000090",
        "reactions": [
            {
                "name": "+1",
                "users": [
                    "U0NS3HEGL"
                ],
                "count": 1
            }
        ]
    },
    {
        "type": "message",
        "user": "U0NS3HEGL",
        "text": "small calculations, if we consider not 100 individual but 100 families and knows that a sustainable land for an average family is 2500sqm ~ 0.25 hectar means we only need 25 hectars in the worse scenario everybody want their private 2500sqm land, and nobody want to share a communal space like a village, it also means only one quarter of the land is used :smile:",
        "ts": "1458648787.000091"
    },
    {
        "type": "message",
        "user": "U0LQDTH7V",
        "text": "I just suggested 1 hectare has an example ",
        "ts": "1458648877.000092"
    },
    {
        "type": "message",
        "user": "U0LQDTH7V",
        "text": "Of course is sharing :)",
        "ts": "1458648883.000093"
    },
    {
        "type": "message",
        "user": "U0LQDTH7V",
        "text": "But makes sense the family calculation ",
        "ts": "1458648893.000094"
    },
    {
        "type": "message",
        "user": "U0LQDTH7V",
        "text": "Why don't we then consider 50 families ",
        "ts": "1458648940.000095",
        "reactions": [
            {
                "name": "+1",
                "users": [
                    "U0NS3HEGL"
                ],
                "count": 1
            }
        ]
    },
    {
        "type": "message",
        "user": "U0NS3HEGL",
        "text": "then only 1/8 used :wink:",
        "ts": "1458649038.000096"
    },
    {
        "type": "message",
        "user": "U0LQDTH7V",
        "text": "All is used, but other things ",
        "ts": "1458649065.000097"
    },
    {
        "type": "message",
        "user": "U0LQDTH7V",
        "text": "Maybe forest, retreat businesses ",
        "ts": "1458649076.000098",
        "reactions": [
            {
                "name": "+1",
                "users": [
                    "U0NS3HEGL"
                ],
                "count": 1
            }
        ]
    },
    {
        "type": "message",
        "user": "U0LQDTH7V",
        "text": "Extra farming ",
        "ts": "1458649081.000099",
        "reactions": [
            {
                "name": "+1",
                "users": [
                    "U0NS3HEGL"
                ],
                "count": 1
            }
        ]
    },
    {
        "type": "message",
        "user": "U0LQDTH7V",
        "text": "For pets :)",
        "ts": "1458649095.000100",
        "reactions": [
            {
                "name": "+1",
                "users": [
                    "U0NS3HEGL"
                ],
                "count": 1
            }
        ]
    },
    {
        "type": "message",
        "user": "U0NS3HEGL",
        "text": "the land can accommodate a huge sanctuary and even contribute to a project like the one you showed me last about this UK association that help building huge forest",
        "ts": "1458649143.000101"
    },
    {
        "type": "message",
        "user": "U0LQDTH7V",
        "text": "Yap ",
        "ts": "1458650244.000102"
    },
    {
        "type": "message",
        "user": "U0PHF0UAZ",
        "text": "Some pictures of the 100ha land (fluffy friends are not part of the land :() <https://goo.gl/photos/3P7fio15PCbN9he89>",
        "attachments": [
            {
                "service_name": "Google Photos",
                "title": "Portugal - 100ha Land",
                "title_link": "https://goo.gl/photos/3P7fio15PCbN9he89",
                "text": "17 new photos \u00b7 Album by Erwan Le Rousseau",
                "fallback": "Google Photos: Portugal - 100ha Land",
                "image_url": "https://lh3.googleusercontent.com/C6as2ts0jxlNtlQyNBtt9ouvfzRaJCDQY-tcyfuUHGV35Oy60uWcpZcARBGpcp6Zy23YAmPwy6di",
                "image_width": 333,
                "image_height": 250,
                "from_url": "https://goo.gl/photos/3P7fio15PCbN9he89",
                "image_bytes": 71366,
                "id": 1
            }
        ],
        "edited": {
            "user": "U0PHF0UAZ",
            "ts": "1458658714.000000"
        },
        "ts": "1458658282.000103",
        "reactions": [
            {
                "name": "heart_eyes_cat",
                "users": [
                    "U0NS3HEGL"
                ],
                "count": 1
            },
            {
                "name": "heart_eyes",
                "users": [
                    "U0NRZC42H",
                    "U0SUACQEM"
                ],
                "count": 2
            },
            {
                "name": "grinning",
                "users": [
                    "U0RCKAPAT"
                ],
                "count": 1
            }
        ]
    },
    {
        "type": "message",
        "user": "U0NS3HEGL",
        "text": "awesome thanks for sharing these beautiful pictures :wink:",
        "ts": "1458658814.000106"
    }
]