[
    {
        "user": "U0LQDTH7V",
        "old_name": "searchingforland",
        "name": "_searchingforland",
        "type": "message",
        "subtype": "channel_name",
        "text": "<@U0LQDTH7V|tiagopita> has renamed the channel from \"searchingforland\" to \"_searchingforland\"",
        "ts": "1459115684.000002"
    },
    {
        "user": "U0TETPQBZ",
        "inviter": "U0LQDTH7V",
        "type": "message",
        "subtype": "channel_join",
        "text": "<@U0TETPQBZ|irmine-pema> has joined the channel",
        "ts": "1459115692.000003"
    },
    {
        "user": "U0TKS555J",
        "inviter": "U0LQDTH7V",
        "type": "message",
        "subtype": "channel_join",
        "text": "<@U0TKS555J|daniel-roux> has joined the channel",
        "ts": "1459115692.000004"
    },
    {
        "type": "message",
        "user": "U0LQDTH7V",
        "text": "Because this is really hard work and requires loads of work to summarise land details,  it is now an organisation. Everyone is welcome to join",
        "ts": "1459115731.000005",
        "reactions": [
            {
                "name": "+1",
                "users": [
                    "U0NRZC42H"
                ],
                "count": 1
            }
        ]
    }
]