[
    {
        "user": "U0NS0B5EG",
        "type": "message",
        "subtype": "channel_join",
        "text": "<@U0NS0B5EG|mike.peach> has joined the channel",
        "ts": "1457380032.000002"
    },
    {
        "user": "U0NS0B5EG",
        "purpose": "Channel to discuss ideas and tasks for a vegan bed and breakfast in Portugal to provide income and living arrangements for Vegoa members and visitors.",
        "type": "message",
        "subtype": "channel_purpose",
        "text": "<@U0NS0B5EG|mike.peach> set the channel purpose: Channel to discuss ideas and tasks for a vegan bed and breakfast in Portugal to provide income and living arrangements for Vegoa members and visitors.",
        "ts": "1457380033.000003"
    },
    {
        "user": "U0PHF0UAZ",
        "inviter": "U0NS0B5EG",
        "type": "message",
        "subtype": "channel_join",
        "text": "<@U0PHF0UAZ|erwan.lr> has joined the channel",
        "ts": "1457380033.000004"
    },
    {
        "user": "U0PU8BVJQ",
        "inviter": "U0NS0B5EG",
        "type": "message",
        "subtype": "channel_join",
        "text": "<@U0PU8BVJQ|linda.guijt> has joined the channel",
        "ts": "1457380033.000005"
    },
    {
        "user": "U0QATCU4Q",
        "inviter": "U0NS0B5EG",
        "type": "message",
        "subtype": "channel_join",
        "text": "<@U0QATCU4Q|jamesleipert> has joined the channel",
        "ts": "1457380033.000006"
    },
    {
        "user": "U0NS3HEGL",
        "inviter": "U0NS0B5EG",
        "type": "message",
        "subtype": "channel_join",
        "text": "<@U0NS3HEGL|canercandan> has joined the channel",
        "ts": "1457380033.000007"
    },
    {
        "user": "U0PHHAK7Z",
        "inviter": "U0NS0B5EG",
        "type": "message",
        "subtype": "channel_join",
        "text": "<@U0PHHAK7Z|mark> has joined the channel",
        "ts": "1457380033.000008"
    },
    {
        "user": "U0Q5PBY3A",
        "inviter": "U0NS0B5EG",
        "type": "message",
        "subtype": "channel_join",
        "text": "<@U0Q5PBY3A|marco> has joined the channel",
        "ts": "1457380033.000009"
    },
    {
        "user": "U0PUFAPAN",
        "inviter": "U0NS0B5EG",
        "type": "message",
        "subtype": "channel_join",
        "text": "<@U0PUFAPAN|matt> has joined the channel",
        "ts": "1457380033.000010"
    },
    {
        "user": "U0QJ6TY92",
        "inviter": "U0NS0B5EG",
        "type": "message",
        "subtype": "channel_join",
        "text": "<@U0QJ6TY92|simonavinati> has joined the channel",
        "ts": "1457380033.000011"
    },
    {
        "user": "U0QKF88EQ",
        "inviter": "U0NS0B5EG",
        "type": "message",
        "subtype": "channel_join",
        "text": "<@U0QKF88EQ|yanay_phenix> has joined the channel",
        "ts": "1457380033.000012"
    },
    {
        "user": "U0NRZC42H",
        "inviter": "U0NS0B5EG",
        "type": "message",
        "subtype": "channel_join",
        "text": "<@U0NRZC42H|geraldinestarke> has joined the channel",
        "ts": "1457380033.000013"
    },
    {
        "user": "U0LQP85B3",
        "inviter": "U0NS0B5EG",
        "type": "message",
        "subtype": "channel_join",
        "text": "<@U0LQP85B3|melissa> has joined the channel",
        "ts": "1457380033.000014"
    },
    {
        "user": "U0Q4CU0KB",
        "inviter": "U0NS0B5EG",
        "type": "message",
        "subtype": "channel_join",
        "text": "<@U0Q4CU0KB|theus> has joined the channel",
        "ts": "1457380033.000015"
    },
    {
        "user": "U0LQDTH7V",
        "inviter": "U0NS0B5EG",
        "type": "message",
        "subtype": "channel_join",
        "text": "<@U0LQDTH7V|tiagopita> has joined the channel",
        "ts": "1457380033.000016"
    },
    {
        "type": "message",
        "user": "U0NS0B5EG",
        "text": "Hey this is for discussing plans for the people who want to get a shared apartment and run a bnb out of it to promote the project and accomodate visitors, etc.",
        "ts": "1457380125.000017",
        "reactions": [
            {
                "name": "+1",
                "users": [
                    "U0NS3HEGL"
                ],
                "count": 1
            }
        ]
    },
    {
        "type": "message",
        "user": "U0NS0B5EG",
        "text": "So far I think it's just myself, Erwan,  Linda and Matt who are in. Is there anyone else who wants to join?",
        "ts": "1457380184.000018"
    }
]