[
    {
        "user": "U0PUFAPAN",
        "type": "message",
        "subtype": "channel_join",
        "text": "<@U0PUFAPAN|matt> has joined the channel",
        "ts": "1456950727.000002"
    },
    {
        "user": "U0NS3HEGL",
        "inviter": "U0PUFAPAN",
        "type": "message",
        "subtype": "channel_join",
        "text": "<@U0NS3HEGL|canercandan> has joined the channel",
        "ts": "1456950729.000003"
    },
    {
        "type": "message",
        "user": "U0NS3HEGL",
        "text": "<https://www.google.com/design/spec/style/icons.html#icons-product-icons>",
        "attachments": [
            {
                "service_name": "Google design guidelines",
                "title": "Icons - Style - Google design guidelines",
                "title_link": "https://www.google.com/design/spec/style/icons.html#icons-product-icons",
                "fallback": "Google design guidelines: Icons - Style - Google design guidelines",
                "image_url": "https://material-design.storage.googleapis.com/publish/material_v_4/social.png",
                "from_url": "https://www.google.com/design/spec/style/icons.html#icons-product-icons",
                "image_width": 465,
                "image_height": 250,
                "image_bytes": 14110,
                "id": 1
            }
        ],
        "ts": "1456950736.000004"
    },
    {
        "type": "message",
        "user": "U0NS3HEGL",
        "text": "<https://design.google.com/icons/>",
        "attachments": [
            {
                "title": "Material icons - Google Design",
                "title_link": "https://design.google.com/icons/",
                "text": "Material icons are beautifully crafted, delightful, and easy to use in your web, Android, and iOS projects.",
                "fallback": "Material icons - Google Design",
                "image_url": "https://material-icons.storage.googleapis.com/external-assets/v1/social.png",
                "from_url": "https://design.google.com/icons/",
                "image_width": 250,
                "image_height": 250,
                "image_bytes": 83282,
                "id": 1
            }
        ],
        "ts": "1456950741.000006"
    }
]