[
    {
        "type": "message",
        "user": "U0LQDTH7V",
        "text": "Visit tomorrow at 2pm ",
        "ts": "1458229422.000005"
    },
    {
        "type": "message",
        "user": "U0LQDTH7V",
        "text": "We got loads of information about bulding permission as well ",
        "ts": "1458229439.000006"
    },
    {
        "type": "message",
        "user": "U0LQDTH7V",
        "text": "And loads of lands ",
        "ts": "1458229446.000007",
        "reactions": [
            {
                "name": "+1",
                "users": [
                    "U0NS3HEGL",
                    "U0RCKAPAT",
                    "U0NRZC42H"
                ],
                "count": 3
            }
        ]
    },
    {
        "type": "message",
        "user": "U0QKF88EQ",
        "text": "So what's the plans? for tomorrow?",
        "ts": "1458232599.000008"
    },
    {
        "type": "message",
        "user": "U0LQDTH7V",
        "text": "We will visit the house at 2pm we found a great plot of land as well to build houses that is worth seeing ",
        "ts": "1458235763.000009"
    },
    {
        "type": "message",
        "user": "U0LQDTH7V",
        "text": "We got loads of information about planning permissions as well",
        "ts": "1458235783.000010"
    },
    {
        "type": "message",
        "user": "U0PU8BVJQ",
        "text": "please fill me in about this?",
        "ts": "1458236994.000011"
    },
    {
        "type": "message",
        "user": "U0PU8BVJQ",
        "text": "as im not going to be present tomorrow :wink:",
        "ts": "1458237030.000012"
    },
    {
        "type": "message",
        "user": "U0LQDTH7V",
        "text": "Hi Linda, I will be preparing a doc with all information about what we learned today ",
        "ts": "1458237058.000013"
    },
    {
        "type": "message",
        "user": "U0PU8BVJQ",
        "text": "ah great! thanks",
        "ts": "1458237076.000014",
        "reactions": [
            {
                "name": "+1",
                "users": [
                    "U0QJ6TY92"
                ],
                "count": 1
            }
        ]
    }
]