[
    {
        "type": "message",
        "user": "U0LQDTH7V",
        "text": "We discussed that it may be a good idea to leave up to the organisations to arrange the fundraising as is them that will have to offer the services. ",
        "ts": "1459163789.000002"
    },
    {
        "type": "message",
        "user": "U0LQDTH7V",
        "text": "Can we close this channel?",
        "ts": "1459163801.000003",
        "reactions": [
            {
                "name": "+1",
                "users": [
                    "U0PHF0UAZ",
                    "U0NS3HEGL"
                ],
                "count": 2
            }
        ]
    }
]