[
    {
        "user": "U0NS3HEGL",
        "type": "message",
        "subtype": "channel_leave",
        "text": "<@U0NS3HEGL|canercandan> has left the channel",
        "ts": "1459114555.000002"
    },
    {
        "user": "U0PHF0UAZ",
        "type": "message",
        "subtype": "channel_leave",
        "text": "<@U0PHF0UAZ|erwan.lr> has left the channel",
        "ts": "1459114690.000003"
    }
]