[
    {
        "user": "U0NS0B5EG",
        "type": "message",
        "subtype": "channel_join",
        "text": "<@U0NS0B5EG|mike.peach> has joined the channel",
        "ts": "1457797240.000002"
    },
    {
        "type": "message",
        "user": "U0NS3HEGL",
        "text": "the installation of `vcoin` fails with a `nan.h` missing file error, I\u00a0solved the error with <http://stackoverflow.com/a/31661821/1444133>",
        "attachments": [
            {
                "title": "Cannot install npm package canvas",
                "title_link": "http://stackoverflow.com/a/31661821/1444133",
                "text": "I've been trying to install the npm package canvas all day. I ran: sudo npm install canvas but i get: canvas@1.2.4 install /home/mark/Programming/canvas_npm/node_modules/canvas node-gyp rebuild",
                "fallback": "Cannot install npm package canvas",
                "thumb_url": "http://cdn.sstatic.net/stackoverflow/img/apple-touch-icon@2.png?v=73d79a89bded&a",
                "from_url": "http://stackoverflow.com/a/31661821/1444133",
                "thumb_width": 316,
                "thumb_height": 316,
                "id": 1
            }
        ],
        "ts": "1457816975.000003"
    }
]